Place,Sex,Name,CyrillicName,BodyweightKg,Squat1Kg,Squat2Kg,Squat3Kg,Best3SquatKg,Squat4Kg,Bench1Kg,Bench2Kg,Bench3Kg,Best3BenchKg,Bench4Kg,Deadlift1Kg,Deadlift2Kg,Deadlift3Kg,Best3DeadliftKg,Deadlift4Kg,TotalKg,WeightClassKg,Event,Equipment,Tested,Division,Age,BirthDate
1,M,Vladimir Marchenko,Владимир Марченко,124.3,315,340,-360,340,,175,185,192.5,192.5,,300,320,330,330,,862.5,125,SBD,Wraps,No,Open,31,1984-10-19
1,M,Denis Naydanov,Денис Найданов,86.5,230,240,-245,240,,145,155,-160,155,,215,225,235,235,,630,90,SBD,Wraps,Yes,Juniors 20-23,21,1994-07-10
DQ,M,Vasiliy Dementev,Василий Дементьев,108.1,-190,-190,-190,,,,,,,,,,,,,,110,SBD,Wraps,Yes,Open,25,1990-06-02
DQ,M,Konstantin Meshalkin,Константин Мешалкин,72.2,-90,-100,-100,,,,,,,,,,,,,,75,SBD,Raw,No,Teen 18-19,19,1996-07-31
1,M,Sergey Kloster,Сергей Клостер,88.8,-150,-150,150,150,,120,-127.5,127.5,127.5,,180,190,195,195,,472.5,90,SBD,Raw,No,Open,25,1990-10-01
1,M,Aleksandr Shishkin,Александр Шишкин,99.8,190,200,210,210,,147.5,152.5,157.5,157.5,,190,200,210,210,,577.5,100,SBD,Raw,No,Open,40,1975-10-27
1,F,Anastasiya Voronina,Анастасия Воронина,69,-85,85,-95,85,,35,42.5,-50,42.5,,100,110,117.5,117.5,,245,75,SBD,Raw,Yes,Teen 18-19,19,1997-04-07
1,M,Aleksandr Sivukhin,Александр Сивухин,65.2,-170,175,-180,175,,-105,105,110,110,,180,-205,-205,180,,465,67.5,SBD,Raw,Yes,Juniors 20-23,21,1994-06-29
1,M,Pavel Yashkov,Павел Яшков,73.4,150,-170,170,170,,100,110,115,115,,180,195,-207.5,195,,480,75,SBD,Raw,Yes,Open,35,1980-11-04
1,M,Maksim Naumov,Максим Наумов,90,190,200,205,205,,125,135,-142.5,135,,220,230,-235,230,,570,90,SBD,Raw,Yes,Teen 18-19,19,1996-08-10
1,M,Sergey Vlasov,Сергей Власов,84.6,190,210,-220,210,,120,125,-130,125,,190,205,215,215,,550,90,SBD,Raw,Yes,Open,33,1982-11-17
1,M,Georgiy Kotelnikov,Георгий Котельников,93,-170,170,,170,,140,150,-152.5,150,,200,210,-220,210,,530,100,SBD,Raw,Yes,Juniors 20-23,23,1992-06-04
1,F,Ekaterina Zarubina,Екатерина Зарубина,66.7,,,,,,,,,,,-85,85,90,90,,90,67.5,D,Raw,Yes,Open,32,1984-02-26
1,F,Anastasiya Voronina,Анастасия Воронина,69,,,,,,,,,,,110,117.5,,117.5,,117.5,75,D,Raw,Yes,Teen 18-19,19,1997-04-07
1,M,Aleksandr Sivukhin,Александр Сивухин,65.2,,,,,,,,,,,180,,,180,,180,67.5,D,Raw,Yes,Juniors 20-23,21,1994-06-29
2,M,Aleksandr Stepurin,Александр Степурин,67.1,,,,,,,,,,,150,160,-170,160,,160,67.5,D,Raw,Yes,Juniors 20-23,22,1993-06-16
1,M,Pavel Yashkov,Павел Яшков,73.4,,,,,,,,,,,195,,,195,,195,75,D,Raw,Yes,Open,35,1980-11-04
1,M,Sergey Kitavnin,Сергей Китавнин,76.9,,,,,,,,,,,175,190,205,205,,205,82.5,D,Raw,Yes,Teen 18-19,19,1996-09-21
2,M,Ruslan Khidiyatov,Руслан Хидиятов,80,,,,,,,,,,,145,-155,-155,145,,145,82.5,D,Raw,Yes,Teen 18-19,19,1996-12-23
1,M,Egor Petrov,Егор Петров,81.3,,,,,,,,,,,220,230,240,240,,240,82.5,D,Raw,Yes,Juniors 20-23,20,1996-05-09
1,M,Norayr Gukasyan,Норайр Гукасян,77.7,,,,,,,,,,,230,250,-260,250,,250,82.5,D,Raw,Yes,Open,37,1978-12-23
2,M,Sergey Burdakov,Сергей Бурдаков,80.4,,,,,,,,,,,152.5,162.5,172.5,172.5,,172.5,82.5,D,Raw,Yes,Open,36,1979-07-02
1,M,Anton Shuvaev,Антон Шуваев,87.6,,,,,,,,,,,202.5,215,-230,215,,215,90,D,Raw,Yes,Teen 18-19,18,1997-08-19
1,M,Georgiy Kotelnikov,Георгий Котельников,93,,,,,,,,,,,210,,,210,,210,100,D,Raw,Yes,Juniors 20-23,23,1992-06-04
1,M,Vadim Migunov,Вадим Мигунов,96.5,,,,,,,,,,,175,185,195,195,,195,100,D,Raw,Yes,Open,24,1991-08-02
1,M,Mikhail Bobkov,Михаил Бобков,88,170,190,,190,,,,,,,,,,,,190,90,S,Wraps,Yes,Masters 65-69,68,1947-11-21
1,M,Aleksandr Sivukhin,Александр Сивухин,65.2,175,,,175,,,,,,,,,,,,175,67.5,S,Raw,Yes,Juniors 20-23,21,1994-06-29
DQ,M,Kseniya Belousova,Ксения Белоусова,59.1,,,,,,-55,,,,,,,,,,,60,B,Raw,No,Teen 16-17,16,1999-05-22
1,M,Mikhail Bukharev,Михаил Бухарев,72.7,,,,,,-125,125,-135,125,,,,,,,125,75,B,Raw,No,Open,27,1988-09-10
1,M,Andrey Vdovin,Андрей Вдовин,81.8,,,,,,135,140,147.5,147.5,,,,,,,147.5,82.5,B,Raw,No,Teen 16-17,17,1998-12-13
1,M,Anton Prokofev,Антон Прокофьев,81.1,,,,,,157.5,165,172.5,172.5,,,,,,,172.5,82.5,B,Raw,No,Open,25,1991-02-23
2,M,Konstantin Eryutov,Константин Ерютов,81.2,,,,,,145,152.5,-157.5,152.5,,,,,,,152.5,82.5,B,Raw,No,Open,30,1985-12-21
1,M,Aleksandr Sadovnikov,Александр Садовников,88.2,,,,,,105,110,-115,110,,,,,,,110,90,B,Raw,No,Open,33,1983-05-02
1,M,Aleksey Shishimin,Алексей Шишимин,98.7,,,,,,200,-210,215,215,,,,,,,215,100,B,Raw,No,Open,27,1989-03-21
2,M,Sergey Venediktov,Сергей Венедиктов,96.7,,,,,,185,190,-195,190,,,,,,,190,100,B,Raw,No,Open,34,1981-10-06
3,M,Evgeniy Khomov,Евгений Хомов,92.6,,,,,,180,-185,-185,180,,,,,,,180,100,B,Raw,No,Open,33,1982-07-15
1,M,Artyom Frolov,Артём Фролов,134.4,,,,,,190,200,-205,200,,,,,,,200,140,B,Raw,No,Open,27,1988-10-25
1,F,Tatyana Ulanova,Татьяна Уланова,57.5,,,,,,40,-45,-45,40,,,,,,,40,60,B,Raw,Yes,Masters 45-49,45,1970-07-05
1,F,Ekaterina Marchenko,Екатерина Марченко,69.3,,,,,,82.5,85,87.5,87.5,,,,,,,87.5,75,B,Raw,Yes,Open,29,1986-08-04
1,M,Dmitriy Kiselev,Дмитрий Киселев,73.9,,,,,,100,105,-110,105,,,,,,,105,75,B,Raw,Yes,Juniors 20-23,20,1996-03-09
1,M,Aleksey Kobylyanskiy,Алексей Кобылянский,80.8,,,,,,100,105,-110,105,,,,,,,105,82.5,B,Raw,Yes,Open,38,1977-08-14
1,M,Roman Karavaykin,Роман Каравайкин,86,,,,,,140,-152.5,-152.5,140,,,,,,,140,90,B,Raw,Yes,Juniors 20-23,20,1995-07-03
1,M,Evgeniy Lyapin,Евгений Ляпин,89,,,,,,170,-175,-175,170,,,,,,,170,90,B,Raw,Yes,Open,27,1988-06-03
2,M,Aleksey Kuznetsov,Алексей Кузнецов,89,,,,,,120,125,-132.5,125,,,,,,,125,90,B,Raw,Yes,Open,27,1988-09-26
1,M,Georgiy Kotelnikov,Георгий Котельников,93,,,,,,150,,,150,,,,,,,150,100,B,Raw,Yes,Juniors 20-23,23,1992-06-04
DQ,M,Andrey Deryabin,Андрей Дерябин,97.2,,,,,,-140,-150,-150,,,,,,,,,100,B,Raw,Yes,Juniors 20-23,21,1994-10-07
1,M,Ibrahim Khamkhoev,Ибрагим Хамхоев,99.9,,,,,,210,-217.5,217.5,217.5,,,,,,,217.5,100,B,Raw,Yes,Open,31,1985-02-25
2,M,Dmitriy Russkov,Дмитрий Руссков,96.2,,,,,,-125,125,-132.5,125,,,,,,,125,100,B,Raw,Yes,Open,37,1978-12-28
1,M,Sergey Bolshakov,Сергей Большаков,101.9,,,,,,150,-167.5,-167.5,150,,,,,,,150,110,B,Raw,Yes,Open,25,1991-05-06
1,M,Maksim Shpagin,Максим Шпагин,122.9,,,,,,175,-180,185,185,,,,,,,185,125,B,Raw,Yes,Open,37,1979-01-04
DQ,M,Evgeniy Gornostaev,Евгений Горностаев,99.4,,,,,,-240,-240,-240,,,,,,,,,100,B,Single-ply,No,Open,36,1979-09-29
DQ,M,Dmitriy Bobrov,Дмитрий Бобров,81.8,,,,,,-157.5,-165,-170,,,,,,,,,82.5,B,Multi-ply,No,Open,30,1985-11-15
1,M,Evgeniy Khomov,Евгений Хомов,92.6,,,,,,,,,,,-270,-270,270,270,,270,100,D,Raw,No,Open,33,1982-07-15
1,M,Vasiliy Dovgoborets,Василий Довгоборец,113.9,,,,,,,,,,,300,310,,310,,310,125,D,Raw,No,Open,26,1990-01-25
