Name,Division,BodyweightKg,WeightClassKg,Squat1Kg,Squat2Kg,Squat3Kg,Best3SquatKg,Bench1Kg,Bench2Kg,Bench3Kg,Best3BenchKg,Deadlift1Kg,Deadlift2Kg,Deadlift3Kg,Best3DeadliftKg,TotalKg,Event,Place,Equipment,Sex
Jasmine Caracci,FR-O,46.2,47,80,87.5,92.5,92.5,40,42.5,-45,42.5,90,95,-100,95,230,SBD,1,Raw,F
Janani Ragunathan,FR-O,46.6,47,67.5,72.5,77.5,77.5,27.5,30,32.5,32.5,92.5,97.5,102.5,102.5,212.5,SBD,2,Raw,F
Rachel Smith #1,FR-O,51.6,52,77.5,-80,-80,77.5,35,37.5,-40,37.5,110,115,,115,230,SBD,1,Raw,F
Seriera Lavasani,FR-O,56.8,57,90,100,-105,100,50,52.5,-55,52.5,110,120,-125,120,272.5,SBD,1,Raw,F
Desdemona Tilica,FR-O,54.2,57,77.5,82.5,87.5,87.5,37.5,40,-42.5,40,90,95,-100,95,222.5,SBD,2,Raw,F
Jessica Goodchild,FR-O,57.6,63,110,117.5,122.5,122.5,60,-65,65,65,120,127.5,135,135,322.5,SBD,1,Raw,F
Alison Jones,FR-O,62.6,63,90,95,100,100,55,57.5,60,60,120,130,135,135,295,SBD,2,Raw,F
Josefin Fundin,FR-O,58.2,63,87.5,92.5,-97.5,92.5,57.5,60,-62.5,60,100,105,110,110,262.5,SBD,3,Raw,F
Sophie Rogers,FR-O,61,63,85,-90,-90,85,45,47.5,50,50,100,105,-107.5,105,240,SBD,4,Raw,F
Charlotte Adams,FR-O,62.4,63,-70,75,80,80,47.5,52.5,-55,52.5,102.5,-110,-110,102.5,235,SBD,5,Raw,F
Noreen Kay,FR-O,61.2,63,72.5,75,80,80,40,42.5,-45,42.5,95,100,102.5,102.5,225,SBD,6,Raw,F
Beatrice Fishwick,FR-O,61.8,63,65,,,65,40,,,40,80,,,80,185,SBD,7,Raw,F
Leah Finch,FR-O,68.6,72,140,145,150,150,75,-77.5,-77.5,75,-175,180,-190,180,405,SBD,1,Raw,F
Sam Hines,FR-O,68.8,72,115,120,125,125,60,-62.5,62.5,62.5,155,170,180,180,367.5,SBD,2,Raw,F
Jess Bagdonas,FR-O,69.6,72,115,125,-130,125,60,65,67.5,67.5,145,152.5,157.5,157.5,350,SBD,3,Raw,F
Letitia Lau,FR-O,70,72,105,110,115,115,62.5,67.5,70,70,140,150,157.5,157.5,342.5,SBD,4,Raw,F
Ladoki Toya,FR-O,65,72,107.5,-112.5,112.5,112.5,55,-57.5,57.5,57.5,122.5,135,140,140,310,SBD,5,Raw,F
Florence Eastwood,FR-O,67.6,72,102.5,110,115,115,55,57.5,-60,57.5,120,132.5,-142.5,132.5,305,SBD,6,Raw,F
Jessica Pyle-Carter,FR-O,68.8,72,95,100,-105,100,65,70,72.5,72.5,105,115,120,120,292.5,SBD,7,Raw,F
Erin Hamalainen,FR-O,66.6,72,75,80,85,85,57.5,60,62.5,62.5,95,100,105,105,252.5,SBD,8,Raw,F
Alison Young,FR-O,80,84,112.5,117.5,-122.5,117.5,72.5,77.5,-80,77.5,125,130,135,135,330,SBD,1,Raw,F
Grainne Creighton,FR-O,75.2,84,100,105,107.5,107.5,57.5,60,62.5,62.5,115,120,125,125,295,SBD,2,Raw,F
Connie Foster-Hall,FR-O,81.3,84,77.5,85,90,90,45,50,-52.5,50,120,130,140,140,280,SBD,3,Raw,F
Salman Desai,MR-O,50.6,53,87.5,95,102.5,102.5,65,70,-72.5,70,110,117.5,127.5,127.5,300,SBD,1,Raw,M
Luca Michael,MR-O,59,59,142.5,152.5,-157.5,152.5,-100,100,-107.5,100,-200,200,-210,200,452.5,SBD,1,Raw,M
Anthony Moszuti,MR-O,59.8,66,125,135,-140,135,60,70,-72.5,70,130,142.5,150,150,355,SBD,1,Raw,M
Emmanuel Franklin,MR-O,72.8,74,180,190,200,200,145,155,-160,155,210,225,-237.5,225,580,SBD,1,Raw,M
Todd Davidson,MR-O,72.4,74,160,167.5,175,175,107.5,112.5,117.5,117.5,190,200,207.5,207.5,500,SBD,2,Raw,M
Joshua Chan,MR-O,72.6,74,165,-170,177.5,177.5,117.5,122.5,-130,122.5,180,192.5,200,200,500,SBD,3,Raw,M
Naeemur Rahman,MR-O,73.6,74,-167.5,167.5,175,175,85,-90,-90,85,190,197.5,-205,197.5,457.5,SBD,4,Raw,M
Prasath Srithar,MR-O,72.8,74,135,145,155,155,95,100,107.5,107.5,170,180,190,190,452.5,SBD,5,Raw,M
Eugene Lum,MR-O,73.4,74,140,150,157.5,157.5,80,90,-92.5,90,160,170,180,180,427.5,SBD,6,Raw,M
Warren Haskins,MR-O,81.2,83,170,185,187.5,187.5,120,-130,-130,120,220,230,240,240,547.5,SBD,1,Raw,M
Lok See Ng,MR-O,77.4,83,172.5,182.5,-190,182.5,115,-120,122.5,122.5,215,227.5,235,235,540,SBD,2,Raw,M
Ben Davies,MR-O,81.4,83,190,197.5,-202.5,197.5,115,120,-125,120,215,-225,-225,215,532.5,SBD,3,Raw,M
Colin Chu,MR-O,82.6,83,177.5,190,195,195,117.5,-125,-125,117.5,212.5,220,-227.5,220,532.5,SBD,4,Raw,M
Simon Parsons,MR-O,82,83,170,180,185,185,105,112.5,117.5,117.5,200,-217.5,-222.5,200,502.5,SBD,5,Raw,M
Dominic Gray,MR-O,80.6,83,165,175,182.5,182.5,102.5,-110,-110,102.5,185,195,202.5,202.5,487.5,SBD,6,Raw,M
Adam Fulat,MR-O,90.8,93,252.5,265,-272.5,265,160,170,-175,170,280,295,-310,295,730,SBD,1,Raw,M
Jack Anslow,MR-O,92.8,93,190,205,210,210,142.5,150,152.5,152.5,240,255,-260,255,617.5,SBD,2,Raw,M
Lenny Oseni,MR-O,92.4,93,210,220,,220,155,165,170,170,225,,,225,615,SBD,3,Raw,M
Tom Ruff,MR-O,92.2,93,187.5,200,207.5,207.5,112.5,115,117.5,117.5,230,240,255,255,580,SBD,4,Raw,M
Greg Lock,MR-O,85.6,93,190,200,207.5,207.5,142.5,147.5,150,150,-210,220,-230,220,577.5,SBD,5,Raw,M
Ivan Otim,MR-O,92.8,93,180,187.5,192.5,192.5,110,117.5,-122.5,117.5,240,255,262.5,262.5,572.5,SBD,6,Raw,M
Joseph Moore,MR-O,91,93,180,190,200,200,135,142.5,-145,142.5,210,,,210,552.5,SBD,7,Raw,M
Ben Morgan,MR-O,90.8,93,175,185,-190,185,115,122.5,-127.5,122.5,220,232.5,240,240,547.5,SBD,8,Raw,M
Imran Fulat,MR-O,84.6,93,177.5,190,-200,190,120,130,-140,130,190,205,220,220,540,SBD,9,Raw,M
Luke Foley,MR-O,87.6,93,170,177.5,182.5,182.5,107.5,112.5,-115,112.5,185,200,210,210,505,SBD,10,Raw,M
Jin-Ho Jeong,MR-O,88.2,93,162.5,172.5,180,180,87.5,95,-100,95,180,192.5,200,200,475,SBD,11,Raw,M
Rob Rees,MR-O,102.6,105,240,255,262.5,262.5,-180,180,,180,280,310,,310,752.5,SBD,1,Raw,M
Jeff Ocrah,MR-O,102.4,105,220,230,240,240,165,175,177.5,177.5,270,280,290,290,707.5,SBD,2,Raw,M
Paul Olowogobye,MR-O,103.4,105,250,262.5,270,270,145,-152.5,-152.5,145,250,260,270,270,685,SBD,3,Raw,M
Lewis Cordwell,MR-O,97.6,105,150,-162.5,175,175,115,122.5,-130,122.5,200,215,222.5,222.5,520,SBD,4,Raw,M
Kieran Stubbins,MR-O,103.8,105,180,187.5,-192.5,187.5,110,112.5,115,115,200,-207.5,,200,502.5,SBD,5,Raw,M
Mason Mills,MR-O,110.2,120,242.5,257.5,267.5,267.5,132.5,142.5,147.5,147.5,267.5,285,300,300,715,SBD,1,Raw,M
Dom Patmore,MR-O,119.2,120,200,210,,210,160,165,170,170,270,282.5,-290,282.5,662.5,SBD,2,Raw,M
