JapaneseName,Name,BirthYear,Sex,BodyweightKg,WeightClassKg,Bench1Kg,Bench2Kg,Bench3Kg,Best3BenchKg,TotalKg,Team,Division,Event,Equipment,Place
平山 秋繁,,2001,M,53,53,95,100,110,110,110,厚木商業高等学校,Sub-Juniors,B,Single-ply,1
木村 育史,Yasufumi Kimura,1975,M,58.9,59,200,217.5,219,219,219,Ｋ'ｓ ＧＹＭ,Masters 1,B,Single-ply,1
野田 俊彦,Toshihiko Noda,1979,M,58.75,59,207.5,-217.5,-217.5,207.5,207.5,パワーハウス,Open,B,Single-ply,1
久米 亮平,Kume Ryohei,1988,M,58.65,59,185,190,195,195,195,Ｓ．Ｏ．Ｌ,Open,B,Single-ply,2
村田 元輝,Motoki Murata,1997,M,58.5,59,175,185,192.5,192.5,192.5,Ｋ'ｓ ＧＹＭ横浜,Juniors,B,Single-ply,1
田村 陽,Yo Tamura,1999,M,58.95,59,170,180,192.5,192.5,192.5,青山学院大学,Juniors,B,Single-ply,2
山根 修平,,1978,M,58.45,59,175,180,-190,180,180,Ｋ'ｓ ＧＹＭ横浜,Masters 1,B,Single-ply,2
中田 和夫,Kazuo Nakata,1967,M,58.5,59,167.5,180,-190,180,180,Ｋ'ｓ ＧＹＭ,Masters 2,B,Single-ply,1
中野 衛,,1975,M,58.65,59,180,-187.5,-187.5,180,180,ＢＩＧ ＧＵＮＳ,Masters 1,B,Single-ply,3
池田 尚也,Naoya Ikeda,1970,M,58.75,59,175,-180,-182.5,175,175,個人,Masters 1,B,Single-ply,4
木田 裕太,,1984,M,58.6,59,170,-180,-182.5,170,170,ＳＵＢＳＴＡＣＥＳ［Ｘ］,Open,B,Single-ply,3
石渡 啓之,Hiroyuki Ishiwatari,1959,M,57.7,59,-145,-152.5,152.5,152.5,152.5,パワーハウス,Masters 2,B,Single-ply,2
伊差川 浩之,Hiroyuki Isagawa,1953,M,58.25,59,145,152.5,-160,152.5,152.5,ＰＯＷＥＲ ＳＰＯＲＴ,Masters 3,B,Single-ply,1
山田 真哉,Masaya Yamada,2001,M,57.9,59,150,-165,-170,150,150,浦和学院高校,Sub-Juniors,B,Single-ply,1
吉野 公二,,1969,M,58.55,59,140,145,-147.5,145,145,ＦＩＴＢＵＬＬ,Masters 1,B,Single-ply,5
田中 祐一郎,,1967,M,58.85,59,145,-147.5,-147.5,145,145,個人,Masters 2,B,Single-ply,3
椎木 智良,,1964,M,58.55,59,135,140,-145,140,140,ストロングライン,Masters 2,B,Single-ply,4
馬籠 徹,Toru Magome,1943,M,58.75,59,-125,-125,127.5,127.5,127.5,ＢＩＧ ＧＵＮＳ,Masters 4,B,Single-ply,1
浜山 久雄,Hisao Hamayama,1947,M,57.9,59,-122.5,122.5,-125,122.5,122.5,新日鉄住金名古屋,Masters 4,B,Single-ply,2
亀田 司,,1961,M,59,59,117.5,122.5,-130,122.5,122.5,チーム度肝,Masters 2,B,Single-ply,5
飯塚 進市,,1956,M,57.85,59,110,115,-117.5,115,115,水戸市パワーリフティング協会,Masters 3,B,Single-ply,2
金谷 貴,Takashi Kanaya,1948,M,57.85,59,115,-122.5,-122.5,115,115,ノーリミッツ,Masters 4,B,Single-ply,3
橋本 雅人,,1957,M,58.8,59,112.5,115,-117.5,115,115,ショウワパワークラブ,Masters 3,B,Single-ply,3
渡邉 将慶,,2001,M,58.65,59,-107.5,-107.5,-107.5,,,埼玉県立草加高等学校,Sub-Juniors,B,Single-ply,DQ
福田 将志,Masashi Fukuda,1984,M,65.8,66,237.5,245,-255,245,245,ストロングライン,Open,B,Single-ply,1
水野 瑛,Yo Mizuno,1992,M,64.6,66,-232.5,232.5,-245,232.5,232.5,Ｋ'ｓ ＧＹＭ横浜,Open,B,Single-ply,2
佐藤 義宏,Yoshihiro Sato,1982,M,65.85,66,210,217.5,225,225,225,Ｋ'ｓ ＧＹＭ横浜,Open,B,Single-ply,3
亀谷 充男,,1971,M,65.7,66,212.5,217.5,-225,217.5,217.5,瀬野川トレーニングクラブ,Masters 1,B,Single-ply,1
天川 哲範,,1977,M,65.2,66,190,200,205,205,205,ＥＳＱＵＡＴＩＲ,Masters 1,B,Single-ply,2
中山 久幸,Hisayuki Nakayama,1963,M,63.5,66,195,202.5,-217.5,202.5,202.5,ノーリミッツ,Masters 2,B,Single-ply,1
角田 正義,,1972,M,63.35,66,175,185,190,190,190,チームミラクル,Masters 1,B,Single-ply,3
鈴木 武虎,,1999,M,65.75,66,175,185,190,190,190,ストロングライン,Juniors,B,Single-ply,1
石川 拓也,,1979,M,65.3,66,182.5,-190,-192.5,182.5,182.5,パワーハウス,Open,B,Single-ply,4
矢野 秀幸,,1959,M,65.1,66,170,180,-185,180,180,ＹＡＮＯ ＰＯＷＥＲ ＧＹＭ,Masters 2,B,Single-ply,2
芦崎 高志,,1971,M,65.1,66,170,180,-190,180,180,チーム度肝,Masters 1,B,Single-ply,4
佐藤 恵二,Keiji Sato,1952,M,65.8,66,152.5,157.5,-160,157.5,157.5,京都パワーリフティングクラブ,Masters 3,B,Single-ply,1
岩本 誠一郎,,1968,M,66,66,155,-165,-165,155,155,パワーハウス,Masters 2,B,Single-ply,3
李 炳八,,1958,M,65.3,66,142.5,152.5,-157.5,152.5,152.5,水戸市パワーリフティング協会,Masters 3,B,Single-ply,2
上野 辰彦,,1976,M,65.5,66,142.5,-152.5,152.5,152.5,152.5,個人,Masters 1,B,Single-ply,5
村瀬 伸平,,2000,M,65.55,66,140,147.5,-155,147.5,147.5,浦和学院高校,Sub-Juniors,B,Single-ply,1
森 敬,,1963,M,65.95,66,140,142.5,-157.5,142.5,142.5,個人,Masters 2,B,Single-ply,4
濱田 亮,,1998,M,65.85,66,130,140,-147.5,140,140,Ｋ'ｓ ＧＹＭ横浜,Juniors,B,Single-ply,2
中村 英明,,1960,M,64.85,66,127.5,132.5,135,135,135,埼玉県立草加高等学校,Masters 2,B,Single-ply,5
加藤 元,,1965,M,65.3,66,-130,130,135,135,135,東レ名古屋,Masters 2,B,Single-ply,6
段安 忠信,Tadanobu Danyasu,1944,M,64.4,66,130,-132.5,132.5,132.5,132.5,個人,Masters 4,B,Single-ply,1
石川 貴康,,1974,M,65.05,66,132.5,-147.5,-147.5,132.5,132.5,Ｋ'ｓ ＧＹＭ,Masters 1,B,Single-ply,6
菅谷 道夫,Michio Sugaya,1947,M,65.25,66,127.5,130,132.5,132.5,132.5,ストロングライン,Masters 4,B,Single-ply,2
関根 隆信,,1955,M,65.4,66,127.5,-130,-132.5,127.5,127.5,ストロングライン,Masters 3,B,Single-ply,3
沼田 成昭,,1975,M,64.3,66,125,-132.5,-132.5,125,125,水戸市パワーリフティング協会,Masters 1,B,Single-ply,7
佃 忠和,Tadakazu Tsukuda,1944,M,64.65,66,110,117.5,-127.5,117.5,117.5,横浜ベンチラバーズ,Masters 4,B,Single-ply,3
餅野 法善,,1941,M,65.4,66,50,-55,-60,50,50,スマイルクラブ,Masters 4,B,Single-ply,4
九野 毅,,1968,M,65.95,66,-185,-185,-185,,,ＰＥＡＣＥ ＧＹＭ,Masters 2,B,Single-ply,DQ
児玉 大紀,Daiki Kodama,1979,M,72.55,74,255,272.5,277.5,277.5,277.5,Ｋ'ｓ ＧＹＭ,Open,B,Single-ply,1
菊池 洋介,Yosuke Kikuchi,1995,M,73.3,74,250,-270,275,275,275,Ｋ'ｓ ＧＹＭ横浜,Juniors,B,Single-ply,1
大谷 憲弘,Norihiro Otani,1980,M,73.45,74,230,-245,-252.5,230,230,ＥＳＱＵＡＴＩＲ,Open,B,Single-ply,2
濱田 展行,Nobuyuki Hamada,1969,M,73.3,74,215,225,-230,225,225,Ｋ'ｓ ＧＹＭ,Masters 1,B,Single-ply,1
三島 忠,Tadashi Mishima,1962,M,74,74,-215,-215,223,223,223,Ｋ'ｓ ＧＹＭ,Masters 2,B,Single-ply,1
藤田 博之,,1977,M,73.5,74,215,-220,-227.5,215,215,マッスルプロダクション,Open,B,Single-ply,3
石川 裕士,,1997,M,73.3,74,190,195,-217.5,195,195,青山学院大学,Juniors,B,Single-ply,2
小倉 健二,,1966,M,71.95,74,182.5,-192.5,192.5,192.5,192.5,鎌倉パワーリフティング協会パワエリジム,Masters 2,B,Single-ply,2
矢野 徳宏,,1988,M,72.8,74,180,-200,-200,180,180,ＹＡＮＯ ＰＯＷＥＲ ＧＹＭ,Open,B,Single-ply,4
武田 大輔,,1976,M,73.5,74,180,-190,-190,180,180,ＢＩＧ ＧＵＮＳ,Masters 1,B,Single-ply,3
高畑 剛春,,1975,M,73.85,74,180,-190,-190,180,180,西部組,Masters 1,B,Single-ply,4
田本 廉,,1998,M,71.7,74,170,-180,-195,170,170,Ｋ'ｓ ＧＹＭ横浜,Juniors,B,Single-ply,2
桑原 勉,,1965,M,73.2,74,-165,-165,165,165,165,大谷塾,Masters 2,B,Single-ply,3
佐々木 裕亮,,1984,M,72.85,74,160,-170,-170,160,160,ノーリミッツ,Open,B,Single-ply,5
林 靖弘,,1956,M,73.95,74,150,160,-176,160,160,マッスルプロダクション石川,Masters 3,B,Single-ply,1
市川 勞,,1947,M,72.85,74,150,155,-160,155,155,個人,Masters 4,B,Single-ply,1
内村 政夫,,1959,M,73.45,74,150,-155,155,155,155,ＢＩＧ ＧＵＮＳ,Masters 2,B,Single-ply,4
和田 幸大,,2000,M,72.4,74,150,-173,-173,150,150,ストロングライン,Sub-Juniors,B,Single-ply,1
田中 光章,,1953,M,72.95,74,-135,140,147.5,147.5,147.5,B.P.S,Masters 3,B,Single-ply,2
籠瀬 怜威,,1999,M,67.4,74,145,-170,-170,145,145,Ｋ'ｓ ＧＹＭ,Juniors,B,Single-ply,3
福田 宏幸,,1956,M,71.6,74,140,145,-150,145,145,越谷市民プールトレーニングジム,Masters 3,B,Single-ply,3
草間 伸司,,1987,M,72.8,74,-145,-145,145,145,145,ＥＳＱＵＡＴＩＲ,Open,B,Single-ply,6
佐藤 一夫,,1961,M,71.6,74,142.5,-145,-145,142.5,142.5,パワーハウス,Masters 2,B,Single-ply,5
石田 耕作,,1955,M,73.4,74,125,-130,-130,125,125,パワーハウス,Masters 3,B,Single-ply,4
物江 毅,,1952,M,73.45,74,125,-135,-135,125,125,Team Ponze,Masters 3,B,Single-ply,5
照井 清,,1941,M,68.95,74,95,100,-102.5,100,100,個人,Masters 4,B,Single-ply,2
桃井 雄二,,1957,M,72.85,74,-140,-150,-150,,,チームミラクル,Masters 3,B,Single-ply,DQ
井出 光弘,,1961,M,73.25,74,-187.5,-192.5,-195,,,Ｆ.Ｔ.ＧＹＭ,Masters 2,B,Single-ply,DQ
山本 茂樹,Shigeki Yamamoto,1943,M,73.5,74,-155,-157.5,-157.5,,,ストロングライン,Masters 4,B,Single-ply,DQ
松岡 紀佳,,1971,M,73.95,74,-215,-225,-227.5,,,Ｋ'ｓ ＧＹＭ横浜,Masters 1,B,Single-ply,DQ
大室 豪槻,Goki Omuro,1993,M,82.35,83,-290,292.5,-305,292.5,292.5,Ｋ'ｓ ＧＹＭ,Open,B,Single-ply,1
福島 勇輝,Yuki Fukushima,1986,M,81.1,83,275,-290,-292.5,275,275,Ｆ.Ｔ.ＧＹＭ,Open,B,Single-ply,2
安江 三千夫,,1970,M,82.1,83,-255,255,-262.5,255,255,THE STORONGST WARRIORS,Masters 1,B,Single-ply,1
三輪 景吾,,1981,M,82.5,83,240,247.5,252.5,252.5,252.5,東名アスレチック,Open,B,Single-ply,3
村野 知永,Tomohisa Murano,1994,M,82.05,83,220,-250,250,250,250,Ｋ'ｓ ＧＹＭ,Open,B,Single-ply,4
鈴木 重成,,1973,M,82.35,83,-235,235,-257.5,235,235,Ｋ'ｓ ＧＹＭ横浜,Masters 1,B,Single-ply,2
木目田 隆文,,1994,M,82.5,83,-210,220,-240,220,220,ＥＳＱＵＡＴＩＲ,Open,B,Single-ply,5
松岡 良昭,,1983,M,76.45,83,200,210,-222.5,210,210,Ｋ'ｓ ＧＹＭ横浜,Open,B,Single-ply,6
伊東 永悟,,1968,M,81.9,83,205,210,-212.5,210,210,個人,Masters 2,B,Single-ply,1
牛島 敏裕,,1960,M,81.7,83,200,207.5,-212.5,207.5,207.5,Team Ponze,Masters 2,B,Single-ply,2
石﨑 竜海,,1997,M,81.85,83,205,-235,-247.5,205,205,個人,Juniors,B,Single-ply,1
松岡 俊男,,1963,M,81.65,83,200,-205,-210,200,200,スーパーパワーアサマトレーニングクラブ,Masters 2,B,Single-ply,3
飯島 修,,1954,M,82.45,83,-190,190,195,195,195,大谷塾,Masters 3,B,Single-ply,1
松井 明彦,,1980,M,80.75,83,-190,190,-200,190,190,東レ名古屋,Open,B,Single-ply,7
高橋 秀輔,,1977,M,81.9,83,-185,185,-190,185,185,パワーハウス,Masters 1,B,Single-ply,3
石本 直樹,,1962,M,82.15,83,-180,180,-202.5,180,180,岩崎ＢＣ津山,Masters 2,B,Single-ply,4
小倉 正樹,,1966,M,81.15,83,170,175,-180,175,175,ストロングライン,Masters 2,B,Single-ply,5
山下 卓也,,1968,M,82,83,175,-190,-190,175,175,Ｋ'ｓ ＧＹＭ,Masters 2,B,Single-ply,6
荻久保 大輝,,1998,M,81.9,83,160,170,172.5,172.5,172.5,日本体育大学,Juniors,B,Single-ply,2
後藤 優誠,,2002,M,78.65,83,140,145,150,150,150,瀬野川トレーニングクラブ,Sub-Juniors,B,Single-ply,1
酒井 知隆,,1957,M,82.5,83,140,150,-155,150,150,ノーリミッツ,Masters 3,B,Single-ply,2
對馬 宏,,1952,M,80.9,83,145,-152.5,-152.5,145,145,スーパーパワーアサマトレーニングクラブ,Masters 3,B,Single-ply,3
柳川 龍大,,2000,M,82.8,83,130,-142.5,-150,130,130,厚木商業高等学校,Sub-Juniors,B,Single-ply,2
今泉 春樹,Haruki Imaizumi,1947,M,80.3,83,-80,-80,,,,大谷塾,Masters 4,B,Single-ply,DQ
奥谷 元哉,Motoya Okutani,1980,M,79.05,83,-240,-240,-240,,,Ｋ'ｓ ＧＹＭ,Open,B,Single-ply,DQ
大谷 進,Susumi Otani,1952,M,80.75,83,-185,-185,-185,,,大谷塾,Masters 3,B,Single-ply,DQ
荒木 幸輔,,1982,M,82.35,83,-190,-190,-190,,,Ｋ'ｓ ＧＹＭ横浜,Open,B,Single-ply,DQ
吉川 望,Nozomu Yoshikawa,1986,M,91.5,93,-290,290,-311.5,290,290,Ｋ'ｓ ＧＹＭ,Open,B,Single-ply,1
梁本 智弘,,1986,M,92.55,93,-240,242.5,257.5,257.5,257.5,Ｋ'ｓ ＧＹＭ,Open,B,Single-ply,2
宮本 崇行,,1973,M,89.8,93,245,-247.5,-257.5,245,245,Ｋ'ｓ ＧＹＭ,Masters 1,B,Single-ply,1
松井 竜一,,1976,M,91.9,93,240,-250,-255,240,240,東レ名古屋,Masters 1,B,Single-ply,2
松永 浩二,,1983,M,85.4,93,210,220,230,230,230,個人,Open,B,Single-ply,3
村上 恵造,,1973,M,90.55,93,215,-230,230,230,230,マグナムフィットネスセンター,Masters 1,B,Single-ply,3
池元 優介,,1995,M,90.65,93,-205,205,225,225,225,個人,Juniors,B,Single-ply,1
岸本 洋一,Yoichi Kishimoto,1977,M,92.55,93,205,220,-232.5,220,220,ノーリミッツ,Masters 1,B,Single-ply,4
藤原 英司,,1968,M,86.05,93,190,207.5,215,215,215,Ａｃｔｏｒ,Masters 2,B,Single-ply,1
北川 武志,Takeshi Kitagawa,1958,M,86.35,93,-210,210,-220,210,210,Ｋ'ｓ ＧＹＭ,Masters 3,B,Single-ply,1
竹村 明久,,1973,M,91.45,93,210,-230,-240,210,210,Ｋ'ｓ ＧＹＭ横浜,Masters 1,B,Single-ply,5
渡邊 薫,,1967,M,92.65,93,195,205,-217.5,205,205,スーパーパワーアサマトレーニングクラブ,Masters 2,B,Single-ply,2
目黒 英一,,1969,M,92.05,93,202.5,-212.5,-217.5,202.5,202.5,パワーハウスつくば,Masters 1,B,Single-ply,6
佐久間 直哉,,2000,M,90.25,93,190,195,-205.5,195,195,ストロングライン,Sub-Juniors,B,Single-ply,1
シルバ 英樹,Hideki Da Silva,1999,M,93,93,185,192.5,-200,192.5,192.5,日本体育大学,Juniors,B,Single-ply,2
飴谷 繁章,,1967,M,90.4,93,190,-205,-217.5,190,190,Ｋ'ｓ ＧＹＭ,Masters 2,B,Single-ply,3
安楽 友宏,,1956,M,87.5,93,180,185,-190,185,185,Ｉ.Ｗ.ＧＧ,Masters 3,B,Single-ply,2
笠原 正樹,,1965,M,85.75,93,-160,160,170,170,170,チームミラクル,Masters 2,B,Single-ply,4
西野 渉,,1971,M,88.15,93,170,-177.5,-180,170,170,Ｋ'ｓ ＧＹＭ,Masters 1,B,Single-ply,7
梅澤 丈二,,2001,M,90.9,93,140,150,165,165,165,厚木商業高等学校,Sub-Juniors,B,Single-ply,2
森 壮太,,1998,M,92.15,93,-160,160,-180,160,160,岡山大学ウェイトトレーニング部,Juniors,B,Single-ply,3
当麻 泰久,,1956,M,84.6,93,130,137.5,-142.5,137.5,137.5,スーパーパワーアサマトレーニングクラブ,Masters 3,B,Single-ply,3
河部 勝次,,1942,M,92.2,93,135,-140,-140,135,135,コベルコトレーニングクラブ,Masters 4,B,Single-ply,1
村中 悟,,1964,M,91.6,93,-207.5,-207.5,-217.5,,,高岡ＴＣ,Masters 2,B,Single-ply,DQ
渡辺 雄次,,1980,M,92.05,93,-310,-310,-310,,,パワーハウス赤穂,Open,B,Single-ply,DQ
長谷川 直輝,Naoki Hasegawa,1992,M,92.4,93,-307.5,-307.5,-307.5,,,Ｋ'ｓ ＧＹＭ横浜,Open,B,Single-ply,DQ
中谷 幸市,Kouichi Nakatani,1960,M,92.6,93,-170,-180,-180,,,国士舘中学・高等学校PL部,Masters 2,B,Single-ply,DQ
葛西 昌彦,Masahiko Kassai,1971,M,103.8,105,307.5,315,318.5,318.5,318.5,Ｋ'ｓ ＧＹＭ,Masters 1,B,Single-ply,1
山下 保樹,Yasuki Yamashita,1991,M,103,105,305,312.5,317.5,317.5,317.5,Ｋ'ｓ ＧＹＭ,Open,B,Single-ply,1
佐藤 優輝,Yuki Sato,1983,M,103.2,105,307.5,315,-318,315,315,Ｋ'ｓ ＧＹＭ横浜,Open,B,Single-ply,2
武田 裕介,Yusuke Takeda,1985,M,104.6,105,260,270,-292.5,270,270,ＴＸＰ,Open,B,Single-ply,3
阿久津 貴史,Takahito Akutsu,1982,M,101.5,105,252.5,260,265,265,265,ＴＸＰ,Open,B,Single-ply,4
後藤 衆治,Shuji Goto,1968,M,104.3,105,257.5,265,-275,265,265,瀬野川トレーニングクラブ,Masters 2,B,Single-ply,1
伊藤 智,Satoshi Ito,1966,M,104,105,255,262.5,-272.5,262.5,262.5,Ｋ'ｓ ＧＹＭ,Masters 2,B,Single-ply,2
柴田 道郎,Michio Shibata,1978,M,104.9,105,240,-262.5,-262.5,240,240,team力姫石川,Masters 1,B,Single-ply,2
小川 光寿,,1971,M,93.7,105,200,-210,215,215,215,西部組,Masters 1,B,Single-ply,3
杉本 洋介,,1994,M,104.2,105,210,-215,-215,210,210,パワーハウス,Open,B,Single-ply,5
井戸 浩和,,1960,M,94.8,105,200,-205,-205,200,200,ＰＥＡＣＥ ＧＹＭ,Masters 2,B,Single-ply,3
中山 素彦,,1977,M,104.6,105,-185,185,-200,185,185,パワーハウス長野,Masters 1,B,Single-ply,4
寺田 万寿夫,,1963,M,100.4,105,160,170,172.5,172.5,172.5,マッスルアンドビューティ,Masters 2,B,Single-ply,4
長島 義孝,,1944,M,97.65,105,120,-155,-155,120,120,京都パワーリフティングクラブ,Masters 4,B,Single-ply,1
加藤 男一,,1968,M,100.3,105,-170,-170,-170,,,個人,Masters 2,B,Single-ply,DQ
堀口 耀介,Yosuke Horiguchi,1993,M,104.5,105,-290,-290,-316.5,,,ＴＸＰ,Open,B,Single-ply,DQ
和田 髙平,Kohei Wada,1964,M,119.4,120,315,-320,-330,315,315,Ｋ'ｓ ＧＹＭ,Masters 2,B,Single-ply,1
梶井 俊宏,Toshihiro Kajii,1980,M,109,120,300,-307.5,-307.5,300,300,阪南大学OB会ウエイトトレーニング部,Open,B,Single-ply,1
柏木 悠太郎,,1997,M,119,120,270,275,287.5,287.5,287.5,ストロングライン,Juniors,B,Single-ply,1
橋本 到,,1989,M,108.1,120,280,-285,285,285,285,ノーリミッツ,Open,B,Single-ply,2
山森 智行,Tomoyuki Yamamori,1972,M,108.9,120,-277.5,277.5,282.5,282.5,282.5,Ｋ'ｓ ＧＹＭ,Masters 1,B,Single-ply,1
原 新一,Shinichi Hara,1973,M,114.4,120,-270,270,282.5,282.5,282.5,東レ名古屋,Masters 1,B,Single-ply,2
名越 勇樹,,1998,M,109.1,120,250,-270,-275,250,250,ＢＩＧ ＧＵＮＳ,Juniors,B,Single-ply,2
中村 敏雄,,1970,M,113.1,120,232.5,-245,245,245,245,ＴＸＰ,Masters 1,B,Single-ply,3
川野 智成,,1980,M,116.6,120,245,-252.5,-252.5,245,245,パワーハウス,Open,B,Single-ply,3
岡山 三紀,,1972,M,109.4,120,230,237.5,-245,237.5,237.5,北海道医療大学W・T・C同門会,Masters 1,B,Single-ply,4
森 真人,,1981,M,116.1,120,215,-225,-225,215,215,ＢＩＧ ＧＵＮＳ,Open,B,Single-ply,4
橋本 隆盛,,1997,M,105.2,120,-210,210,-225,210,210,岡山大学ウェイトトレーニング部,Juniors,B,Single-ply,3
辻見 直樹,,1964,M,119.1,120,185,190,195,195,195,スーパーパワーアサマトレーニングクラブ,Masters 2,B,Single-ply,2
柳川 大貴,Daiki Yanagawa,1976,M,131.1,120+,300,-320,327.5,327.5,327.5,リアルスイング,Masters 1,B,Single-ply,1
藤本 竜希,Ryuki Fujimoto,2000,M,121.6,120+,310,325,-330,325,325,リアルスイング,Sub-Juniors,B,Single-ply,1
加瀬 智,,1991,M,122.6,120+,270,300,-327.5,300,300,Ｋ'ｓ ＧＹＭ横浜,Open,B,Single-ply,1
須藤 健介,Kensuke Suto,1997,M,140.4,120+,-270,270,-300,270,270,コスモスポーツ,Juniors,B,Single-ply,1
福嶋 康人,,1965,M,137.9,120+,-185,-185,185,185,185,パワーハウス山口,Masters 2,B,Single-ply,1
浜田 華澄,,2000,F,40.5,43,55,-70.5,-70.5,55,55,Ｋ'ｓ ＧＹＭ横浜,Sub-Juniors,B,Single-ply,1
福島 友佳子,Yukako Fukushima,1970,F,46.55,47,125,132.5,-136.5,132.5,132.5,パワーハウス,Open,B,Single-ply,1
新井 拡子,Hiroko Arai,1963,F,47,47,95,100,105,105,105,スーパーパワーアサマトレーニングクラブ,Masters 2,B,Single-ply,1
菊地 雅,Miyabi Kikuchi,1998,F,47,47,90,95,100.5,100.5,100.5,ＴＸＰ,Juniors,B,Single-ply,1
宮本 智子,Tomoko Miyamoto,1967,F,46.7,47,-95,95,-102.5,95,95,スポーツクラブ・ヴィテン,Masters 2,B,Single-ply,2
餘語 てるみ,,1969,F,45.95,47,72.5,75,77.5,77.5,77.5,マッスルプロダクション板宿,Masters 1,B,Single-ply,1
滝沢 嘉惠,,1957,F,46.35,47,-70,70,-75,70,70,スーパーパワーアサマトレーニングクラブ,Masters 3,B,Single-ply,1
奥村 正子,Masako Okumura,1930,F,45.05,47,-35,35,40,40,40,水戸市パワーリフティング協会,Masters 4,B,Single-ply,1
小林 美都子,,1933,F,46.15,47,27.5,30,-32.5,30,30,個人,Masters 4,B,Single-ply,2
白川 カオリ,Kaori Nagaya-Shirakawa,1963,F,51.45,52,115,120,122.5,122.5,122.5,パワーハウス,Open,B,Single-ply,1
伊賀 梓,,1985,F,51.6,52,115,120,-125,120,120,チーム岡山,Open,B,Single-ply,2
早川 琴果,Kotomi Hayakawa,1995,F,48.45,52,-110,110,-120,110,110,ＥＳＱＵＡＴＩＲ,Open,B,Single-ply,3
赤川 智子,Tomoko Akagawa,1984,F,51.9,52,100,110,-125,110,110,スーパーパワーアサマトレーニングクラブ,Open,B,Single-ply,4
荻野 智子,,1997,F,47.65,52,90,100,-110,100,100,ＥＳＱＵＡＴＩＲ,Juniors,B,Single-ply,1
岩城 千尋,,1964,F,48.35,52,95,-100,-100,95,95,新潟トレーニングセンター,Masters 2,B,Single-ply,1
水野 文江,,1959,F,48.6,52,85,90,95,95,95,ゴールドジム名古屋金山,Masters 2,B,Single-ply,2
澤山 あおい,Aoi Sawayama,1998,F,49.9,52,80,87.5,92.5,92.5,92.5,パワーハウス,Juniors,B,Single-ply,2
西川 亜紀子,,1976,F,50.75,52,87.5,-90,-90,87.5,87.5,チーム鉄腕,Masters 1,B,Single-ply,1
寺村 美香,Mika Teramura,1962,F,51.65,52,82.5,87.5,-97.5,87.5,87.5,江別パワーリフティング協会,Masters 2,B,Single-ply,3
磯田 あかね,,1970,F,51.6,52,80,-85,85,85,85,スーパーパワーアサマトレーニングクラブ,Masters 1,B,Single-ply,2
大澤 幸子,,1956,F,49.85,52,40,-78,78,78,78,ストロングライン,Masters 3,B,Single-ply,1
柴田 昌美,,1965,F,47.8,52,67.5,72.5,-75,72.5,72.5,ストロングライン,Masters 2,B,Single-ply,4
原田 恵,,1960,F,49.2,52,62.5,67.5,70,70,70,ノーリミッツ,Masters 2,B,Single-ply,5
藤﨑 晴美,,1963,F,50.15,52,65,-70,-70,65,65,水戸市パワーリフティング協会,Masters 2,B,Single-ply,6
田中 彰子,,1964,F,51.35,52,60,65,-70,65,65,パワーハウス赤穂,Masters 2,B,Single-ply,7
石橋 茜,Akane Ishibashi,1993,F,55.05,57,120,125,130,130,130,Ｋ'ｓ ＧＹＭ横浜,Open,B,Single-ply,1
伊藤 千帆,Chiho Ito,1974,F,56.5,57,110,112.5,121,121,121,Ｋ'ｓ ＧＹＭ,Masters 1,B,Single-ply,1
酒巻 知子,,1965,F,54.9,57,110,115,-117.5,115,115,ＬＥＳＴＡ,Masters 2,B,Single-ply,1
三浦 恵美子,,1974,F,56.55,57,102.5,110,-115,110,110,スーパーパワーアサマトレーニングクラブ,Masters 1,B,Single-ply,2
小林 展代,Nobuyo Kobayashi,1997,F,55.6,57,97.5,105,107.5,107.5,107.5,ＴＸＰ,Juniors,B,Single-ply,1
長谷川 真紀,,1965,F,55.6,57,90,95,100,100,100,パワーハウス,Masters 2,B,Single-ply,2
加藤 幸枝,Yukie Kato,1974,F,56.4,57,92.5,-97.5,-97.5,92.5,92.5,ＴＸＰ,Masters 1,B,Single-ply,3
長尾 優子,,1950,F,55.6,57,50,88,90,90,90,ストロングライン,Masters 3,B,Single-ply,1
渕上 宏恵,,1967,F,56.45,57,80,85,90,90,90,スーパーパワーアサマトレーニングクラブ,Masters 2,B,Single-ply,3
小泉 あさひ,,2000,F,55.5,57,75,80,88,88,88,厚木商業高等学校,Sub-Juniors,B,Single-ply,1
川田 由紀子,,1968,F,56.25,57,80,85,-90,85,85,スーパーパワーアサマトレーニングクラブ,Masters 2,B,Single-ply,4
長江 由美子,,1974,F,55,57,70,80,-85,80,80,個人,Masters 1,B,Single-ply,4
南 恵美,,1987,F,56.1,57,-120,-120,-120,,,ＭＳＭ,Open,B,Single-ply,DQ
奥谷 由香,,1984,F,56.45,57,-107.5,-107.5,-107.5,,,Ｋ'ｓ ＧＹＭ,Open,B,Single-ply,DQ
北村 真由美,Mayumi Kitamura,1967,F,62.95,63,-160,-160,160,160,160,スーパーパワーアサマトレーニングクラブ,Masters 2,B,Single-ply,1
山下 彩,Aya Yamashita,1986,F,61.85,63,110,120,125,125,125,Ｋ'ｓ ＧＹＭ,Open,B,Single-ply,1
赤澤 恋,,1999,F,58.9,63,90,-100,100,100,100,Ｋ'ｓ ＧＹＭ横浜,Juniors,B,Single-ply,1
工藤 智恵子,,1967,F,62.2,63,95,97.5,-100,97.5,97.5,マッスルプロダクション,Masters 2,B,Single-ply,2
櫻 由貴,,1995,F,61.3,63,-95,-95,95,95,95,個人,Open,B,Single-ply,2
津金 典子,,1971,F,61.5,63,80,85,87.5,87.5,87.5,ＬＥＳＴＡ,Masters 1,B,Single-ply,1
篠原 千絵,,1970,F,60.2,63,80,-85,85,85,85,ストロングライン,Masters 1,B,Single-ply,2
林 久子,Hisako Hayashi,1951,F,62,63,60,80,-90,80,80,雷神ファクトリー,Masters 3,B,Single-ply,1
来栖 彩,,1998,F,59.15,63,67.5,72.5,-75,72.5,72.5,青山学院大学,Juniors,B,Single-ply,2
柳沢 由紀子,,1967,F,57.85,63,55,-62.5,62.5,62.5,62.5,Ｋ'ｓ ＧＹＭ横浜,Masters 2,B,Single-ply,3
溝口 久美,Kumi Mizoguchi,1988,F,72,72,145,150,-179,150,150,スーパーパワーアサマトレーニングクラブ,Open,B,Single-ply,1
照屋 利恵,Rie Teruya,1975,F,69.3,72,122.5,130,135,135,135,ＰＯＷＥＲ ＳＰＯＲＴ,Masters 1,B,Single-ply,1
櫻井 美幸,,1969,F,71.4,72,120,125,-132.5,125,125,ＢＩＧ ＧＵＮＳ,Masters 1,B,Single-ply,2
古味 良子,,1955,F,66.95,72,100,105,-110,105,105,Ｔ－ＲＥＸ,Masters 3,B,Single-ply,1
池田 光咲,,1999,F,67.25,72,-90,-90,90,90,90,神奈川大学,Juniors,B,Single-ply,1
鍋倉 由美子,,1962,F,65.05,72,70,-75,-75,70,70,スーパーパワーアサマトレーニングクラブ,Masters 2,B,Single-ply,1
田島 瞳,Hitomi Tajima,1982,F,82.4,84,150,161,165,165,165,ＢＩＧ ＦＩＶＥ,Open,B,Single-ply,1
徳武 恵美,Emi Tokutake,1964,F,76.85,84,130,135,-140,135,135,ＴＸＰ,Masters 2,B,Single-ply,1
澤 千代美,Chiyomi Sawa,1949,F,76.75,84,100,110,115,115,115,パワーハウス,Masters 3,B,Single-ply,1
加藤 みどり,Midori Kato,1971,F,83.75,84,75,80,-82.5,80,80,きくいけ整形外科,Masters 1,B,Single-ply,1
小松 麻実,Mami Komatsu,1969,F,107.4,84+,110,120,-127.5,120,120,有光自動車,Masters 1,B,Single-ply,1
