Place,Sex,Name,CyrillicName,BodyweightKg,Bench1Kg,Bench2Kg,Bench3Kg,Best3BenchKg,Bench4Kg,TotalKg,WeightClassKg,Event,Equipment,Tested,Deadlift1Kg,Deadlift2Kg,Deadlift3Kg,Best3DeadliftKg,Deadlift4Kg,Division,Age,BirthDate
1,F,Shuana Musaeva,Шуана Мусаева,50.6,35,40,-45,40,,40,52,B,Raw,Yes,,,,,,Youth,11,2007-05-22
1,F,Alie Ametova,Алие Аметова,60,57.5,60,-62.5,60,,60,60,B,Raw,Yes,,,,,,Open,33,1984-11-30
1,M,Kirill Kirgizov,Кирилл Киргизов,65.8,140,142.5,-145,142.5,,142.5,67.5,B,Raw,Yes,,,,,,Open,31,1986-08-21
1,M,Mikhail Tikhomirov,Михаил Тихомиров,80.7,120,-125,125,125,,125,82.5,B,Raw,Yes,,,,,,Open,32,1986-07-23
1,M,Ruslan Sadykov,Руслан Садыков,88.7,-152.5,-152.5,152.5,152.5,,152.5,90,B,Raw,Yes,,,,,,Masters 45-49,47,1971-03-16
1,M,Yuriy Gorshkov,Юрий Горшков,98.8,115,125,-142.5,125,,125,100,B,Raw,Yes,,,,,,Open,34,1983-11-29
1,M,Leonid Sankov,Леонид Саньков,94.3,135,-142.5,145,145,,145,100,B,Raw,Yes,,,,,,Masters 45-49,48,1970-03-21
1,M,Ruslan Bandurovskiy,Руслан Бандуровский,107.9,-145,155,-165,155,,155,110,B,Raw,Yes,,,,,,Open,36,1982-07-29
1,M,Mikhail Yakovlev,Михаил Яковлев,121.2,152.5,-155,,152.5,,152.5,125,B,Raw,Yes,,,,,,Open,30,1988-02-28
DQ,M,Lenur Suleymanov,Ленур Сулейманов,123.3,-200,-210,-210,,,,125,B,Raw,Yes,,,,,,Open,27,1991-04-11
1,M,Lyudmila Khromenkova,Людмила Хроменкова,55.7,55,60,62.5,62.5,,62.5,56,B,Raw,No,,,,,,Open,56,1961-09-20
1,F,Karina Polinovskaya,Карина Полиновская,60,57.5,60,-65,60,,60,60,B,Raw,No,,,,,,Teen 18-19,19,1998-11-24
1,F,Elvira Fettaeva,Эльвира Феттаева,65.1,45,50,55,55,,55,67.5,B,Raw,No,,,,,,Juniors 20-23,22,1995-08-29
1,F,Elena Konyushenko,Елена Конюшенко,65.5,-80,80,-85,80,,80,67.5,B,Raw,No,,,,,,Open,33,1985-03-11
1,M,Kerim Asanov,Керим Асанов,77.1,160,170,177.5,177.5,,177.5,82.5,B,Raw,No,,,,,,Open,26,1992-02-07
2,M,Artyom Vinogradskiy,Артём Виноградский,79.7,130,135,-140,135,,135,82.5,B,Raw,No,,,,,,Open,31,1986-08-15
1,M,Varis Irkabaev,Варис Иркабаев,82.5,-135,140,150,150,,150,82.5,B,Raw,No,,,,,,Masters 55-59,55,1963-04-24
1,M,Ruslan Ametusta,Руслан Аметуста,97.1,160,-165,167.5,167.5,,167.5,100,B,Raw,No,,,,,,Open,32,1985-10-25
1,M,Valentin Nechaev,Валентин Нечаев,102.8,190,-200,-200,190,,190,110,B,Raw,No,,,,,,Open,37,1980-08-24
1,M,Aleksandr Klimchuk,Александр Климчук,113.1,-190,190,-200,190,,190,125,B,Raw,No,,,,,,Open,33,1985-02-07
2,M,Aleksandr Kalinichenko,Александр Калиниченко,110.5,-175,175,180,180,,180,125,B,Raw,No,,,,,,Open,35,1983-07-22
1,M,Dzhamshit Ismatillaev,Джамшит Исматиллаев,126.3,160,175,-180,175,,175,140,B,Raw,No,,,,,,Open,34,1983-10-16
1,M,Aleksey Alisov,Алексей Алисов,77.2,182.5,192.5,-202.5,192.5,,192.5,82.5,B,Multi-ply,No,,,,,,Open,25,1993-06-30
1,F,Alyona Zaichenko,Алёна Заиченко,49.8,65,70,75,75,,75,52,B,Multi-ply,Yes,,,,,,Open,29,1988-08-11
1,F,Elena Pecherskaya,Елена Печерская,66.2,85,-95,-95,85,,85,67.5,B,Multi-ply,Yes,,,,,,Open,27,1991-02-08
1,F,Svetlana Maletskaya,Светлана Малецкая,74.7,135,140,145,145,150,145,75,B,Multi-ply,Yes,,,,,,Open,35,1983-06-04
1,M,Arsen Demerdzhi,Арсен Демерджи,59.3,-145,145,-155,145,,145,60,B,Multi-ply,Yes,,,,,,Open,36,1982-05-25
1,M,Roman Elkan,Роман Элькан,81,-170,170,-180,170,,170,82.5,B,Multi-ply,Yes,,,,,,Teen 13-15,15,2002-11-02
1,M,Seyar Amet-Usta,Сеяр Амет-Уста,89.3,200,215,225,225,,225,90,B,Multi-ply,Yes,,,,,,Open,37,1981-01-21
2,M,Igor Rikhter,Игорь Рихтер,88.8,-215,215,-222.5,215,,215,90,B,Multi-ply,Yes,,,,,,Open,33,1985-02-21
3,M,Vasiliy Leonenko,Василий Леоненко,88.6,185,-195,-195,185,,185,90,B,Multi-ply,Yes,,,,,,Open,51,1967-04-06
1,M,Vasiliy Leonenko,Василий Леоненко,88.6,185,-195,-195,185,,185,90,B,Multi-ply,Yes,,,,,,Masters 50-54,51,1967-04-06
1,M,Nikolay Lelyokin,Николай Лелёкин,114.2,260,280,300,300,,300,125,B,Multi-ply,Yes,,,,,,Open,40,1977-11-17
1,M,Denis Nikonov,Денис Никонов,62.3,140,-145,-150,140,,140,67.5,B,Multi-ply,No,,,,,,Open,25,1992-09-21
DQ,M,Nikolay Balyuk,Николай Балюк,88.8,-220,-220,-220,,,,90,B,Multi-ply,No,,,,,,Juniors 20-23,20,1997-12-04
1,M,Ivan Listopad,Иван Листопад,108.5,240,-250,-250,240,,240,110,B,Multi-ply,No,,,,,,Juniors 20-23,23,1995-05-29
1,F,Agnessa Merkulova,Агнесса Меркулова,53.3,140,-150,-150,140,,140,56,B,Multi-ply,No,,,,,,Open,29,1988-10-29
1,M,Denis Bogatyrev,Денис Богатырев,107.5,-300,300,310,310,,310,110,B,Multi-ply,No,,,,,,Open,31,1987-03-23
1,M,Konstantin Makarenko,Константин Макаренко,96.8,90,100,110,110,,110,100,B,Raw,No,,,,,,Open,45,1973-02-03
1,M,Aleksandr Bezheryanu,Александр Бэжеряну,70.1,,,,,,200,75,D,Raw,Yes,180,-190,200,200,,Open,24,1993-10-11
1,M,Daniil Ermakov,Даниил Ермаков,78,,,,,,105,82.5,D,Raw,Yes,105,-115,-115,105,,Teen 13-15,14,2003-12-01
1,M,Vasiliy Leonenko,Василий Леоненко,88.6,,,,,,220,90,D,Raw,Yes,210,-220,220,220,,Open,51,1967-04-06
2,M,Evgeniy Lavrov,Евгений Лавров,88.6,,,,,,202.5,90,D,Raw,Yes,195,202.5,-205,202.5,,Open,24,1993-08-18
1,M,Vasiliy Leonenko,Василий Леоненко,88.6,,,,,,220,90,D,Raw,Yes,210,-220,220,220,,Masters 50-54,51,1967-04-06
1,M,Yuriy Gorshkov,Юрий Горшков,98.8,,,,,,205,100,D,Raw,Yes,180,192.5,205,205,,Open,34,1983-11-29
1,M,Sergey Pirogov,Сергей Пирогов,96.5,,,,,,227.5,100,D,Raw,Yes,210,220,227.5,227.5,,Masters 45-49,45,1972-12-15
1,M,Mikhail Yakovlev,Михаил Яковлев,121.2,,,,,,225,125,D,Raw,Yes,205,215,225,225,,Open,30,1988-02-28
1,M,Oleg Demchenko,Олег Демченко,125.9,,,,,,325,140,D,Raw,Yes,300,325,-340,325,,Open,40,1977-08-11
1,F,Lyudmila Khromenkova,Людмила Хроменкова,55.7,,,,,,150,56,D,Raw,No,145,150,-152.5,150,,Open,56,1961-09-20
2,F,Anna Arkhipova,Анна Архипова,53.1,,,,,,120,56,D,Raw,No,100,110,120,120,,Open,33,1985-05-15
1,F,Elena Konyushenko,Елена Конюшенко,65.5,,,,,,155,67.5,D,Raw,No,140,147.5,155,155,,Open,33,1985-03-11
1,M,Maksim Sukhobok,Максим Сухобок,65.1,,,,,,212.5,67.5,D,Raw,No,212.5,-225,-225,212.5,,Masters 50-54,53,1965-01-01
1,M,Artur Filonov,Артур Филонов,80.1,,,,,,240,82.5,D,Raw,No,-230,240,-250,240,,Juniors 20-23,22,1996-07-26
1,M,Varis Irkabaev,Варис Иркабаев,82.5,,,,,,235,82.5,D,Raw,No,215,225,235,235,,Masters 55-59,55,1963-04-24
1,M,Denis Nazarenko,Денис Назаренко,85.4,,,,,,220,90,D,Raw,No,205,215,220,220,,Open,34,1984-05-23
1,M,Aleksey Khromenkov,Алексей Хроменков,100,,,,,,195,100,D,Raw,No,180,195,-205,195,,Masters 60-64,60,1957-10-02
1,M,Aleksey Kashirin,Алексей Каширин,109,,,,,,320,110,D,Raw,No,300,320,-335,320,,Open,44,1973-10-09
1,M,Aleksey Alisov,Алексей Алисов,77.5,,,,,,260,82.5,D,Multi-ply,No,250,260,-270,260,,Open,25,1993-06-30
1,M,Stanislav Milostnoy,Станислав Милостной,81.7,220,230,235,235,-240,235,82.5,B,Raw,No,,,,,,Open,39,1978-12-19
1,M,Andrey Sapozhonkov,Андрей Сапожонков,89.5,230,240,250,250,,250,90,B,Raw,No,,,,,,Open,31,1987-06-26
1,M,Artem Stasyuk,Артем Стасюк,97.3,210,-220,-220,210,,210,100,B,Raw,No,,,,,,Open,25,1993-05-30
1,M,Vitaliy Pinchuk,Виталий Пинчук,106.8,230,240,250,250,-260,250,110,B,Raw,No,,,,,,Open,29,1989-05-08
2,M,Akhmed Musaev,Ахмед Мусаев,103.4,200,210,215,215,-222.5,215,110,B,Raw,No,,,,,,Open,37,1980-10-10
1,M,Maksim Lisyutin,Максим Лисютин,121.3,240,250,260,260,,260,125,B,Raw,No,,,,,,Open,33,1985-04-24
1,M,Vladislav Solovev,Владислав Соловьев,144.2,245,250,255,255,-260,255,140+,B,Raw,No,,,,,,Open,36,1982-05-28
1,M,Aleksey Lisogor,Алексей Лисогор,150,300,,,300,,300,140+,B,Raw,No,,,,,,Open,32,1986-04-30
1,F,Marina Morozova,Марина Морозова,75,-155,155,165,165,-172.5,165,75,B,Multi-ply,No,,,,,,Open,39,1978-10-10
1,F,Yulia Medvedeva,Юлия Медведева,82,-215,215,225,225,-232.5,225,82.5,B,Multi-ply,No,,,,,,Open,39,1979-07-08
1,M,Igor Radchenko,Игорь Радченко,108.8,330,340,-350,340,-350,340,110,B,Multi-ply,No,,,,,,Open,36,1982-01-28
1,M,Andrey Yakushin,Андрей Якушин,88.4,300,315,325,325,-330,325,90,B,Multi-ply,No,,,,,,Open,44,1973-12-19
1,M,Alexey Merkulov,Алексей Меркулов,93.2,-360,-360,360,360,-370,360,100,B,Multi-ply,No,,,,,,Open,35,1983-07-24
1,M,Aleksey Kashirin,Алексей Каширин,109,310,317.5,322.5,322.5,,322.5,110,B,Multi-ply,No,,,,,,Open,44,1973-10-09
1,M,Vitaliy Seleznev,Виталий Селезнев,115.8,-360,-360,360,360,-365,360,125,B,Multi-ply,No,,,,,,Open,30,1987-08-05
1,M,Dmitriy Shabalin,Дмитрий Шабалин,133.3,375,-390,390,390,-400,390,140,B,Multi-ply,No,,,,,,Open,49,1969-01-19
1,F,Marina Morozova,Марина Морозова,75,,,,,,190,75,D,Raw,No,190,-200,-200,190,,Open,39,1978-10-10
1,F,Margarita Galaktionova,Маргарита Галактионова,53.2,,,,,,175,56,D,Raw,No,160,170,175,175,-180,Open,27,1991-03-01
