Place,Sex,Name,CyrillicName,BodyweightKg,Squat1Kg,Squat2Kg,Squat3Kg,Best3SquatKg,Squat4Kg,Bench1Kg,Bench2Kg,Bench3Kg,Best3BenchKg,Bench4Kg,Deadlift1Kg,Deadlift2Kg,Deadlift3Kg,Best3DeadliftKg,Deadlift4Kg,TotalKg,WeightClassKg,Event,Equipment,Tested,Division,Age,BirthDate
DQ,F,Natalya Kuznetsova,Наталья Кузнецова,43.6,,,,,,,,,,,,,,,,,44,SBD,Raw,Yes,Masters 40-44,42,1976-03-08
1,F,Vesta Kartaeva,Веста Картаева,49.8,60,67.5,72.5,72.5,,42.5,-52.5,-52.5,42.5,,65,70,77.5,77.5,,192.5,52,SBD,Raw,Yes,Open,27,1991-03-30
1,F,Vera Poloynikova,Вера Полойникова,55.1,85,-90,90,90,,45,47.5,-50,47.5,,100,105,-110,105,,242.5,56,SBD,Raw,Yes,Open,31,1986-05-20
1,F,Tamilya Vasenina,Тамиля Васенина,59.4,90,100,105,105,,55,60,65,65,,90,100,110,110,,280,60,SBD,Raw,Yes,Open,24,1993-11-25
2,F,Anna Golub,Анна Голуб,56.9,60,70,75,75,,42.5,47.5,-52.5,47.5,,70,80,87.5,87.5,,210,60,SBD,Raw,Yes,Open,25,1992-06-23
1,F,Valeriya Sukhovetskaya,Валерия Суховецкая,64.7,-100,100,-120,100,,55,-65,65,65,,112.5,125,130,130,,295,67.5,SBD,Raw,Yes,Open,30,1988-03-09
DQ,F,Natalya Cherkasova,Наталья Черкасова,71.6,110,,,110,,57.5,62.5,65,65,,130,135,140,140,,,75,SBD,Raw,Yes,Open,41,1976-05-30
DQ,F,Ekaterina Kurdyukova,Екатерина Курдюкова,73.2,-100,-105,105,105,,-55,-57.5,-57.5,,,-110,,,,,,75,SBD,Raw,Yes,Open,36,1981-10-17
1,F,Natalya Cherkasova,Наталья Черкасова,71.6,110,115,120,120,,57.5,62.5,65,65,,130,135,140,140,,325,75,SBD,Raw,Yes,Masters 40-44,41,1976-05-30
1,M,Aleksandr Rek,Александр Рек,66.8,185,195,202.5,202.5,,120,125,-127.5,125,,195,205,-210,205,,532.5,67.5,SBD,Raw,Yes,Open,30,1987-07-13
DQ,M,Aleksey Gruzdev,Алексей Груздев,72.9,-170,-180,-180,,,,,,,,-180,,,,,,75,SBD,Raw,Yes,Juniors 20-23,21,1996-06-05
1,M,Dmitriy Pershin,Дмитрий Першин,74,-165,165,-175,165,,110,-117.5,-117.5,110,,190,-200,207.5,207.5,,482.5,75,SBD,Raw,Yes,Open,29,1988-12-07
2,M,Denis Kadyrgulov,Денис Кадыргулов,68.7,80,-90,-90,80,,100,-110,-110,100,,110,130,135,135,,315,75,SBD,Raw,Yes,Open,29,1988-11-17
DQ,M,Evgeniy Lebedikov,Евгений Лебедиков,72.9,,,,,,,,,,,-220,,,,,,75,SBD,Raw,Yes,Open,25,1992-12-19
1,M,Artyom Bodrov,Артём Бодров,81.5,160,170,177.5,177.5,,130,135,140,140,,192.5,202.5,210,210,,527.5,82.5,SBD,Raw,Yes,Teen 18-19,19,1999-02-07
DQ,M,Daniil Vtorushin,Даниил Вторушин,78.8,155,167.5,-175,167.5,,-130,140,145,145,,-180,-197.5,-197.5,,,,82.5,SBD,Raw,Yes,Juniors 20-23,22,1995-10-17
1,M,Dmitriy Kuzmichev,Дмитрий Кузьмичев,88.7,160,170,180,180,,-135,-135,135,135,,190,210,222.5,222.5,,537.5,90,SBD,Raw,Yes,Juniors 20-23,21,1997-01-27
1,M,Dmitriy Kochanov,Дмитрий Кочанов,88.4,140,150,160,160,,110,-115,-115,110,,150,170,180,180,,450,90,SBD,Raw,Yes,Open,37,1980-10-06
DQ,M,Dmitriy Kochanov,Дмитрий Кочанов,88.4,,,,,,,,,,,-150,,,,,,90,SBD,Raw,Yes,Open,37,1980-10-06
1,M,Boris Ilin,Борис Ильин,99.9,-190,205,-215,205,,160,170,180,180,,240,260,-270,260,,645,100,SBD,Raw,Yes,Juniors 20-23,23,1994-09-15
1,M,Dmitriy Vorobev,Дмитрий Воробьев,103.4,180,190,,190,,160,,,160,,180,200,,200,,550,110,SBD,Raw,Yes,Masters 40-44,41,1976-06-10
1,M,Dmitriy Efimenko,Дмитрий Ефименко,123.3,215,-230,230,230,,150,155,-160,155,,250,270,280,280,,665,125,SBD,Raw,Yes,Open,27,1990-12-11
1,M,Alesya Vorozheykina,Алеся Ворожейкина,51.8,60,65,-70,65,,37.5,42.5,-45,42.5,,60,70,-75,70,,177.5,52,SBD,Raw,No,Juniors 20-23,21,1996-07-30
1,M,Ivan Popov,Иван Попов,90,210,-220,-220,210,,170,175,,175,,230,-240,240,240,,625,90,SBD,Raw,No,Open,27,1990-12-18
DQ,F,Natalya Kuznetsova,Наталья Кузнецова,43.6,-95,-95,-95,,,,,,,,,,,,,,44,SBD,Wraps,Yes,Masters 40-44,42,1976-03-08
1,F,Elena Kiselyova,Елена Киселёва,66.7,90,-97.5,-97.5,90,,60,-62.5,62.5,62.5,,100,110,120,120,,272.5,67.5,SBD,Wraps,Yes,Open,36,1981-11-27
1,M,Evgeniy Lebedikov,Евгений Лебедиков,72.9,190,200,,200,,-115,115,-120,115,,220,-232.5,232.5,232.5,,547.5,75,SBD,Wraps,Yes,Open,25,1992-12-19
2,M,Vladimir Oskin,Владимир Оськин,74.7,190,200,207.5,207.5,,-110,120,125,125,,-200,210,-215,210,,542.5,75,SBD,Wraps,Yes,Open,32,1985-09-15
1,M,Timur Timurov,Тимур Тимуров,87.5,190,205,-225,205,,142.5,152.5,-157.5,152.5,,180,195,,195,,552.5,90,SBD,Wraps,Yes,Open,25,1992-09-09
1,M,Andrey Alekseev,Андрей Алексеев,94.2,215,220,-225,220,,125,-132.5,-132.5,125,,200,210,-220,210,,555,100,SBD,Wraps,Yes,Juniors 20-23,21,1997-04-08
1,M,Vasiliy Sukharev,Василий Сухарев,97.4,-235,235,240,240,,150,-162.5,-162.5,150,,200,220,-225,220,,610,100,SBD,Wraps,Yes,Open,37,1980-06-24
1,M,Gennadiy Zuev,Геннадий Зуев,106.2,-190,200,-205,200,,150,157.5,-167.5,157.5,,180,195,205,205,,562.5,110,SBD,Wraps,Yes,Open,32,1985-08-20
2,M,Dmitriy Kastov,Дмитрий Кастов,103.2,192.5,205,-212.5,205,,-102.5,105,-112.5,105,,185,205,-210,205,,515,110,SBD,Wraps,Yes,Open,26,1992-01-29
1,M,Evgeniy Erofeev,Евгений Ерофеев,115.3,180,-190,190,190,,100,110,-112.5,110,,160,170,175,175,,475,125,SBD,Wraps,Yes,Open,35,1982-12-06
DQ,M,Vitaliy Amenitskiy,Виталий Аменитский,83.5,-275,-275,,,,-165,,,,,-245,,,,,,90,SBD,Wraps,No,Open,25,1992-06-11
1,M,Ivan Kiselev,Иван Киселев,87.9,160,170,175,175,,85,95,-100,95,,145,-155,-155,145,,415,90,SBD,Wraps,No,Masters 55-59,56,1961-11-17
1,M,Andrey Medvedev,Андрей Медведев,88,120,127.5,132.5,132.5,,95,100,102.5,102.5,,130,140,150,150,,385,90,SBD,Wraps,No,Masters 60-64,63,1954-11-22
1,M,Igor Chub,Игорь Чуб,90.3,205,-215,215,215,,147.5,152.5,-157.5,152.5,,210,220,225,225,,592.5,100,SBD,Wraps,No,Juniors 20-23,21,1996-06-19
1,M,Aleksey Sokolov,Алексей Соколов,98.9,230,245,255,255,,130,140,-142.5,140,,225,235,245,245,,640,100,SBD,Wraps,No,Open,27,1990-10-13
2,M,Andrey Salov,Андрей Салов,96.7,215,225,-235,225,,130,-135,-135,130,,220,230,237.5,237.5,,592.5,100,SBD,Wraps,No,Open,33,1984-08-30
1,M,Daniil Konyukhov,Даниил Конюхов,107.4,277.5,-285,-292.5,277.5,,180,187.5,,187.5,,265,272.5,277.5,277.5,,742.5,110,SBD,Wraps,No,Open,25,1993-04-12
2,M,Sergey Mishchenko,Сергей Мищенко,106.3,290,302.5,-325,302.5,,155,-165,-165,155,,250,272.5,-285,272.5,,730,110,SBD,Wraps,No,Open,29,1988-07-21
1,F,Svetlana Purgina,Светлана Пургина,64.4,90,92.5,110,110,,-55,55,-65,55,,80,90,-110,90,,255,67.5,SBD,Wraps,Yes,Juniors 20-23,23,1995-01-11
1,M,Dmitriy Saunin,Дмитрий Саунин,89.7,170,190,,190,,140,150,-155,150,,150,160,170,170,,510,90,SBD,Wraps,Yes,Juniors 20-23,23,1994-04-23
1,M,Artem Ulanov,Артем Уланов,91.5,285,300,310,310,,165,170,-172.5,170,,285,300,-310,300,,780,100,SBD,Wraps,No,Juniors 20-23,22,1996-01-09
1,M,Vizhe Mirmirani,Виже Мирмирани,59,130,-140,-140,130,,90,-100,-100,90,,130,135,140,140,,360,60,SBD,Multi-ply,Yes,Masters 50-54,53,1965-04-14
1,M,Ilya Arkhipov,Илья Архипов,79.6,-160,-160,160,160,,110,120,-130,120,,170,185,200,200,,480,82.5,SBD,Multi-ply,Yes,Open,34,1984-03-31
1,M,Anatoliy Kirillov,Анатолий Кириллов,86.5,170,180,190,190,,140,-150,150,150,,180,195,200,200,,540,90,SBD,Multi-ply,Yes,Open,36,1981-09-08
1,M,Aleksandr Kosarev,Александр Косарев,98.5,170,-180,180,180,,-145,145,-155,145,,190,210,-220,210,,535,100,SBD,Multi-ply,Yes,Masters 40-44,44,1974-03-06
1,M,Aleksandr Krovikov,Александр Кровиков,96.5,200,210,-215,210,,150,160,-170,160,,200,230,240,240,,610,100,SBD,Multi-ply,Yes,Masters 55-59,56,1961-09-26
1,M,Egor Molostovkin,Егор Молостовкин,72.1,,,,,,-85,95,102.5,102.5,,160,170,-185,170,,272.5,75,BD,Raw,Yes,Teen 18-19,19,1998-09-29
1,M,Serob Serobyan,Сероб Серобян,74.8,,,,,,110,117.5,-122.5,117.5,,213,222.5,-230,222.5,,340,75,BD,Raw,Yes,Juniors 20-23,22,1996-01-03
1,M,Aleksey Yushin,Алексей Юшин,73.9,,,,,,145,150,-155,150,,220,230,240,240,,390,75,BD,Raw,Yes,Open,35,1982-10-09
1,M,Magomed Mirzoev,Магомед Мирзоев,76.8,,,,,,125,132.5,137.5,137.5,,180,190,-200,190,,327.5,82.5,BD,Raw,Yes,Juniors 20-23,22,1995-08-23
1,M,Sokrat Skvortsov,Сократ Скворцов,86.2,,,,,,125,130,-135,130,,195,207.5,212.5,212.5,,342.5,90,BD,Raw,Yes,Open,37,1980-06-07
1,M,Dmitriy Pavchinskiy,Дмитрий Павчинский,106.8,,,,,,157.5,165,170,170,,250,265,-272.5,265,,435,110,BD,Raw,Yes,Open,29,1988-10-30
1,M,Alesya Vorozheykina,Алеся Ворожейкина,51.8,,,,,,37.5,42.5,,42.5,,70,,,70,,112.5,52,BD,Raw,No,Juniors 20-23,21,1996-07-30
1,M,Gleb Nazarenko,Глеб Назаренко,69.4,,,,,,52.5,,,52.5,,65,,,65,,117.5,75,BD,Raw,No,Teen 13-15,14,2003-07-26
1,M,Aleksandr Rek,Александр Рек,66.8,185,195,202.5,202.5,,,,,,,,,,,,202.5,67.5,S,Raw,Yes,Open,30,1987-07-13
DQ,M,Dmitriy Pershin,Дмитрий Першин,74,,,,,,,,,,,,,,,,,75,S,Raw,Yes,Open,29,1988-12-07
1,M,Alesya Vorozheykina,Алеся Ворожейкина,51.8,65,,,65,,,,,,,,,,,,65,52,S,Raw,No,Juniors 20-23,21,1996-07-30
1,M,Vasiliy Sukharev,Василий Сухарев,97.4,240,,,240,,,,,,,,,,,,240,100,S,Wraps,Yes,Open,37,1980-06-24
1,M,Ivan Kiselev,Иван Киселев,87.9,175,,,175,,,,,,,,,,,,175,90,S,Wraps,No,Masters 55-59,56,1961-11-17
1,M,Sergey Mishchenko,Сергей Мищенко,106.3,302.5,,,302.5,,,,,,,,,,,,302.5,110,S,Wraps,No,Open,29,1988-07-21
1,F,Natalya Kuznetsova,Наталья Кузнецова,43.6,,,,,,-50,50,-55,50,,,,,,,50,44,B,Raw,Yes,Masters 40-44,42,1976-03-08
1,F,Irina Safina,Ирина Сафина,51.4,,,,,,45,47.5,50,50,,,,,,,50,52,B,Raw,Yes,Open,30,1987-04-22
1,F,Yaroslavna Severova,Ярославна Северова,54.8,,,,,,47.5,52.5,-55,52.5,,,,,,,52.5,56,B,Raw,Yes,Teen 18-19,18,1999-04-30
1,F,Olga Bobrovnik,Ольга Бобровник,55.2,,,,,,52.5,55,57.5,57.5,,,,,,,57.5,56,B,Raw,Yes,Open,30,1987-08-11
2,F,Oksana Alieva,Оксана Алиева,55.3,,,,,,42.5,-45,45,45,,,,,,,45,56,B,Raw,Yes,Open,31,1986-07-03
3,F,Yuliya Lapteva,Юлия Лаптева,54.4,,,,,,37.5,40,-42.5,40,,,,,,,40,56,B,Raw,Yes,Open,30,1987-11-23
1,F,Anna Golub,Анна Голуб,56.9,,,,,,47.5,,,47.5,,,,,,,47.5,60,B,Raw,Yes,Open,25,1992-06-23
1,M,Vasiliy Melekhin,Василий Мелехин,73,,,,,,117.5,-125,,117.5,,,,,,,117.5,75,B,Raw,Yes,Juniors 20-23,20,1997-10-22
2,M,Frederik Zommer,Фредерик Зоммер,73.6,,,,,,105,112.5,-117.5,112.5,,,,,,,112.5,75,B,Raw,Yes,Juniors 20-23,20,1997-11-17
3,M,Nikita Konstantinov,Никита Константинов,74,,,,,,95,100,-105,100,,,,,,,100,75,B,Raw,Yes,Juniors 20-23,21,1996-12-14
1,M,Aleksey Yushin,Алексей Юшин,73.9,,,,,,145,150,-155,150,,,,,,,150,75,B,Raw,Yes,Open,35,1982-10-09
2,M,Anton Kukhar,Антон Кухарь,73,,,,,,-135,-135,135,135,,,,,,,135,75,B,Raw,Yes,Open,28,1989-12-22
3,M,Tsatur Ismailyan,Цатур Исмаилян,70.6,,,,,,115,120,130,130,,,,,,,130,75,B,Raw,Yes,Open,25,1992-07-17
4,M,Aleksey Novikov,Алексей Новиков,73.8,,,,,,105,115,120,120,,,,,,,120,75,B,Raw,Yes,Open,34,1984-02-25
5,M,Petr Lesnov,Петр Леснов,70.9,,,,,,110,-117.5,-117.5,110,,,,,,,110,75,B,Raw,Yes,Open,29,1989-02-18
6,M,Dmitriy Kolosov,Дмитрий Колосов,72.7,,,,,,95,97.5,100,100,,,,,,,100,75,B,Raw,Yes,Open,25,1992-05-30
1,M,Daniil Vtorushin,Даниил Вторушин,78.8,,,,,,145,,,145,,,,,,,145,82.5,B,Raw,Yes,Juniors 20-23,22,1995-10-17
2,M,Magomed Mirzoev,Магомед Мирзоев,76.8,,,,,,130,135,-137.5,135,,,,,,,135,82.5,B,Raw,Yes,Juniors 20-23,22,1995-08-23
3,M,Daniil Prokhorov,Даниил Прохоров,82,,,,,,120,-127.5,-127.5,120,,,,,,,120,82.5,B,Raw,Yes,Juniors 20-23,21,1996-09-09
1,M,Bagdan Kokoev,Багдан Кокоев,81.9,,,,,,127.5,135,140,140,,,,,,,140,82.5,B,Raw,Yes,Open,24,1993-11-15
2,M,Nikolay Sysoev,Николай Сысоев,79.9,,,,,,110,120,-127.5,120,,,,,,,120,82.5,B,Raw,Yes,Open,28,1990-02-22
3,M,Dmitriy Sergeev,Дмитрий Сергеев,81.1,,,,,,102.5,105,-107.5,105,,,,,,,105,82.5,B,Raw,Yes,Open,26,1991-11-17
DQ,M,Dmitriy Bitsiev,Дмитрий Бициев,80.8,,,,,,-135,-135,-135,,,,,,,,,82.5,B,Raw,Yes,Open,29,1989-01-12
1,M,Anton Morkin,Антон Моркин,80.8,,,,,,95,102.5,107.5,107.5,,,,,,,107.5,82.5,B,Raw,Yes,Open,38,1979-10-30
1,M,Vladimir Kozlov,Владимир Козлов,86.2,,,,,,125,-132.5,132.5,132.5,,,,,,,132.5,90,B,Raw,Yes,Teen 18-19,19,1998-05-23
1,M,Igor Shvachko,Игорь Швачко,89.3,,,,,,170,175,177.5,177.5,,,,,,,177.5,90,B,Raw,Yes,Open,24,1993-08-17
1,M,Andrey Bogachyov,Андрей Богачёв,97.6,,,,,,165,175,185,185,,,,,,,185,100,B,Raw,Yes,Juniors 20-23,23,1994-04-29
1,M,Andrey Bogachyov,Андрей Богачёв,97.6,,,,,,165,175,185,185,,,,,,,185,100,B,Raw,Yes,Open,23,1994-04-29
2,M,Dmitriy Krivenko,Дмитрий Кривенко,96.9,,,,,,165,170,175,175,,,,,,,175,100,B,Raw,Yes,Open,28,1990-01-24
3,M,Fedor Dorofeev,Федор Дорофеев,96.4,,,,,,145,152.5,-155,152.5,,,,,,,152.5,100,B,Raw,Yes,Open,26,1991-12-20
4,M,Oleg Kelugeryanu,Олег Кэлугэряну,97,,,,,,150,-155,-155,150,,,,,,,150,100,B,Raw,Yes,Open,34,1984-04-04
5,M,Vasiliy Sukharev,Василий Сухарев,97.4,,,,,,150,,,150,,,,,,,150,100,B,Raw,Yes,Open,37,1980-06-24
DQ,M,Sergey Maksimov,Сергей Максимов,91.9,,,,,,-152.5,,,,,,,,,,,100,B,Raw,Yes,Open,32,1985-12-03
1,M,Mikhail Komov,Михаил Комов,105.2,,,,,,160,167.5,-172.5,167.5,,,,,,,167.5,110,B,Raw,Yes,Open,34,1984-02-03
2,M,Aleksandr Karonnov,Александр Кароннов,104.7,,,,,,140,150,155,155,,,,,,,155,110,B,Raw,Yes,Open,38,1979-09-29
1,M,Aleksey Starshov-Klimentev,Алексей Старшов-Климентьев,117.5,,,,,,197.5,205,210,210,,,,,,,210,125,B,Raw,Yes,Open,39,1978-07-02
2,M,Pavel Antoshin,Павел Антошин,123.4,,,,,,180,-187.5,-187.5,180,,,,,,,180,125,B,Raw,Yes,Open,31,1986-12-23
DQ,M,Viktor Pavlov,Виктор Павлов,116.5,,,,,,-185,-185,-185,,,,,,,,,125,B,Raw,Yes,Open,29,1988-04-25
1,F,Elena Kosareva,Елена Косарева,40,,,,,,30,32.5,-35,32.5,,,,,,,32.5,44,B,Raw,No,Teen 18-19,18,1999-11-04
1,F,Alena Klyueva,Алена Клюева,70.2,,,,,,45,47.5,50,50,,,,,,,50,75,B,Raw,No,Juniors 20-23,20,1997-04-16
1,M,Gleb Nazarenko,Глеб Назаренко,69.4,,,,,,-45,47.5,52.5,52.5,,,,,,,52.5,75,B,Raw,No,Teen 13-15,14,2003-07-26
1,M,Yuriy Maleev,Юрий Малеев,82.2,,,,,,160,-165,-165,160,,,,,,,160,82.5,B,Raw,No,Open,36,1981-12-07
1,M,Dmitriy Churilov,Дмитрий Чурилов,88.2,,,,,,152.5,-160,-160,152.5,,,,,,,152.5,90,B,Raw,No,Open,34,1983-07-11
1,M,Vadim Rezvykh,Вадим Резвых,99.6,,,,,,237.5,-245,-245,237.5,,,,,,,237.5,100,B,Raw,No,Open,30,1987-10-09
2,M,Sergey Shvachko,Сергей Швачко,99,,,,,,160,165,167.5,167.5,,,,,,,167.5,100,B,Raw,No,Open,28,1989-04-24
1,M,Ivan Lukyanov,Иван Лукьянов,107.9,,,,,,162.5,167.5,170,170,,,,,,,170,110,B,Raw,No,Open,36,1981-12-27
DQ,M,Pavel Dovgopolik,Павел Довгополик,104.8,,,,,,-195,-195,-195,,,,,,,,,110,B,Raw,No,Open,24,1993-05-27
1,M,Grigoriy Khimich,Григорий Химич,124.8,,,,,,177.5,182.5,-190,182.5,,,,,,,182.5,125,B,Raw,No,Open,24,1993-06-13
1,M,Andrey Vysotskiy,Андрей Высоцкий,131.1,,,,,,210,-220,-220,210,,,,,,,210,140,B,Raw,No,Open,40,1977-11-19
2,M,Oleg Miroshnichenko,Олег Мирошниченко,129.7,,,,,,200,-210,-210,200,,,,,,,200,140,B,Raw,No,Open,38,1979-07-26
1,M,Andrey Vysotskiy,Андрей Высоцкий,131.1,,,,,,210,-220,-220,210,,,,,,,210,140,B,Raw,No,Masters 40-44,40,1977-11-19
1,M,Aleksey Figol,Алексей Фиголь,97.3,,,,,,-180,180,185,185,,,,,,,185,100,B,Raw,Yes,Open,45,1973-01-26
1,M,Evgeniy Balandin,Евгений Баландин,98.4,,,,,,200,-220,-220,200,,,,,,,200,100,B,Multi-ply,Yes,Teen 18-19,18,1999-07-12
1,M,Varlam Gasparyan,Варлам Гаспарян,108.4,,,,,,270,,,270,,,,,,,270,110,B,Multi-ply,No,Teen 18-19,19,1999-03-30
1,F,Elena Kolpakova,Елена Колпакова,55.2,,,,,,70,75,-80.5,75,,,,,,,75,56,B,Multi-ply,Yes,Open,39,1978-06-16
1,M,Aleksandr Grishanov,Александр Гришанов,79.1,,,,,,190,200,-212.5,200,,,,,,,200,82.5,B,Multi-ply,Yes,Open,38,1979-09-04
2,M,Dmitriy Bitsiev,Дмитрий Бициев,80.4,,,,,,145,160,-172.5,160,,,,,,,160,82.5,B,Multi-ply,Yes,Open,29,1989-01-12
DQ,M,Ivan Mochalov,Иван Мочалов,80.2,,,,,,-200,-200,-200,,,,,,,,,82.5,B,Multi-ply,Yes,Open,32,1986-01-07
1,M,Denis Gladyshev,Денис Гладышев,95.1,,,,,,170,185,-190,185,,,,,,,185,100,B,Multi-ply,Yes,Open,29,1988-04-22
2,M,Oleg Kelugeryanu,Олег Кэлугэряну,97,,,,,,180,-190,-190,180,,,,,,,180,100,B,Multi-ply,Yes,Open,34,1984-04-04
1,M,Varlam Gasparyan,Варлам Гаспарян,108.4,,,,,,-262.5,262.5,270,270,,,,,,,270,110,B,Multi-ply,Yes,Teen 18-19,19,1999-03-30
1,M,Aleksandr Karonnov,Александр Кароннов,104.7,,,,,,175,,,175,,,,,,,175,110,B,Multi-ply,Yes,Open,38,1979-09-29
1,M,Viktor Pavlov,Виктор Павлов,116.5,,,,,,230,-280,-280,230,,,,,,,230,125,B,Multi-ply,Yes,Open,29,1988-04-25
DQ,M,Anton Kryachkov,Антон Крячков,95,,,,,,-200,-205,-205,,,,,,,,,100,B,Multi-ply,No,Open,31,1986-10-09
1,M,Dmitriy Skripnik,Дмитрий Скрипник,102.6,,,,,,-205,205,-225,205,,,,,,,205,110,B,Multi-ply,No,Open,41,1976-06-17
1,F,Anastasiya Lim,Анастасия Лим,43,,,,,,,,,,,90,100,105,105,,105,44,D,Raw,Yes,Open,39,1979-02-24
1,F,Natalya Kuznetsova,Наталья Кузнецова,43.6,,,,,,,,,,,110,115,117.5,117.5,118.5,117.5,44,D,Raw,Yes,Masters 40-44,42,1976-03-08
1,F,Anna Derebchinskaya,Анна Деребчинская,54.9,,,,,,,,,,,95,100,-105,100,,100,56,D,Raw,Yes,Open,35,1982-11-01
1,F,Anastasiya Tsiblieva,Анастасия Циблиева,65.9,,,,,,,,,,,100,-110,110,110,,110,67.5,D,Raw,Yes,Juniors 20-23,23,1995-02-11
1,M,Aleksey Ezhov,Алексей Ежов,49.6,,,,,,,,,,,100,110,-120,110,,110,52,D,Raw,Yes,Teen 18-19,19,1998-04-23
1,M,Svyatoslav Plokhikh,Святослав Плохих,68.4,,,,,,,,,,,180,195,-200,195,,195,75,D,Raw,Yes,Juniors 20-23,21,1997-03-25
1,M,Aleksey Yushin,Алексей Юшин,73.9,,,,,,,,,,,220,230,240,240,,240,75,D,Raw,Yes,Open,35,1982-10-09
2,M,Vladimir Oskin,Владимир Оськин,74.7,,,,,,,,,,,210,,,210,,210,75,D,Raw,Yes,Open,32,1985-09-15
3,M,Dmitriy Pershin,Дмитрий Першин,74,,,,,,,,,,,207.5,,,207.5,,207.5,75,D,Raw,Yes,Open,29,1988-12-07
1,M,Aleksandr Katamadze,Александр Катамадзе,86.9,,,,,,,,,,,192.5,202.5,212.5,212.5,,212.5,90,D,Raw,Yes,Teen 18-19,18,1999-06-26
1,M,Dmitriy Kuzmichev,Дмитрий Кузьмичев,88.7,,,,,,,,,,,210,220,230,230,,230,90,D,Raw,Yes,Juniors 20-23,21,1997-01-27
1,M,Aleksandr Chepelkin,Александр Чепелкин,93.6,,,,,,,,,,,200,207.5,210,210,,210,100,D,Raw,Yes,Juniors 20-23,20,1997-07-10
1,M,Dmitriy Ilyukhin,Дмитрий Илюхин,104.5,,,,,,,,,,,205,220,235,235,,235,110,D,Raw,Yes,Open,35,1982-12-26
1,M,Tamara Plotnikova,Тамара Плотникова,72.1,,,,,,,,,,,140,151,160,160,167.5,160,75,D,Raw,No,Juniors 20-23,21,1996-11-19
1,M,Gleb Nazarenko,Глеб Назаренко,69.4,,,,,,,,,,,45,55,65,65,,65,75,D,Raw,No,Teen 13-15,14,2003-07-26
1,M,Sergey Zotov,Сергей Зотов,87.9,,,,,,,,,,,250,-260,-260,250,,250,90,D,Raw,No,Open,30,1987-05-11
1,M,Aleksandr Tolmachev,Александр Толмачев,93.8,,,,,,,,,,,200,215,230,230,,230,100,D,Raw,No,Open,34,1984-01-06
1,M,Ruslan Noskov,Руслан Носков,104.7,,,,,,,,,,,-270,270,-285,270,,270,110,D,Raw,No,Juniors 20-23,23,1994-12-14
1,M,Ivan Chesnokov,Иван Чесноков,123.6,,,,,,,,,,,320,335,-342.5,335,,335,125,D,Raw,No,Open,27,1990-08-08
1,M,Maksim Derezhovskiy,Максим Дережовский,97,,,,,,,,,,,290,-301,-301,290,,290,100,D,Multi-ply,No,Open,34,1984-03-20
