Name,Tested,Event,Equipment,Division,Age,Sex,BodyweightKg,WeightClassKg,Squat1Kg,Squat2Kg,Squat3Kg,Squat4Kg,Best3SquatKg,Bench1Kg,Bench2Kg,Bench3Kg,Bench4Kg,Best3BenchKg,Deadlift1Kg,Deadlift2Kg,Deadlift3Kg,Deadlift4Kg,Best3DeadliftKg,TotalKg,Place,Team
Aaron Fillery,No,SBD,Wraps,M_OCR_WPC,29,M,93.9,100,220,-225,225,,225,-155,155,-162.5,,155,265,270,-275,,270,650,7,GB
Aaron Fillery,No,B,Raw,M_OR_WPC,29,M,93.6,100,,,,,,155,160,-162.5,,160,,,,,,160,5,GB
Aaron Fillery,No,D,Raw,M_OR_WPC,29,M,93.6,100,,,,,,,,,,,270,275,280,,280,280,5,GB
Aaron Hosking,No,SBD,Multi-ply,M_OEM_WPC,33,M,133.7,140,-410,-410,-410,,,,,,,,,,,,,,DQ,GB
Aaron Hosking,No,B,Multi-ply,M_OEM_WPC,33,M,133.8,140,,,,,,275,287.5,-300,,287.5,,,,,,287.5,1,GB
Achille Marrone,No,B,Raw,M_MR_4_WPC,55,M,94.6,100,,,,,,190,-200,-200,,190,,,,,,190,1,IT
Achille Marrone,No,D,Raw,M_MR_4_WPC,55,M,94.6,100,,,,,,,,,,,260,-275.5,,,260,260,1,IT
Adam Riman,No,SBD,Wraps,M_JCR_WPC,23,M,98,100,240,260,270,,270,115,122.5,125,,125,270,300,305,,305,700,2,GB
Adrian Phillips,No,SBD,Single-ply,M_MES_3_WPC,53,M,95.6,100,-210,210,-222.5,,210,-140,-140,-140,,,,,,,,,DQ,GB
Ahmadreza Nasiriavanaki,No,SBD,Wraps,M_MCR_1_WPC,44,M,96.4,100,140,185,-205,,185,-110,110,125,,125,140,-200,200,,200,510,1,IR
Ahmadreza Nasiriavanaki,No,D,Raw,M_MR_1_WPC,44,M,96.2,100,,,,,,,,,,,170,205,-220,,205,205,1,IR
Ahmed Fateharbastan,No,SBD,Raw,M_MR_1_WPC,43,M,90.4,100,-120,125,150,,150,115,125,-130,,125,120,150,-200,,150,425,1,IR
Ahti Korkea,No,D,Raw,M_MR_2_WPC,48,M,101.8,110,,,,,,,,,,,200,230,-275,,230,230,1,FI
Alan Motyer-Lowndes,Yes,SBD,Raw,M_MR_2_AWPC,48,M,81.3,82.5,135,-145,145,,145,80,-90,-90,,80,160,-170,170,,170,395,1,GB
Aleksandr Tkachuk,No,B,Raw,M_MR_8_WPC,77,M,78.2,82.5,,,,,,-95,-95,-95,,,,,,,,,DQ,RU
Aleksandr Tkachuk,No,B,Single-ply,M_MES_8_WPC,77,M,77.6,82.5,,,,,,95,100,105,,105,,,,,,105,1,RU
Aleksandr Vovenko,No,B,Raw,M_OR_WPC,36,M,119.7,125,,,,,,200,212.5,-217.5,,212.5,,,,,,212.5,2,RU
Aleksandr Vovenko,No,D,Raw,M_OR_WPC,36,M,119.7,125,,,,,,,,,,,300,315,325,,325,325,2,RU
Aleksi Hiissa,No,SBD,Raw,M_JR_WPC,23,M,89.8,90,180,-190,-200,,180,120,130,,,130,220,230,-240,,230,540,2,FI
Alexander Burlakov,No,SBD,Raw,M_MR_4_WPC,58,M,110.4,125,190,195,200,,200,155,165,170,,170,195,205,-210,,205,575,1,RU
Alexander Karpenko,No,SBD,Wraps,M_OCR_WPC,25,M,82.3,82.5,-310,310,-330,,310,170,180,-185,,180,-310,310,-330,,310,800,1,RU
Alexander Zaytsev,No,SBD,Raw,M_OR_WPC,37,M,124.5,125,300,320,-340,,320,210,220,230,,230,300,320,330,,330,880,1,RU
Alla Pugovkina,No,B,Single-ply,F_OES_WPC,41,F,88.8,90,,,,,,152.5,160,165,,165,,,,,,165,1,RU
Allan Grönfors,No,B,Raw,M_MR_3_WPC,52,M,116.8,125,,,,,,180,190,,,190,,,,,,190,1,FI
Amanda Hillary,Yes,SBD,Wraps,F_OCR_AWPC,30,F,67,67.5,-115,115,125,135,125,60,62.5,-65,,62.5,110,120,-130,,120,307.5,1,GB
Andre Rei,No,SBD,Multi-ply,M_OEM_WPC,23,M,74.6,75,275,300,-310,,300,185,-200,-200,,185,240,-260,,,240,725,1,PT
Andrew Murphy #1,No,SBD,Single-ply,M_JES_WPC,23,M,99.8,100,270,290,302.5,,302.5,160,170,-180,,170,230,245,-260,,245,717.5,1,GB
Andrew Riddiford,No,SBD,Wraps,M_OCR_WPC,28,M,105.7,110,255,-270,-270,,255,190,200,-210,,200,,,,,,,DQ,GB
Andrey Dobrenko,No,D,Raw,M_MR_3_WPC,53,M,81.3,82.5,,,,,,,,,,,200,220,-235,,220,220,1,RU
Andrzej Roszkowski,No,SBD,Raw,M_OR_WPC,36,M,107.4,110,-265,,,,,,,,,,,,,,,,DQ,GB
Andy Gregory,No,SBD,Raw,M_OR_WPC,24,M,72.9,75,-155,,,,,,,,,,,,,,,,DQ,GB
Anna Rosén,No,B,Raw,F_MR_1_WPC,44,F,92.7,90+,,,,,,120,125,-133,,125,,,,,,125,1,SE
Antonin Adamov,No,D,Single-ply,M_MES_4_WPC,59,M,99,100,,,,,,,,,,,230,260,-275,,260,260,1,RU
Antti Kousa,No,D,Multi-ply,M_MEM_1_WPC,43,M,108.1,110,,,,,,,,,,,255,280,-300,,280,280,1,FI
Ari Salmi,No,SBD,Wraps,M_MCR_2_WPC,46,M,86.3,90,150,165,-170,,165,105,-115,-115,,105,160,-165,-170,,160,430,3,FI
Armin Jafari,No,D,Raw,M_JR_WPC,22,M,80.2,82.5,,,,,,,,,,,120,140,-150,,140,140,1,IR
Arttu Wahlström,No,B,Single-ply,M_OES_WPC,30,M,82.3,82.5,,,,,,220,-230,-230,,220,,,,,,220,1,FI
Artur Makutunovic,No,SBD,Single-ply,M_OES_WPC,36,M,98,100,260,280,300,,300,180,195,210,,210,220,240,250,,250,760,1,LT
Aurore Obry,No,D,Raw,F_JR_WPC,23,F,59.2,60,,,,,,,,,,,110,122.5,-135,,122.5,122.5,1,FR
Austin Hickey,No,SBD,Wraps,M_OCR_WPC,37,M,99.4,100,240,260,-272.5,,260,180,-185,-185,,180,240,260,267.5,,267.5,707.5,3,IE
Austin Hickey,No,D,Single-ply,M_OES_WPC,37,M,99.8,100,,,,,,,,,,,260,275,-290,,275,275,1,IE
Ayrat Sufiyanov,No,B,Single-ply,M_OES_WPC,33,M,66.2,67.5,,,,,,-190,190,197.5,,197.5,,,,,,197.5,1,RU
Barbara Cacao,No,SBD,Raw,F_OR_WPC,33,F,66.8,67.5,75,85,-92.5,,85,40,45,-50,,45,90,105,120,,120,250,3,PT
Benny Ferander,No,B,Raw,M_MR_2_WPC,45,M,132.5,140,,,,,,180,190,195,,195,,,,,,195,2,SE
Bob Fielding,No,SBD,Raw,M_MR_2_WPC,47,M,87.5,90,170,180,-185,,180,140,145,-150,,145,190,200,-205,,200,525,1,GB
Boris Laishin,No,B,Raw,M_MR_6_WPC,66,M,69.5,75,,,,,,107.5,110,-112.5,,110,,,,,,110,1,IL
Boris Laishin,No,B,Raw,M_OR_WPC,66,M,69.5,75,,,,,,107.5,110,-112.5,,110,,,,,,110,4,IL
Bruno Alves,No,SBD,Multi-ply,M_OEM_WPC,28,M,108.4,110,-340,-340,340,,340,270,285,-300,,285,-280,280,300,,300,925,1,PT
Carolina Aftab,No,SBD,Raw,F_OR_WPC,33,F,58.2,60,95,105,-110,,105,50,55,-60,,55,115,127.5,-135,,127.5,287.5,1,FI
Catherine Croydon,No,B,Raw,F_OR_WPC,26,F,73.6,75,,,,,,95,-102.5,102.5,,102.5,,,,,,102.5,2,GB
Cheryl Stanley,No,SBD,Raw,F_OR_WPC,27,F,55.4,56,-100,-105,-105,,,,,,,,,,,,,,DQ,GB
Cheryl Stanley,No,SBD,Wraps,F_OCR_WPC,27,F,58,60,90,-100,100,,100,52.5,57.5,-60,,57.5,122.5,130.5,137.5,142.5,137.5,295,1,GB
Chris Kalsuk,No,B,Raw,M_OR_WPC,24,M,120.9,125,,,,,,175,180,-192.5,,180,,,,,,180,3,DE
Christian Murphy,No,SBD,Raw,M_OR_WPC,25,M,97.3,100,240,-265,-265,,240,140,150,160,,160,260,285,-290,,285,685,4,GB
Cristina Paulo,No,SBD,Wraps,F_MCR_1_WPC,44,F,59.5,60,80,90,100,,100,50,57.5,-60,,57.5,120,127.5,130,135,130,287.5,1,PT
Dagmar Liptáková,No,B,Raw,F_MR_1_WPC,41,F,63.2,67.5,,,,,,85,90,-95,,90,,,,,,90,1,SK
Dagmar Liptáková,No,B,Multi-ply,F_MEM_1_WPC,41,F,63.2,67.5,,,,,,120,130,-135,,130,,,,,,130,1,SK
Daniel Martinez,No,SBD,Wraps,M_MCR_1_WPC,42,M,102.5,110,340,-360,-370.5,,340,175,185,-192.5,,185,310,320,-325,,320,845,1,ES
Daniel Martinez,No,SBD,Wraps,M_OCR_WPC,42,M,102.5,110,340,-360,-370.5,,340,175,185,-192.5,,185,310,320,-325,,320,845,3,ES
Daniel Martinez,No,D,Raw,M_MR_1_WPC,42,M,102,110,,,,,,,,,,,300,320,-330,,320,320,1,ES
Daniel Martinez,No,D,Raw,M_OR_WPC,42,M,102,110,,,,,,,,,,,300,320,-330,,320,320,1,ES
Darius Janutis,No,B,Single-ply,M_OES_WPC,31,M,109,110,,,,,,160,170,-200,,170,,,,,,170,2,LT
Darryl Triance,No,SBD,Raw,M_MR_1_WPC,41,M,88.4,90,-170,-170,,,,,,,,,,,,,,,DQ,GB
Darryl Triance,No,SBD,Raw,M_OR_WPC,41,M,88.4,90,-170,-170,,,,,,,,,,,,,,,DQ,GB
David Campos,No,SBD,Wraps,M_JCR_WPC,22,M,79.6,82.5,180,195,-202.5,,195,120,130,-135,,130,200,222.5,230,-230.5,230,555,1,FR
David Gibson,No,B,Raw,M_MR_3_WPC,50,M,91.6,100,,,,,,140,145,150,-155,150,,,,,,150,1,GB
David Gibson,No,B,Raw,M_OR_WPC,50,M,91.6,100,,,,,,140,145,150,-155,150,,,,,,150,1,GB
David O'Sullivan,No,SBD,Raw,M_OR_WPC,25,M,89.4,90,210,220,-227.5,,220,140,147.5,155,,155,280,302.5,-307.5,,302.5,677.5,1,GB
David Pennington,No,SBD,Wraps,M_MCR_3_WPC,50,M,99.8,100,-190,200,-210,,200,172.5,182.5,-190,,182.5,200,210,220,,220,602.5,2,GB
Davide Marrone,No,SBD,Wraps,M_JCR_WPC,23,M,85.4,90,190,200,210,,210,120,125,130,,130,240,255,260,,260,600,1,IT
Dawn Morrell,No,SBD,Single-ply,F_MES_4_WPC,56,F,80.5,82.5,110,115,-120,,115,72.5,-77.5,77.5,-80.5,77.5,125,135,-140.5,,135,327.5,1,GB
Dawn Morrell,No,SBD,Single-ply,F_OES_WPC,56,F,80.5,82.5,110,115,-120,,115,72.5,-77.5,77.5,-80.5,77.5,125,135,-140.5,,135,327.5,1,GB
Denis Borcha,No,B,Raw,M_TR_2_WPC,17,M,142.4,140+,,,,,,-150,150,-155,,150,,,,,,150,1,SK
Denis Borcha,No,B,Multi-ply,M_TEM_2_WPC,17,M,142,140+,,,,,,140,,,,140,,,,,,140,1,SK
Didier Theux,No,B,Multi-ply,M_MEM_4_WPC,59,M,82.3,82.5,,,,,,200,212.5,-222.5,,212.5,,,,,,212.5,1,FR
Didier Theux,No,B,Multi-ply,M_OEM_WPC,59,M,82.3,82.5,,,,,,200,212.5,-222.5,,212.5,,,,,,212.5,1,FR
Didier Theux,No,D,Multi-ply,M_MEM_4_WPC,59,M,82.3,82.5,,,,,,,,,,,240,-252.5,-252.5,,240,240,1,FR
Dimitrii Rezaikin,No,B,Raw,M_OR_WPC,33,M,129.7,140,,,,,,230,237.5,-245,,237.5,,,,,,237.5,1,RU
Dmitry Smirnov,No,SBD,Raw,M_OR_WPC,38,M,132.7,140,265,275,-290,,275,165,172.5,-177.5,,172.5,285,300,-310,,300,747.5,1,RU
Dmtrii Iankov,No,B,Raw,M_OR_WPC,24,M,98.2,100,,,,,,175,-180,180,,180,,,,,,180,4,RU
Dominique Fisher #1,No,SBD,Raw,F_MR_1_WPC,44,F,72.2,75,150,-165,170,,170,75,80,82.5,,82.5,175,185,-190,,185,437.5,1,GB
Dominique Fisher #1,No,SBD,Raw,F_OR_WPC,44,F,72.2,75,150,-165,170,,170,75,80,82.5,,82.5,175,185,-190,,185,437.5,1,GB
Eduard Khanjyan,No,SBD,Wraps,M_OCR_WPC,31,M,109.1,110,370,390,405,,405,210,220,,,220,330,-347.5,,,330,955,1,FI
Eduino Domingos,No,B,Raw,M_OR_WPC,34,M,74.9,75,,,,,,150,160,170,,170,,,,,,170,1,PT
Elena Kudryashova,No,SBD,Raw,F_MR_1_WPC,42,F,51,52,80,85,90,,90,55,60,65,,65,105,115,125,,125,280,1,RU
Elina Kulmala,No,B,Raw,F_MR_1_WPC,41,F,87.7,90,,,,,,100,115,-122.5,,115,,,,,,115,1,FI
Elizabeth Webb,No,SBD,Raw,F_OR_WPC,28,F,89.1,90,95,110,-115,,110,-50,55,-60,,55,140,155,165,,165,330,3,GB
Eric Platel,No,B,Raw,M_MR_2_WPC,45,M,109.2,110,,,,,,160,180,,,180,,,,,,180,1,FR
Eric Platel,No,B,Multi-ply,M_MEM_2_WPC,45,M,110,110,,,,,,240,255,-270,,255,,,,,,255,1,FR
Erik Susztay,No,B,Raw,M_MR_2_WPC,45,M,128.8,140,,,,,,210,220,-227.5,,220,,,,,,220,1,SK
Erik Susztay,No,B,Raw,M_OR_WPC,45,M,128.8,140,,,,,,210,220,-227.5,,220,,,,,,220,2,SK
Esmaeil Fotovat,No,B,Raw,M_MR_5_WPC,62,M,90.2,100,,,,,,150,-165,-165,,150,,,,,,150,1,IR
Esmaeil Fotovat,No,B,Single-ply,M_MES_5_WPC,62,M,90.1,100,,,,,,170,186,187.5,,187.5,,,,,,187.5,1,IR
Estelle Lhomme,No,B,Raw,F_JR_WPC,23,F,59.4,60,,,,,,80,85,87.5,,87.5,,,,,,87.5,1,FR
Estelle Lhomme,No,B,Raw,F_OR_WPC,23,F,59.4,60,,,,,,80,85,87.5,,87.5,,,,,,87.5,3,FR
Etelvina Neves,No,D,Raw,F_OR_WPC,31,F,74.6,75,,,,,,,,,,,190,200,205,,205,205,1,PT
Evgeny Yushchenko,No,D,Raw,M_OR_WPC,31,M,116.4,125,,,,,,,,,,,225,-240,-240,,225,225,4,RU
Filippo Ingrosso,No,SBD,Single-ply,M_OES_WPC,32,M,108.3,110,375,-400.5,-400.5,,375,230,245,-255,,245,-330,330,-356,,330,950,1,IT
Florindo Figueiredo Pinheiro,No,B,Raw,M_MR_1_WPC,43,M,97.1,100,,,,,,235,240,-250.5,,240,,,,,,240,1,PT
Florindo Figueiredo Pinheiro,No,B,Raw,M_OR_WPC,43,M,97.1,100,,,,,,235,240,-250.5,,240,,,,,,240,1,PT
Frankie Kemp,Yes,SBD,Raw,M_OR_AWPC,24,M,138.2,140,255,-262.5,-265,,255,165,-175,175,,175,245,255,270,,270,700,2,GB
Gabriele Calista,No,SBD,Wraps,M_OCR_WPC,37,M,89.9,90,-240,-240,240,,240,135,145,150,,150,-270,280,295,,295,685,2,IT
Gembiczki Attila,No,B,Raw,M_OR_WPC,30,M,80.5,82.5,,,,,,180,185,190,,190,,,,,,190,1,HU
Georgi Manavski,No,D,Raw,M_MR_4_WPC,55,M,114,125,,,,,,,,,,,180,200,210,,210,210,1,BG
Georgi Manavski,No,D,Single-ply,M_MES_4_WPC,55,M,112.7,125,,,,,,,,,,,210,235,260,,260,260,1,BG
Göran Rosén,No,B,Raw,M_MR_3_WPC,52,M,106.2,110,,,,,,180,190,-200,,190,,,,,,190,1,SE
Grégoire Ho Bing Huang,No,SBD,Raw,M_OR_WPC,34,M,99.6,100,240,260,-270,,260,160,170,-175,,170,300,320,-336,,320,750,2,FR
Grégoire Ho Bing Huang,No,D,Raw,M_OR_WPC,34,M,98.8,100,,,,,,,,,,,300,320,322.5,,322.5,322.5,1,FR
Gregory Morel,No,D,Raw,M_TR_3_WPC,19,M,92.4,100,,,,,,,,,,,240,260,-280,,260,260,1,FR
Hanna Turtiainen,No,B,Raw,F_OR_WPC,31,F,56.9,60,,,,,,95,-100,-100,,95,,,,,,95,2,FI
Hannu Koskinen,No,B,Raw,M_OR_WPC,35,M,116.2,125,,,,,,225,232.5,-242.5,,232.5,,,,,,232.5,1,FI
Hawar Abas,No,B,Raw,M_JR_WPC,23,M,109,110,,,,,,170,185,-200,,185,,,,,,185,1,SE
Hawar Abas,No,D,Raw,M_JR_WPC,23,M,109,110,,,,,,,,,,,280,300,,,300,300,1,SE
Henri Vauto,No,SBD,Wraps,M_OCR_WPC,30,M,73.8,75,-220,-230,-230,,,,,,,,,,,,,,DQ,FI
Henri Vauto,No,B,Raw,M_OR_WPC,30,M,74,75,,,,,,125,135,-142.5,,135,,,,,,135,3,FI
Henri Vauto,No,D,Raw,M_OR_WPC,30,M,74,75,,,,,,,,,,,215,240,-255,,240,240,1,FI
Hristo Muskov,No,D,Raw,M_OR_WPC,31,M,125.2,140,,,,,,,,,,,330,345,-355,,345,345,1,BG
Hristo Muskov,No,D,Single-ply,M_OES_WPC,31,M,122.3,125,,,,,,,,,,,315,325,335,,335,335,1,BG
Ilkka Mäkelä,No,D,Raw,M_OR_WPC,34,M,89,90,,,,,,,,,,,250,-265,-265,,250,250,3,FI
Iman Akbarian,No,SBD,Wraps,M_OCR_WPC,33,M,72.8,75,-90,90,-110,,90,-70,-70,-70,,,,,,,,,DQ,IR
Inês Antunes,No,SBD,Wraps,F_TCR_3_WPC,18,F,65.6,67.5,95,115.5,-120,,115.5,45,47.5,50,,50,117.5,125,130,135,130,295.5,1,PT
Isabel Gomes,No,SBD,Single-ply,F_MES_1_WPC,42,F,59.8,60,105,120,140,-150,140,40,50,-60,,50,120,132.5,140,-150,140,330,1,PT
Iwona Karwowska,No,SBD,Raw,F_OR_WPC,34,F,85.7,90,-145,145,155,,155,75,80,-82.5,,80,140,150,160,,160,395,1,GB
James Taylor #1,No,SBD,Multi-ply,M_OEM_WPC,25,M,105.7,110,-325,-325,-325,,,,,,,,,,,,,,DQ,GB
Jani Soininen,No,SBD,Wraps,M_OCR_WPC,32,M,99,100,250,-270,-275,,250,152.5,160,-165,,160,270,-290,-290,,270,680,5,FI
Jani Turtiainen,No,B,Raw,M_OR_WPC,36,M,99.6,100,,,,,,205,215,222.5,,222.5,,,,,,222.5,3,FI
Jani Virtanen,No,B,Raw,M_JR_WPC,22,M,97.6,100,,,,,,180,187.5,-192.5,,187.5,,,,,,187.5,1,FI
Janne Nissilä,No,SBD,Multi-ply,M_OEM_WPC,25,M,87.9,90,-230,-230,-230,,,,,,,,,,,,,,DQ,FI
Janne Nissilä,No,B,Multi-ply,M_OEM_WPC,25,M,90,90,,,,,,180,-200,-205,,180,,,,,,180,1,FI
Janne Nissilä,No,D,Multi-ply,M_OEM_WPC,25,M,90,90,,,,,,,,,,,220,-235,-235,,220,220,1,FI
Janne Rissanen,No,D,Raw,M_OR_WPC,31,M,90,90,,,,,,,,,,,302.5,312.5,320,,320,320,1,FI
Jarkko Forss,No,SBD,Multi-ply,M_JEM_WPC,21,M,90.7,100,300,-320,,,300,220,240,260,,260,240,272.5,,,272.5,832.5,1,FI
Jarno Rajala,No,B,Single-ply,M_MES_1_WPC,43,M,132.3,140,,,,,,270,280,290,,290,,,,,,290,1,FI
Jere Marttila,No,SBD,Wraps,M_MCR_4_WPC,55,M,98.5,100,130,145,160,,160,130,137.5,140,,140,180,192.5,202.5,,202.5,502.5,1,FI
Jere Marttila,No,B,Raw,M_MR_4_WPC,55,M,99.2,100,,,,,,130,140,-150,,140,,,,,,140,3,FI
Jere Marttila,No,D,Raw,M_MR_4_WPC,55,M,99.2,100,,,,,,,,,,,190,205,-217.5,,205,205,2,FI
Jérémy Babin,No,SBD,Wraps,M_OCR_WPC,27,M,82.4,82.5,235,250,-260,,250,150,155,,,155,260,-270,270,,270,675,2,FR
Jérémy Babin,No,D,Single-ply,M_OES_WPC,27,M,86.3,90,,,,,,,,,,,250,-275,275,,275,275,1,FR
Jessica Pallot,Yes,SBD,Raw,F_JR_AWPC,21,F,55.1,56,-85,85,-100,,85,55,-60,-60,,55,105,110,-115,,110,250,1,GB
Jessye Fuster,No,SBD,Wraps,F_TCR_3_WPC,19,F,59.6,60,90,97.5,-102.5,,97.5,47.5,-52.5,-52.5,,47.5,115,-122.5,127.5,-132.5,127.5,272.5,1,FR
Joäo Manaia,No,SBD,Raw,M_OR_WPC,34,M,80.8,82.5,220,-240,240,,240,145,152.5,157.5,,157.5,245,260,270,,270,667.5,1,PT
Joaquim Morais,No,SBD,Wraps,M_MCR_4_WPC,59,M,109.3,110,180,200,215,-225,215,155,160,165,-170,165,200,220,230,,230,610,1,PT
Johanna Bies,No,B,Raw,F_MR_1_WPC,44,F,59.5,60,,,,,,100,-105.5,-105.5,,100,,,,,,100,1,FI
Johanna Bies,No,B,Raw,F_OR_WPC,44,F,59.5,60,,,,,,100,-105.5,-105.5,,100,,,,,,100,1,FI
John Warburton,No,SBD,Raw,M_OR_WPC,30,M,81.4,82.5,197.5,207.5,215,,215,120,127.5,-132.5,,127.5,230,245,257.5,,257.5,600,4,GB
Jonna Korte,No,SBD,Wraps,F_JCR_WPC,22,F,67,67.5,130,-140,142.5,,142.5,75,80,82.5,-85,82.5,140,150,,,150,375,1,FI
Jonne Fräntilä,No,SBD,Multi-ply,M_OEM_WPC,29,M,65.2,67.5,-225,225,-235,,225,170,182.5,-190,,182.5,200,220,-227.5,,220,627.5,1,FI
Jonne Fräntilä,No,B,Multi-ply,M_OEM_WPC,29,M,66.6,67.5,,,,,,165,-182.5,182.5,,182.5,,,,,,182.5,2,FI
Jordi Hérnandez,No,SBD,Wraps,M_JCR_WPC,23,M,107.6,110,235,250,260,,260,142.5,152.5,-155,,152.5,220,-255,-255,,220,632.5,1,ES
Jordi Hérnandez,No,B,Raw,M_JR_WPC,23,M,106.6,110,,,,,,142.5,152.5,157.5,,157.5,,,,,,157.5,2,ES
Jordi Hérnandez,No,D,Raw,M_JR_WPC,23,M,101.6,110,,,,,,,,,,,220,250,272.5,,272.5,272.5,2,ES
Jorma Mäkeläinen,No,B,Raw,M_MR_1_WPC,41,M,97.9,100,,,,,,150,157.5,-160,,157.5,,,,,,157.5,3,FI
José Martin,No,B,Raw,M_MR_4_WPC,56,M,66.8,67.5,,,,,,90,95,-100,,95,,,,,,95,1,FR
Josh Brown #1,No,B,Raw,M_OR_WPC,26,M,155.3,140+,,,,,,210,220,-232.5,,220,,,,,,220,2,GB
Jouko Laine,No,SBD,Wraps,M_OCR_WPC,32,M,98.2,100,-180,-180,-190,,,,,,,,,,,,,,DQ,FI
Juha Inkinen,No,SBD,Raw,M_OR_WPC,35,M,81.7,82.5,155,-165,-165,,155,100,-107.5,-107.5,,100,180,-190,-190,,180,435,6,FI
Juha Kokkonen,No,B,Multi-ply,M_MEM_3_WPC,51,M,130.3,140,,,,,,,,,,,,,,,,,DQ,FI
Juha Ojanen,No,B,Raw,M_MR_4_WPC,55,M,98.9,100,,,,,,150,160,-170,,160,,,,,,160,2,FI
Juha Tuomainen,No,B,Raw,M_OR_WPC,34,M,99.9,100,,,,,,220,227.5,-232.5,,227.5,,,,,,227.5,2,FI
Jukka Matikainen,No,SBD,Multi-ply,M_JEM_WPC,23,M,94.8,100,260,280,-300,,280,150,160,-165,,160,200,-220,240,,240,680,2,FI
Júlia Kostúrová,No,B,Raw,F_OR_WPC,27,F,71.4,75,,,,,,112.5,117.5,120,,120,,,,,,120,1,SK
Júlia Kostúrová,No,B,Multi-ply,F_OEM_WPC,27,F,71.4,75,,,,,,172.5,182.5,192.5,,192.5,,,,,,192.5,1,SK
Jussi Kananen,No,B,Raw,M_OR_WPC,32,M,153.2,140+,,,,,,-195,195,-200,,195,,,,,,195,3,FI
Juuso Mela,No,B,Raw,M_OR_WPC,29,M,80.8,82.5,,,,,,175,-185,-185,,175,,,,,,175,2,FI
Juuso Mela,No,D,Raw,M_OR_WPC,29,M,80.8,82.5,,,,,,,,,,,240,-257.5,257.5,,257.5,257.5,1,FI
Kalle Räsänen,No,SBD,Multi-ply,M_OEM_WPC,26,M,95.1,100,-400,-400,-400,,,,,,,,,,,,,,DQ,FI
Kalle Ryhtä,No,D,Raw,M_OR_WPC,39,M,49.8,52,,,,,,,,,,,105,115,120,,120,120,1,FI
Kalle Ylitalo-James,No,B,Single-ply,M_OES_WPC,34,M,124.9,125,,,,,,300,-325,-325,,300,,,,,,300,1,FI
Kari Markku Kalliola,No,SBD,Multi-ply,M_OEM_WPC,54,M,162.1,140+,380,-410,410,,410,290,305,312.5,,312.5,260,280,-290,,280,1002.5,1,FI
Kari Markku Kalliola,No,B,Multi-ply,M_OEM_WPC,54,M,162.7,140+,,,,,,300,320,,,320,,,,,,320,1,FI
Kate Vale,No,SBD,Raw,F_MR_2_WPC,49,F,59.7,60,80,-85,85,,85,40,45,-47.5,,45,85,90,-95,,90,220,1,GB
Kauko Viitala,No,D,Raw,M_MR_8_WPC,78,M,81.2,82.5,,,,,,,,,,,140,150,-157.5,,150,150,1,FI
Keit Kaljukivi,No,SBD,Wraps,M_JCR_WPC,23,M,81.6,82.5,-190,200,205,,205,120,-127.5,127.5,,127.5,200,215,222.5,,222.5,555,2,EE
Kimberley Cowell,Yes,SBD,Wraps,F_OCR_AWPC,29,F,72.6,75,150,160,-165,,160,77.5,80,-82.5,,80,160,172.5,-180,,172.5,412.5,2,GB
Kiyan Tavanaie,No,SBD,Raw,M_TR_3_WPC,18,M,58,60,90,110,125,,125,85,92.5,95,,95,90,95,97.5,,97.5,317.5,1,GB
Klaus Renfors,No,B,Raw,M_MR_1_WPC,44,M,89.6,90,,,,,,135,142.5,145,,145,,,,,,145,1,FI
Konstantin Ershov,No,D,Raw,M_OR_WPC,27,M,74.4,75,,,,,,,,,,,160,180,-200,,180,180,2,RU
Krista Pellikka,No,B,Raw,F_OR_WPC,30,F,72.6,75,,,,,,95,100,-102.5,,100,,,,,,100,3,FI
Kurt Beech,No,SBD,Multi-ply,M_OEM_WPC,27,M,88.5,90,240,-257.5,-257.5,,240,-170,170,-185,,170,240,252.5,-262.5,,252.5,662.5,1,GB
Laura Mastroberti,No,SBD,Wraps,F_OCR_WPC,32,F,74.7,75,150,160,-175,,160,80,85,-90,,85,165,175,185,,185,430,1,IT
Laura Mastroberti,No,D,Raw,F_OR_WPC,32,F,76.1,82.5,,,,,,,,,,,170,-185,-185,,170,170,2,IT
Lauri Härkä,No,B,Raw,M_OR_WPC,33,M,149.8,140+,,,,,,220,-230,,,220,,,,,,220,1,FI
Learna Lee,Yes,SBD,Raw,F_OR_AWPC,31,F,89,90,135,-142.5,-145,,135,82.5,87.5,-90,,87.5,150,160,-170,,160,382.5,2,GB
Lewis Board,No,SBD,Wraps,M_OCR_WPC,24,M,100,100,,,,,,,,,,,,,,,,,DQ,GB
Lewis King,No,B,Single-ply,M_JES_WPC,22,M,120.5,125,,,,,,-185,185,-195,,185,,,,,,185,1,GB
Lucian Luca,No,SBD,Raw,M_OR_WPC,30,M,81.1,82.5,205,215,220,,220,-155,155,-165,,155,250,-275,-275,,250,625,2,GB
Luis Simões,No,B,Raw,M_OR_WPC,35,M,88,90,,,,,,190,195,200,,200,,,,,,200,1,PT
Łukasz Toczylowski,No,B,Single-ply,M_OES_WPC,32,M,136.3,140,,,,,,-290,-300,300,,300,,,,,,300,1,IT
Luke Nash,No,SBD,Raw,M_OR_WPC,30,M,82.1,82.5,185,195,202.5,,202.5,130,140,145,,145,235,245,255,,255,602.5,3,GB
Maciel Davi Dos Santos,No,SBD,Raw,M_JR_WPC,23,M,89.4,90,230,250,,,250,170,180,-190,,180,250,-270,270,,270,700,1,FR
Maiju Hilander,No,B,Raw,F_MR_4_WPC,59,F,72.4,75,,,,,,62.5,70,-76,,70,,,,,,70,1,FI
Maiju Hilander,No,D,Raw,F_MR_4_WPC,59,F,72.4,75,,,,,,,,,,,155,165,170,,170,170,1,FI
Maiju Hilander,No,D,Raw,F_OR_WPC,59,F,72.4,75,,,,,,,,,,,155,165,170,,170,170,2,FI
Maks Larionov,No,B,Raw,M_JR_WPC,21,M,81.3,82.5,,,,,,130,140,145,,145,,,,,,145,1,FI
Malin Sundberg,No,B,Raw,F_OR_WPC,27,F,70.6,75,,,,,,60,62.5,65,,65,,,,,,65,4,SE
Marcus Young,No,B,Multi-ply,M_MEM_3_WPC,52,M,87.7,90,,,,,,165,170,-180,,170,,,,,,170,1,FI
Marek Herák,No,B,Multi-ply,M_JEM_WPC,21,M,65.5,67.5,,,,,,180,190,200,-211,200,,,,,,200,1,SK
Marek Herák,No,B,Multi-ply,M_OEM_WPC,21,M,65.5,67.5,,,,,,180,190,200,-211,200,,,,,,200,1,SK
Marko Brusila,No,B,Raw,M_MR_2_WPC,48,M,88.4,90,,,,,,170,180,-182.5,,180,,,,,,180,2,FI
Marko Hyytinen,No,SBD,Raw,M_OR_WPC,31,M,115,125,220,235,245,,245,155,165,170,,170,210,220,230,,230,645,3,FI
Markus Young,No,B,Raw,M_MR_3_WPC,52,M,87.7,90,,,,,,130,135,140,,140,,,,,,140,1,FI
Martin Brown,No,SBD,Wraps,M_OCR_WPC,36,M,99.8,100,290,315,-327.5,,315,170,185,-192.5,,185,260,280,-300,,280,780,1,GB
Martti Kirjokivi,No,B,Raw,M_MR_9_WPC,80,M,74.7,75,,,,,,90,95,100,-102.5,100,,,,,,100,1,FI
Mehdi Khoddami,No,SBD,Raw,M_OR_WPC,33,M,119.5,125,200,225,250,,250,-185,-190,-190,,,,,,,,,DQ,IR
Mia Salminen,No,B,Raw,F_MR_1_WPC,43,F,82.2,82.5,,,,,,95,105,-112.5,,105,,,,,,105,1,FI
Michela Gubernati,No,SBD,Single-ply,F_OES_WPC,35,F,66.9,67.5,-160,160,-175,,160,75,77.5,80,,80,160,-172.5,-172.5,,160,400,1,IT
Mihail Rapoport,No,B,Raw,M_TR_3_WPC,18,M,74.6,75,,,,,,130,135,137.5,,137.5,,,,,,137.5,1,LV
Miia Keränen,No,SBD,Wraps,F_JCR_WPC,22,F,89.5,90,170,-187.5,187.5,,187.5,82.5,-90,-92.5,,82.5,165,-177.5,-177.5,,165,435,1,FI
Miiko Kyöttinen,No,B,Raw,M_JR_WPC,20,M,92.6,100,,,,,,165,,,,165,,,,,,165,2,FI
Miiko Kyöttinen,No,D,Raw,M_JR_WPC,20,M,92.6,100,,,,,,,,,,,-245,-245,,,,,DQ,FI
Mika Kallio,No,SBD,Wraps,M_OCR_WPC,30,M,88.3,90,240,-250,-250,,240,160,-165,-165,,160,250,-270,-270,,250,650,3,FI
Mikhail Shumikhin,No,B,Raw,M_MR_2_WPC,48,M,121.7,125,,,,,,-215,,,,,,,,,,,DQ,RU
Mikhail Shumikhin,No,B,Raw,M_OR_WPC,48,M,121.7,125,,,,,,-215,,,,,,,,,,,DQ,RU
Mikhail Veber,No,SBD,Wraps,M_MCR_2_WPC,45,M,89.1,90,-180,180,-195,,180,190,197.5,-205,,197.5,135,,,,135,512.5,1,RU
Mikhail Veber,No,B,Raw,M_MR_2_WPC,45,M,89.2,90,,,,,,192.5,200,-205,,200,,,,,,200,1,RU
Mikko Matikainen,No,SBD,Multi-ply,M_OEM_WPC,27,M,104.6,110,320,-340,350,,350,210,220,-230,,220,250,270,280,,280,850,2,FI
Minna Kousa,No,SBD,Multi-ply,F_OEM_WPC,39,F,73.3,75,195,205,-215,,205,110,120,125,,125,155,172.5,-180,,172.5,502.5,1,FI
Minna Paler,No,B,Raw,F_MR_2_WPC,49,F,58.5,60,,,,,,75,82.5,-87.5,,82.5,,,,,,82.5,1,FI
Minna Paler,No,D,Raw,F_MR_2_WPC,49,F,58.5,60,,,,,,,,,,,115,125,135,-137.5,135,135,1,FI
Mira Mustonen,No,B,Raw,F_MR_2_WPC,47,F,67.5,67.5,,,,,,85,-95,-95,,85,,,,,,85,1,FI
Mira Mustonen,No,D,Raw,F_MR_2_WPC,47,F,67.5,67.5,,,,,,,,,,,180,190,-195,,190,190,1,FI
Mitch Ravenscroft,No,B,Raw,M_OR_WPC,28,M,88.2,90,,,,,,185,-195,-200,,185,,,,,,185,2,GB
Nadezda Vlasova,No,B,Raw,F_OR_WPC,35,F,66.3,67.5,,,,,,110,115,117.5,,117.5,,,,,,117.5,1,RU
Naël Cetout,No,SBD,Wraps,M_OCR_WPC,27,M,104.1,110,-260,-260,260,,260,190,200,-205,,200,300,-320,-320,,300,760,5,FR
Naël Cetout,No,D,Raw,M_OR_WPC,27,M,103.8,110,,,,,,,,,,,310,-315,-315,,310,310,2,FR
Naomi Sheppard,Yes,SBD,Raw,F_OR_AWPC,25,F,61.9,67.5,162.5,172.5,-180,,172.5,90,95,-100,,95,160,170,-180,,170,437.5,1,GB
Natalia Gadolin,No,D,Raw,F_JR_WPC,23,F,89.2,90,,,,,,,,,,,155,182.5,-190,,182.5,182.5,1,FI
Natalia Hípola,No,D,Raw,F_OR_WPC,35,F,59.8,60,,,,,,,,,,,145,160,-162.5,,160,160,1,ES
Nea Hakonen,No,D,Raw,F_JR_WPC,22,F,101.5,90+,,,,,,,,,,,190,200,-220,,200,200,1,FI
Niclas Friberg,No,D,Single-ply,M_MES_1_WPC,43,M,89.4,90,,,,,,,,,,,250,,,,250,250,1,SE
Niko Andersson,No,D,Raw,M_OR_WPC,29,M,98.8,100,,,,,,,,,,,250,-280,295,,295,295,3,FI
Niko Kaipainen,No,B,Raw,M_OR_WPC,28,M,74.9,75,,,,,,155,160,167.5,,167.5,,,,,,167.5,2,FI
Nikolay Alyshev,No,B,Single-ply,M_OES_WPC,31,M,109.1,110,,,,,,302.5,312.5,-323,,312.5,,,,,,312.5,1,RU
Nuno Nobre,No,SBD,Wraps,M_OCR_WPC,39,M,83.5,90,180,-195,-195,,180,130,140,-145,,140,195,205,210,,210,530,4,PT
Olga Iarmoliuk,No,D,Raw,F_OR_WPC,28,F,51.7,52,,,,,,,,,,,147.5,157.5,163,,163,163,1,UA
Olivia Monro,No,SBD,Raw,F_TR_2_WPC,17,F,80.8,82.5,82.5,87.5,92.5,,92.5,55,60,65,,65,105,107.5,110,,110,267.5,1,GB
Oskari Lehtinen,No,D,Raw,M_OR_WPC,28,M,99.6,100,,,,,,,,,,,300,317.5,322.5,,322.5,322.5,2,FI
Outi Myllykoski,No,SBD,Raw,F_OR_WPC,27,F,64.7,67.5,-105,105,-115,,105,-80,80,-85,,80,120,125,130,,130,315,2,FI
Pasi Koukkula,No,SBD,Multi-ply,M_MEM_2_WPC,48,M,89.1,90,200,230,260,,260,140,150,-155,,150,260,291,,,291,701,1,FI
Pasi Koukkula,No,D,Multi-ply,M_MEM_2_WPC,46,M,89.5,90,,,,,,,,,,,270.5,285,-300,,285,285,1,FI
Patrick Flynn,No,SBD,Raw,M_OR_WPC,27,M,82,82.5,165,-175,-185,,165,-120,120,-125,,120,220,235,247.5,,247.5,532.5,5,GB
Paul Morgan,No,B,Raw,M_MR_1_WPC,44,M,100.6,110,,,,,,150,,,,150,,,,,,150,2,GB
Paul Morgan,No,B,Single-ply,M_MES_1_WPC,44,M,99.8,100,,,,,,220,235,-250,,235,,,,,,235,1,GB
Paul Newman,No,SBD,Wraps,M_MCR_2_WPC,46,M,131.1,140,-260,260,270,,270,230,-240,-240,,230,290,-300,-300,,290,790,1,GB
Paulo Santos #1,No,SBD,Multi-ply,M_OEM_WPC,28,M,98,100,350,375,-390,,375,255,-265,-265,,255,300,330,360,,360,990,1,PT
Paulo Vilas Boas,No,SBD,Multi-ply,M_OEM_WPC,31,M,80.6,82.5,-280,280,-310,,280,165,180,-190,,180,260,280,-292.5,,280,740,1,PT
Pedro Martins,No,SBD,Single-ply,M_OES_WPC,37,M,106.5,110,-280,-280,-280,,,,,,,,,,,,,,DQ,PT
Pedro Pontes,No,SBD,Single-ply,M_OES_WPC,34,M,66.8,67.5,220,236,245,,245,150,160,165,,165,215,225,-230,,225,635,1,PT
Per Holm,No,B,Raw,M_MR_3_WPC,53,M,134.9,140,,,,,,152.5,-162.5,162.5,,162.5,,,,,,162.5,2,SE
Peter Hallberg,No,D,Single-ply,M_OES_WPC,29,M,127.9,140,,,,,,,,,,,250,-280,290,-300,290,290,1,SE
Petri Mäkinen,No,SBD,Raw,M_MR_3_WPC,53,M,89.6,90,100,120,125,,125,110,120,125,,125,160,165,170,,170,420,1,FI
Petri Mäkinen,No,B,Raw,M_MR_3_WPC,53,M,89.6,90,,,,,,110,120,125,,125,,,,,,125,2,FI
Petri Mäkinen,No,D,Raw,M_MR_3_WPC,53,M,89.6,90,,,,,,,,,,,155,165,172.5,,172.5,172.5,1,FI
Petri Salonen,No,B,Raw,M_MR_1_WPC,41,M,107.8,110,,,,,,180,190,-200,,190,,,,,,190,1,FI
Petri Salonen,No,B,Raw,M_OR_WPC,41,M,107.8,110,,,,,,180,190,-200,,190,,,,,,190,2,FI
Petri Salonen,No,D,Raw,M_MR_1_WPC,41,M,107.8,110,,,,,,,,,,,250,260,270,,270,270,2,FI
Petteri Ahola,No,SBD,Raw,M_OR_WPC,32,M,107,110,240,260,270,,270,200,210,215,,215,300,315,320,,320,805,1,FI
Petteri Hosio Henrik,No,B,Multi-ply,M_OEM_WPC,38,M,116.6,125,,,,,,370,-390,-400,,370,,,,,,370,1,FI
Quentin Jacob,No,SBD,Wraps,M_TCR_3_WPC,19,M,87.6,90,190,200,215,,215,115,120,-125,,120,205,225,-240,,225,560,1,FR
Rafael Fernandes,No,SBD,Raw,M_OR_WPC,27,M,94.4,100,170,180,-190,,180,100,-110,-110,,100,200,210,220,,220,500,5,PT
Raimo Aulis Sipiläinen,No,B,Raw,M_MR_6_WPC,67,M,109.2,110,,,,,,150,155,160,,160,,,,,,160,1,FI
Raimo Hiisiö,No,SBD,Wraps,M_MCR_2_WPC,48,M,120.4,125,260,-270,-270,,260,160,170,-180,,170,230,-240,-240,,230,660,1,FI
Raimo Sjögren,No,SBD,Raw,M_MR_7_WPC,72,M,103.3,110,120,125,-130,,125,70,80,-85,,80,140,150,160,,160,365,1,FI
Rami Haaparanta,No,B,Raw,M_MR_1_WPC,41,M,99.7,100,,,,,,190,200,207.5,,207.5,,,,,,207.5,2,FI
Rami Haaparanta,No,B,Multi-ply,M_OEM_WPC,41,M,99.7,100,,,,,,-320,-330,-340,,,,,,,,,DQ,FI
Rane Ovaska,No,SBD,Wraps,M_MCR_4_WPC,57,M,80.8,82.5,-170,-170,170,,170,100,-110,110,,110,210,215,,,215,495,1,FI
Rane Ovaska,No,D,Raw,M_MR_4_WPC,57,M,80.6,82.5,,,,,,,,,,,210,-225,-225,,210,210,1,FI
Reijo Marin,No,B,Raw,M_MR_4_WPC,57,M,109.1,110,,,,,,180,-191,-191,,180,,,,,,180,1,FI
Reijo Marin,No,B,Multi-ply,M_MEM_4_WPC,57,M,112.3,125,,,,,,210,225,-232.5,,225,,,,,,225,1,FI
Reijo Murto,No,B,Raw,M_MR_5_WPC,60,M,87.9,90,,,,,,140,145,-150,,145,,,,,,145,1,FI
Ricardo Monteiro,No,SBD,Wraps,M_OCR_WPC,30,M,99.2,100,-260,260,-280,,260,155,165,-175,,165,280,-300,-302.5,,280,705,4,PT
Richard Kemp,Yes,SBD,Raw,M_MR_4_AWPC,57,M,89.6,90,145,162.5,-170,,162.5,90,-102.5,-102.5,,90,190,210,222.5,,222.5,475,1,GB
Roman Pelykh,No,B,Multi-ply,M_OEM_WPC,31,M,73.4,75,,,,,,210,220,230,,230,,,,,,230,1,UA
Rosen Marinov,No,SBD,Raw,M_OR_WPC,27,M,96.4,100,270,285,295,,295,160,180,190,,190,280,300,-310,,300,785,1,BG
Rui Faria,No,SBD,Wraps,M_MCR_6_WPC,65,M,86.1,90,140,150,-160,,150,95,100,105,-107.5,105,160,-170,170,,170,425,1,PT
Russel Orme,No,SBD,Raw,M_OR_WPC,28,M,89.1,90,190,200,210,,210,140,-147.5,-150,,140,215,227.5,-240,,227.5,577.5,2,GB
Sam Meade,No,SBD,Wraps,M_JCR_WPC,23,M,122.7,125,315,335,-342.5,,335,200,215,-220,,215,-290,290,-307.5,,290,840,1,GB
Sami Salonen,No,B,Raw,M_MR_2_WPC,47,M,143.5,140+,,,,,,180,190,200,,200,,,,,,200,1,FI
Sami Vaskelainen,No,SBD,Wraps,M_OCR_WPC,33,M,74.4,75,215,-222.5,230,,230,120,125,130,,130,240,250,255,,255,615,1,FI
Samppa Nyman,No,SBD,Wraps,M_OCR_WPC,34,M,97.9,100,250,265,275,,275,155,160,165,,165,250,275,285,,285,725,2,FI
Sandro Eusébio,No,SBD,Raw,M_MR_1_WPC,41,M,140.1,140+,250,275,300,,300,185,195,205,,205,310,340,350,,350,855,1,PT
Sandro Eusébio,No,SBD,Raw,M_OR_WPC,41,M,140.1,140+,250,275,300,,300,185,195,205,,205,310,340,350,,350,855,1,PT
Sanna Purhonen,No,D,Raw,F_OR_WPC,31,F,66.5,67.5,,,,,,,,,,,160,172.5,-182.5,,172.5,172.5,1,FI
Sari Anttila,No,SBD,Wraps,F_MCR_2_WPC,48,F,86,90,140,150,165,,165,90,100,-105,,100,140,160,-170,,160,425,1,FI
Satu Lampikari-Olli,No,B,Raw,F_MR_2_WPC,45,F,74.5,75,,,,,,80,-82.5,82.5,,82.5,,,,,,82.5,1,FI
Sean Blackburn,No,B,Raw,M_MR_2_WPC,49,M,119.3,125,,,,,,172.5,187.5,-202.5,,187.5,,,,,,187.5,1,GB
Sean Blackburn,No,B,Multi-ply,M_MEM_2_WPC,49,M,118.2,125,,,,,,220,-240,255,,255,,,,,,255,1,GB
Seppo Laukkanen,No,D,Single-ply,M_MES_4_WPC,55,M,103.7,110,,,,,,,,,,,270,285,-300,,285,285,1,FI
Sergei Nikiforov,No,B,Single-ply,M_MES_6_WPC,69,M,74.6,75,,,,,,135,-145,-145,,135,,,,,,135,1,RU
Sergey Daragan,No,D,Raw,M_OR_WPC,39,M,123.2,125,,,,,,,,,,,370,385,400,,400,400,1,RU
Sergey Tesaruk,No,B,Single-ply,M_OES_WPC,33,M,99.4,100,,,,,,240,-252.5,252.5,,252.5,,,,,,252.5,1,RU
Shan Passmore,Yes,SBD,Wraps,F_MCR_2_AWPC,46,F,60.9,67.5,-140,-140,-140,,,,,,,,,,,,,,DQ,GB
Sofia Pegoraro,No,SBD,Wraps,F_OCR_WPC,33,F,72.7,75,110,120,-135,,120,60,70,-72.5,,70,120,-130,,,120,310,3,IT
Souleiman Turki,No,SBD,Raw,M_TR_2_WPC,17,M,66.8,67.5,170,180,-185,,180,100,-110,110,,110,200,212.5,-220.5,,212.5,502.5,1,FR
Souleiman Turki,No,D,Raw,M_TR_2_WPC,17,M,67.2,67.5,,,,,,,,,,,205,215.5,220,-222.5,220,220,1,FR
Steeve Barros Gameiro,No,B,Multi-ply,M_OEM_WPC,38,M,99.3,100,,,,,,290,-310,310,,310,,,,,,310,1,FR
Steffen Burkhard,No,SBD,Wraps,M_MCR_6_WPC,67,M,73.4,75,145,155,-165,,155,85,90,95,,95,140,150,,,150,400,1,DE
Steph Taylor,No,SBD,Multi-ply,F_OEM_WPC,30,F,65.1,67.5,180,-195,200,,200,110,-117.5,-120,,110,155,170,180,,180,490,1,GB
Steve Macneil,No,SBD,Multi-ply,M_OEM_WPC,32,M,135.2,140,-400,-400,410,,410,-310,320,-340.5,,320,280,-300,-300,,280,1010,1,GB
Svetlana Sinacheva,No,B,Raw,F_MR_3_WPC,50,F,77.9,82.5,,,,,,108,112.5,117.5,120,117.5,,,,,,117.5,1,RU
Tapio Laine,No,B,Multi-ply,M_MEM_6_WPC,65,M,127.8,140,,,,,,240,250,260,,260,,,,,,260,1,FI
Tatiana Conde,No,SBD,Wraps,F_JCR_WPC,22,F,73.5,75,-130,130,-140,,130,-65,65,-67.5,,65,-160,165,170,,170,365,1,ES
Tatiana Conde,No,D,Raw,F_JR_WPC,22,F,72.9,75,,,,,,,,,,,160,172.5,-176,,172.5,172.5,1,ES
Teemu Laaksonen,No,SBD,Wraps,M_OCR_WPC,30,M,89.5,90,300,-310,310,,310,165,175,,,175,300,315,-322.5,,315,800,1,FI
Teemu Mäkynen,No,SBD,Wraps,M_JCR_WPC,23,M,99.9,100,240,260,275,,275,130,140,150,,150,270,280,290,,290,715,1,FI
Tero Vuorio,No,B,Raw,M_OR_WPC,37,M,124.2,125,,,,,,160,-170,-170,,160,,,,,,160,4,FI
Tero Vuorio,No,D,Raw,M_OR_WPC,37,M,124.2,125,,,,,,,,,,,220,240,-245,,240,240,3,FI
Tero Ylivinkka,No,B,Raw,M_MR_3_WPC,51,M,132.5,140,,,,,,190,-195,,,190,,,,,,190,1,FI
Tero Ylivinkka,No,B,Raw,M_OR_WPC,51,M,132.5,140,,,,,,190,-195,,,190,,,,,,190,3,FI
Thomas Mouroux,No,B,Raw,M_JR_WPC,20,M,66.9,67.5,,,,,,115,120,125,,125,,,,,,125,1,FR
Tom Collins,No,SBD,Raw,M_TR_3_WPC,18,M,80.5,82.5,160,170,175,,175,120,-130,-130,,120,190,205,-207.5,,205,500,1,GB
Tom Martin #1,No,SBD,Wraps,M_OCR_WPC,29,M,108.6,110,340,360,-370,,360,200,210,-215,,210,380,-411,,,380,950,2,GB
Tom Shaw,No,SBD,Wraps,M_OCR_WPC,38,M,133.5,140,220,240,260,,260,140,160,180,,180,320,350,360.5,365,360.5,800.5,1,GB
Tom Sheppard,No,SBD,Raw,M_OR_WPC,24,M,97.7,100,-240,-240,240,,240,160,170,-175,,170,260,280,282.5,,282.5,692.5,3,GB
Tomilov Elizabet,No,B,Raw,F_TR_1_WPC,13,F,54.1,56,,,,,,45,47.5,50,,50,,,,,,50,1,IL
Tomilov Elizabet,No,D,Raw,F_TR_1_WPC,13,F,54.1,56,,,,,,,,,,,72.5,80,82.5,,82.5,82.5,1,IL
Tomilov Valery,No,B,Raw,M_MR_3_WPC,52,M,98.4,100,,,,,,165,172.5,180,,180,,,,,,180,1,IL
Tomilov Valery,No,B,Multi-ply,M_MEM_3_WPC,53,M,99.1,100,,,,,,230,-250,,,230,,,,,,230,1,IL
Tomilov Valery,No,D,Single-ply,M_MES_3_WPC,52,M,99.1,100,,,,,,,,,,,230,252.5,,,252.5,252.5,1,IL
Valentin Cacici,No,B,Multi-ply,M_OEM_WPC,27,M,88.3,90,,,,,,-275,-285,-295,,,,,,,,,DQ,FR
Valentin Rohm,No,B,Raw,M_JR_WPC,22,M,82.7,90,,,,,,140,152.5,-157.5,,152.5,,,,,,152.5,1,DE
Valerie Tinker,Yes,SBD,Raw,F_MR_4_AWPC,57,F,73.3,75,35,-40,45,,45,45,50,-55,,50,105,120,-130,,120,215,1,GB
Valtteri Salmi,No,B,Raw,M_TR_3_WPC,19,M,149,140+,,,,,,-200,-210,-220,,,,,,,,,DQ,FI
Valtteri Salmi,No,B,Raw,M_OR_WPC,19,M,149,140+,,,,,,-200,-210,-220,,,,,,,,,DQ,FI
Vanessa Torres,No,SBD,Wraps,F_OCR_WPC,30,F,55.2,56,140,-150,-150,,140,95,100,-102.5,,100,150,160,-170,,160,400,1,FI
Vanessa Torres,No,B,Raw,F_OR_WPC,30,F,55.2,56,,,,,,95,-100,-100,,95,,,,,,95,1,FI
Vasily Chernyshenko,No,B,Raw,M_MR_3_WPC,54,M,115.1,125,,,,,,135,140,142.5,,142.5,,,,,,142.5,2,RU
Veera Hiltunen,No,B,Raw,F_JR_WPC,21,F,73.9,75,,,,,,-75,-75,75,,75,,,,,,75,1,FI
Veli-Matti Salmi,No,B,Raw,M_OR_WPC,36,M,106.9,110,,,,,,190,200,-210,,200,,,,,,200,1,FI
Vesa Keskimaa,No,SBD,Wraps,M_MCR_3_WPC,54,M,119.1,125,260,280,295,,295,190,200,205,,205,260,280,,,280,780,1,FI
Vesa Nissilä,No,SBD,Multi-ply,M_MEM_3_WPC,54,M,109.6,110,-255,-255,-255,,,,,,,,,,,,,,DQ,FI
Vesa Nissilä,No,B,Multi-ply,M_MEM_3_WPC,54,M,110.1,125,,,,,,175,182.5,190,,190,,,,,,190,1,FI
Vesa Partala,No,B,Multi-ply,M_OEM_WPC,37,M,80.7,82.5,,,,,,-260,-260,-260,,,,,,,,,DQ,FI
Vesa Taavitsainen,No,D,Raw,M_OR_WPC,32,M,93.5,100,,,,,,,,,,,260,280,-290,,280,280,4,FI
Vesa Vesterinen,No,SBD,Raw,M_OR_WPC,31,M,118.9,125,240,-255,260,,260,200,210,220,,220,270,285,295,,295,775,2,FI
Vikki Thomas,No,SBD,Raw,F_OR_WPC,37,F,56,56,65,70,75,,75,40,-45,-45,,40,90,95,102.5,,102.5,217.5,1,GB
Vilho Määttä,No,SBD,Wraps,M_MCR_5_WPC,64,M,81.5,82.5,-145,145,-160,,145,100,110,,,110,170,190,,,190,445,1,FI
Ville Suominen,No,SBD,Wraps,M_OCR_WPC,35,M,108.8,110,315,-325,-325,,315,170,180,-190,,180,300,320,-337.5,,320,815,4,FI
Vincent Eldin,No,B,Raw,M_MR_2_WPC,45,M,74.4,75,,,,,,130,135,-142.5,,135,,,,,,135,1,FR
Vincent Eldin,No,B,Single-ply,M_OES_WPC,45,M,74.4,75,,,,,,-172.5,-185,185,,185,,,,,,185,1,FR
Virpi Knuutila,No,B,Raw,F_MR_2_WPC,49,F,81.2,82.5,,,,,,115,122.5,-125,,122.5,,,,,,122.5,1,FI
Virpi Knuutila,No,B,Raw,F_OR_WPC,49,F,81.2,82.5,,,,,,115,122.5,-125,,122.5,,,,,,122.5,1,FI
Virpi Knuutila,No,D,Raw,F_MR_2_WPC,49,F,81.2,82.5,,,,,,,,,,,210,-222.5,,,210,210,1,FI
Virpi Knuutila,No,D,Raw,F_OR_WPC,49,F,81.2,82.5,,,,,,,,,,,210,-222.5,,,210,210,1,FI
Vitalijs Opalevs,No,SBD,Wraps,M_MCR_2_WPC,45,M,85.8,90,120,-140,145,,145,100,110,-115,,110,170,190,200,,200,455,2,LV
Vladimir Gosin,No,SBD,Wraps,M_MCR_3_WPC,52,M,93.1,100,220,230,-240,,230,150,155,160,,160,240,250,265,,265,655,1,IL
Vladimir Gosin,No,SBD,Wraps,M_OCR_WPC,52,M,93.1,100,220,230,-240,,230,150,155,160,,160,240,250,265,,265,655,6,IL
Vladimir Hristov,No,D,Raw,M_OR_WPC,33,M,90,90,,,,,,,,,,,220,260,270,,270,270,2,BG
Vladlen Astaptsev,No,SBD,Wraps,M_MCR_3_WPC,52,M,76.7,82.5,125,132.5,137.5,-140,137.5,90,97.5,100,102.5,100,165,172.5,177.5,,177.5,415,1,FI
Vladlen Astaptsev,No,B,Raw,M_MR_3_WPC,52,M,76.7,82.5,,,,,,95,-105,-105,,95,,,,,,95,1,FI
Zurfluh Cédric,No,B,Raw,M_TR_3_WPC,18,M,79.9,82.5,,,,,,120,125,-130,,125,,,,,,125,1,CH
Zydrunas Koseliovas,No,D,Single-ply,M_OES_WPC,25,M,80.6,82.5,,,,,,,,,,,210,230,-250,,230,230,1,LT
