Place,Sex,Name,CyrillicName,BodyweightKg,Squat1Kg,Squat2Kg,Squat3Kg,Best3SquatKg,Squat4Kg,Bench1Kg,Bench2Kg,Bench3Kg,Best3BenchKg,Bench4Kg,Deadlift1Kg,Deadlift2Kg,Deadlift3Kg,Best3DeadliftKg,Deadlift4Kg,TotalKg,WeightClassKg,Event,Equipment,Tested,Division,Age,BirthDate
1,F,Olga Ponomareva,Ольга Пономарева,59,85,,,85,,37.5,40,-42.5,40,,100,105,115,115,,240,60,SBD,Raw,No,Juniors 20-23,23,1994-08-25
1,M,Artem Mayorov,Артем Майоров,65.6,105,,,105,,-67.5,67.5,70,70,,120,132.5,140,140,,315,67.5,SBD,Raw,No,Teen 16-17,16,2001-01-19
1,M,Anton Markin,Антон Маркин,86.4,180,,,180,,120,130,-135,130,,200,215,225,225,,535,90,SBD,Raw,No,Open,25,1992-06-30
1,M,Denis Ilichev,Денис Ильичев,86,210,,,210,,150,160,-165,160,,210,220,-230,220,,590,90,SBD,Wraps,No,Open,29,1987-12-01
1,M,Mikhail Efremov,Михаил Ефремов,86.6,160,,,160,,,,,,,,,,,,160,90,S,Raw,No,Teen 18-19,19,1998-08-14
DQ,M,Anna Kuznetsova,Анна Кузнецова,61.9,,,,,,-65,-65,-75,,,,,,,,,67.5,B,Raw,No,Juniors 20-23,23,1994-02-07
1,M,Kirill Kulikov,Кирилл Куликов,66,,,,,,60,65,-67.5,65,,,,,,,65,67.5,B,Raw,No,Teen 13-15,13,2003-10-24
1,M,Vladislav Sovlachkov,Владислав Совлачков,73.7,,,,,,110,-112.5,,110,,,,,,,110,75,B,Raw,No,Teen 18-19,19,1998-06-29
2,M,Anton Shurupov,Антон Шурупов,70.8,,,,,,-100,100,-105,100,,,,,,,100,75,B,Raw,No,Teen 18-19,19,1998-01-23
1,M,Anatoliy Troyashkin,Анатолий Трояшкин,71.8,,,,,,145,150,,150,,,,,,,150,75,B,Raw,No,Open,28,1989-01-16
2,M,Maksim Lamin,Максим Ламин,74.8,,,,,,130,135,140,140,,,,,,,140,75,B,Raw,No,Open,24,1993-08-07
1,M,Igor Tikhonov,Игорь Тихонов,76.4,,,,,,80,87.5,90,90,,,,,,,90,82.5,B,Raw,No,Teen 16-17,16,2001-05-30
1,M,Dmitriy Kryuchkov,Дмитрий Крючков,81.4,,,,,,135,142.5,-147.5,142.5,,,,,,,142.5,82.5,B,Raw,No,Juniors 20-23,21,1996-05-08
1,M,Gennadiy Andreev,Геннадий Андреев,80.2,,,,,,155,162.5,-167.5,162.5,,,,,,,162.5,82.5,B,Raw,No,Open,28,1989-04-01
2,M,Aleksandr Kuzmin,Александр Кузьмин,80,,,,,,-127.5,130,-135,130,,,,,,,130,82.5,B,Raw,No,Open,29,1988-09-10
1,M,Sergey Kirpichyov,Сергей Кирпичёв,82,,,,,,105,110,117.5,117.5,,,,,,,117.5,82.5,B,Raw,No,Masters 40-44,40,1977-08-09
1,M,Vladislav Antipov,Владислав Антипов,89,,,,,,140,-145,147.5,147.5,-150,,,,,,147.5,90,B,Raw,No,Juniors 20-23,21,1996-03-28
1,M,Maksim Rusnak,Максим Руснак,89.6,,,,,,167.5,,,167.5,,,,,,,167.5,90,B,Raw,No,Open,23,1993-12-29
1,M,Vladimir Postnov,Владимир Постнов,97.2,,,,,,170,182.5,190,190,,,,,,,190,100,B,Raw,No,Open,47,1970-04-21
2,M,Maksim Ruchkov,Максим Ручков,99.7,,,,,,160,165,-167.5,165,,,,,,,165,100,B,Raw,No,Open,36,1980-12-16
1,M,Igor Malov,Игорь Малов,96.7,,,,,,150,160,-165,160,,,,,,,160,100,B,Raw,No,Masters 45-49,46,1971-02-20
1,M,Artur Arakelyan,Артур Аракелян,109.5,,,,,,200,210,215,215,,,,,,,215,110,B,Raw,No,Open,30,1987-08-08
2,M,Pavel Kondratev,Павел Кондратьев,107,,,,,,180,190,-195,190,,,,,,,190,110,B,Raw,No,Open,28,1989-09-20
3,M,Vitaliy Setin,Виталий Сетин,107.3,,,,,,170,172.5,-177.5,172.5,,,,,,,172.5,110,B,Raw,No,Open,33,1984-05-28
1,M,Roman Zemlyakov,Роман Земляков,124.6,,,,,,205,210,215,215,,,,,,,215,125,B,Raw,No,Open,29,1988-08-24
2,M,Aleksey Petrunin,Алексей Петрунин,117.6,,,,,,185,202.5,-207.5,202.5,,,,,,,202.5,125,B,Raw,No,Open,35,1982-01-31
3,M,Gleb Morozov,Глеб Морозов,124.7,,,,,,175,190,-200,190,,,,,,,190,125,B,Raw,No,Open,44,1973-04-23
4,M,Dmitriy Malikov,Дмитрий Маликов,121.9,,,,,,160,-175,-175,160,,,,,,,160,125,B,Raw,No,Open,29,1988-06-14
1,F,Arina Belikova,Арина Беликова,51.7,,,,,,,,,,,85,92.5,-100,92.5,,92.5,52,D,Raw,No,Open,27,1990-07-05
1,F,Natalya Semenova,Наталья Семенова,53.1,,,,,,,,,,,-82.5,85,-87.5,85,,85,56,D,Raw,No,Juniors 20-23,22,1995-05-15
1,F,Aleksandra Kechkova,Александра Кечкова,59.1,,,,,,,,,,,-80,80,-90,80,,80,60,D,Raw,No,Open,24,1993-06-19
1,F,Darya Belyakova,Дарья Белякова,71.3,,,,,,,,,,,145,-167.5,-167.5,145,,145,75,D,Raw,No,Juniors 20-23,21,1996-09-10
1,M,Aleksandr Levin,Александр Левин,64.8,,,,,,,,,,,190,200,-220,200,,200,67.5,D,Raw,No,Open,25,1992-10-01
1,M,Anton Shurupov,Антон Шурупов,70.8,,,,,,,,,,,170,175,-185,175,,175,75,D,Raw,No,Teen 18-19,19,1998-01-23
1,M,Oleg Malyshev,Олег Малышев,90,,,,,,,,,,,265,-300,-300,265,,265,90,D,Raw,No,Teen 18-19,18,1999-05-26
1,M,Mikhail Sidorov,Михаил Сидоров,85.5,,,,,,,,,,,180,200,220,220,,220,90,D,Raw,No,Open,29,1988-03-18
1,M,Valeriy Goryaev,Валерий Горяев,88.9,,,,,,,,,,,200,215,225,225,,225,90,D,Raw,No,Masters 45-49,46,1971-09-10
1,M,Aleksandr Olgin,Александр Ольгин,98.2,,,,,,,,,,,225,245,255,255,,255,100,D,Raw,No,Open,26,1991-09-09
