Division,WeightClassKg,Place,Name,Team,BodyweightKg,Best3SquatKg,Best3BenchKg,Best3DeadliftKg,TotalKg,Equipment,Event,Sex
Boys,51.71,1,Austin Puetz,Paris,51.26,108.86,70.31,142.88,322.05,Single-ply,SBD,M
Boys,51.71,2,Cody Henrico,Queen City,51.26,108.86,63.5,136.08,308.44,Single-ply,SBD,M
Boys,51.71,3,Trey Arras,Texarkana Liberty-Eylau,48.9,108.86,68.04,117.93,294.84,Single-ply,SBD,M
Boys,51.71,4,Billy Dy,Ore City,50.62,86.18,52.16,102.06,240.4,Single-ply,SBD,M
Boys,51.71,5,Wade Simpson,Maud,47.31,95.25,38.56,99.79,233.6,Single-ply,SBD,M
Boys,51.71,6,Cody Brock,Detroit,48.72,70.31,40.82,88.45,199.58,Single-ply,SBD,M
Boys,51.71,7,Evan Beaty,Linden-Kildare,41.28,58.97,43.09,81.65,183.7,Single-ply,SBD,M
Boys,55.79,1,Aaron Johnson,Jefferson,52.62,145.15,77.11,147.42,369.68,Single-ply,SBD,M
Boys,55.79,2,Naire Gaines,Paris,54.7,145.15,70.31,147.42,362.87,Single-ply,SBD,M
Boys,55.79,3,Ryan Fincher,Queen City,55.07,142.88,72.57,142.88,358.34,Single-ply,SBD,M
Boys,59.87,4,Jacori Denmark,Hughes Springs,55.97,129.27,74.84,145.15,349.27,Single-ply,SBD,M
Boys,59.87,5,Josh Bolton,Paris North Lamar,55.88,122.47,56.7,124.74,303.91,Single-ply,SBD,M
Boys,55.79,6,Web Culberson,Paris North Lamar,52.25,90.72,58.97,102.06,251.74,Single-ply,SBD,M
Boys,55.79,DQ,Jackson Kennedy,Redwater,53.89,,,,,Single-ply,SBD,M
Boys,55.79,DQ,MeKenzie Davis,Texarkana Liberty-Eylau,55.52,136.08,,,,Single-ply,SBD,M
Boys,59.87,1,Matthew Soloman,Texarkana Liberty-Eylau,58.51,172.37,102.06,170.1,444.52,Single-ply,SBD,M
Boys,59.87,2,Matt Hahn,Texarkana Pleasant Grove,58.88,145.15,86.18,161.03,392.36,Single-ply,SBD,M
Boys,59.87,3,Ryder Brock,Detroit,58.51,149.69,70.31,167.83,387.82,Single-ply,SBD,M
Boys,59.87,4,Caleb Bush,Elysian Fields,57.79,133.81,83.91,140.61,358.34,Single-ply,SBD,M
Boys,67.13,5,Trystan Burt,Queen City,59.96,129.27,81.65,147.42,358.34,Single-ply,SBD,M
Boys,59.87,6,Ethan Wagner,Texarkana Pleasant Grove,58.51,129.27,77.11,140.61,347,Single-ply,SBD,M
Boys,67.13,7,Peyton Cooper,Elysian Fields,60.1,102.06,68.04,111.13,281.23,Single-ply,SBD,M
Boys,59.87,8,Josh Garza,New Boston,57.61,92.99,52.16,124.74,269.89,Single-ply,SBD,M
Boys,59.87,9,Stephen Chester,Elysian Fields,59.51,79.38,52.16,127.01,258.55,Single-ply,SBD,M
Boys,59.87,10,Brandon Buck,Hooks,59.87,61.23,52.16,79.38,192.78,Single-ply,SBD,M
Boys,67.13,1,Kolton Morgan,Queen City,64.86,181.44,106.59,183.7,471.74,Single-ply,SBD,M
Boys,67.13,2,Rod Howard,Texarkana Liberty-Eylau,63.5,181.44,97.52,176.9,455.86,Single-ply,SBD,M
Boys,67.13,3,Xavier McDonald,Clarksville,64.5,170.1,97.52,188.24,455.86,Single-ply,SBD,M
Boys,67.13,4,Dillon Gibson,Maud,63.64,190.51,83.91,170.1,444.52,Single-ply,SBD,M
Boys,67.13,5,X-Zavius Gray,Paris,64.5,172.37,92.99,170.1,435.45,Single-ply,SBD,M
Boys,67.13,6,Austin Wright,Maud,64.86,185.97,70.31,167.83,424.11,Single-ply,SBD,M
Boys,67.13,7,Reid Bynum,Linden-Kildare,65.32,147.42,92.99,176.9,417.3,Single-ply,SBD,M
Boys,67.13,8,Jared Scott,Texarkana Pleasant Grove,63.78,170.1,79.38,161.03,410.5,Single-ply,SBD,M
Boys,67.13,9,Keitron Reed,Paris North Lamar,66.22,149.69,92.99,167.83,410.5,Single-ply,SBD,M
Boys,67.13,10,Kegan Mazel,Jefferson,62.14,154.22,92.99,158.76,405.97,Single-ply,SBD,M
Boys,67.13,11,Ty Everett,Texarkana Pleasant Grove,65.41,140.61,90.72,172.37,403.7,Single-ply,SBD,M
Boys,67.13,12,Rajaun Crabtree,Texarkana Liberty-Eylau,60.69,149.69,90.72,158.76,399.16,Single-ply,SBD,M
Boys,67.13,13,Tye Lafayette,Jefferson,62.6,142.88,88.45,158.76,390.09,Single-ply,SBD,M
Boys,67.13,14,Nick Nobel,Paris North Lamar,64.86,136.08,77.11,140.61,353.8,Single-ply,SBD,M
Boys,67.13,15,Casey McMullen,Elysian Fields,65.23,124.74,70.31,151.95,347,Single-ply,SBD,M
Boys,67.13,16,Mason Chrisman,Paris North Lamar,66.77,102.06,68.04,147.42,317.51,Single-ply,SBD,M
Boys,74.84,17,Jauan Johnson,Texarkana Liberty-Eylau,67.36,120.2,79.38,117.93,317.51,Single-ply,SBD,M
Boys,67.13,18,Dustin Ervin,Detroit,65.41,120.2,63.5,124.74,308.44,Single-ply,SBD,M
Boys,67.13,19,Austin Cunningham,Paris North Lamar,61.6,108.86,68.04,124.74,301.64,Single-ply,SBD,M
Boys,67.13,20,Connor Price,Jefferson,66.22,102.06,47.63,106.59,256.28,Single-ply,SBD,M
Boys,67.13,DQ,Jason Hosey,Hooks,65.23,83.91,,,,Single-ply,SBD,M
Boys,67.13,DQ,Chase Cruz,Elysian Fields,63.59,,,,,Single-ply,SBD,M
Boys,74.84,1,Brad Meadows,Texarkana Pleasant Grove,73.84,226.8,149.69,229.06,605.55,Single-ply,SBD,M
Boys,74.84,2,Jarrett Morgan,Queen City,71.85,185.97,111.13,192.78,489.88,Single-ply,SBD,M
Boys,74.84,3,Gabriel DuBose,Hughes Springs,72.76,181.44,127.01,167.83,476.27,Single-ply,SBD,M
Boys,74.84,4,Brody Prize,Jefferson,74.84,176.9,117.93,181.44,476.27,Single-ply,SBD,M
Boys,74.84,5,Greg Morgan,Hughes Springs,71.3,176.9,115.67,181.44,474,Single-ply,SBD,M
Boys,74.84,6,Carson Craytor,Texarkana Pleasant Grove,72.3,176.9,92.99,192.78,462.66,Single-ply,SBD,M
Boys,74.84,7,Larry Murphy,Texarkana Texas,74.3,165.56,117.93,176.9,460.4,Single-ply,SBD,M
Boys,74.84,8,Daqurius Steels,Texarkana Liberty-Eylau,69.22,165.56,102.06,181.44,449.06,Single-ply,SBD,M
Boys,74.84,9,Cody Ball,Queen City,72.12,158.76,90.72,181.44,430.91,Single-ply,SBD,M
Boys,74.84,10,Logan Elmore,Ore City,70.49,149.69,104.33,149.69,403.7,Single-ply,SBD,M
Boys,74.84,11,Kameron Levingston,Texarkana Liberty-Eylau,70.4,124.74,97.52,149.69,371.95,Single-ply,SBD,M
Boys,74.84,12,Chris Irizarry,Redwater,71.21,136.08,74.84,158.76,369.68,Single-ply,SBD,M
Boys,74.84,13,Brent Taylor,Detroit,72.94,124.74,81.65,163.29,369.68,Single-ply,SBD,M
Boys,74.84,14,Zach Cariker,Ore City,67.86,131.54,83.91,136.08,351.53,Single-ply,SBD,M
Boys,74.84,15,Dustin Coleman,Ore City,71.3,133.81,77.11,136.08,347,Single-ply,SBD,M
Boys,74.84,16,Dakota Patterson,Maud,74.62,113.4,65.77,138.35,317.51,Single-ply,SBD,M
Boys,74.84,DQ,Taylor Lang,Elysian Fields,71.49,158.76,,,,Single-ply,SBD,M
Boys,74.84,DQ,Levi McDaniel,Hooks,68.49,145.15,,,,Single-ply,SBD,M
Boys,82.1,1,Hunter Hatfield,Texarkana Pleasant Grove,81.47,208.65,113.4,208.65,530.7,Single-ply,SBD,M
Boys,82.1,2,Dakota Moore,Paris North Lamar,77.66,183.7,115.67,199.58,498.95,Single-ply,SBD,M
Boys,82.1,3,Kyler Drake,Paris North Lamar,80.74,190.51,102.06,183.7,476.27,Single-ply,SBD,M
Boys,82.1,4,Zanoah Arnold,Texarkana Liberty-Eylau,75.66,172.37,108.86,185.97,467.2,Single-ply,SBD,M
Boys,82.1,5,Parker Hailey,Queen City,82.1,154.22,108.86,195.04,458.13,Single-ply,SBD,M
Boys,82.1,6,Caleb Collins,Maud,81.83,174.63,97.52,181.44,453.59,Single-ply,SBD,M
Boys,82.1,7,Wesley Stewart,Texarkana Liberty-Eylau,79.56,165.56,102.06,181.44,449.06,Single-ply,SBD,M
Boys,82.1,8,James Nelson,Texarkana Texas,82.1,158.76,102.06,181.44,442.25,Single-ply,SBD,M
Boys,82.1,9,Herlin James,Texarkana Liberty-Eylau,77.02,170.1,104.33,149.69,424.11,Single-ply,SBD,M
Boys,82.1,10,Anthony Rose,Jefferson,78.2,174.63,97.52,151.95,424.11,Single-ply,SBD,M
Boys,82.1,11,Colton Finney,Redwater,77.84,158.76,88.45,165.56,412.77,Single-ply,SBD,M
Boys,82.1,12,Nicky Goens,Ore City,76.84,138.35,97.52,158.76,394.63,Single-ply,SBD,M
Boys,82.1,13,Casey Harper,Paris North Lamar,81.24,145.15,106.59,142.88,394.63,Single-ply,SBD,M
Boys,82.1,14,Trevor McCoin,Detroit,80.01,136.08,81.65,172.37,390.09,Single-ply,SBD,M
Boys,82.1,15,Dakota Hembree,Paris North Lamar,75.52,156.49,74.84,154.22,385.55,Single-ply,SBD,M
Boys,82.1,16,Darrell Houff,Texarkana Liberty-Eylau,81.92,124.74,102.06,147.42,374.21,Single-ply,SBD,M
Boys,82.1,17,Tederrick Reese,Texarkana Liberty-Eylau,82.01,142.88,92.99,136.08,371.95,Single-ply,SBD,M
Boys,82.1,18,Hunter Harrison,Redwater,77.56,136.08,81.65,138.35,356.07,Single-ply,SBD,M
Boys,82.1,19,Tyron Evans,Texarkana Texas,75.84,142.88,68.04,142.88,353.8,Single-ply,SBD,M
Boys,82.1,20,Montana Backman,Jefferson,76.02,136.08,68.04,145.15,349.27,Single-ply,SBD,M
Boys,82.1,21,Logan Wright,Ore City,75.39,136.08,74.84,136.08,347,Single-ply,SBD,M
Boys,82.1,22,Tre Jackson,Jefferson,80.47,122.47,77.11,147.42,347,Single-ply,SBD,M
Boys,82.1,23,Cody McCallie,Hooks,76.2,117.93,65.77,136.08,319.78,Single-ply,SBD,M
Boys,82.1,DQ,Zhymel Bowie,Jefferson,76.2,,,,,Single-ply,SBD,M
Boys,82.1,DQ,Taylor Young #4,Ore City,75.48,,,,,Single-ply,SBD,M
Boys,89.81,1,Andrew Johnson,Paris North Lamar,86.36,199.58,117.93,226.8,544.31,Single-ply,SBD,M
Boys,89.81,2,Kendall Alexander,Paris,89.45,185.97,108.86,190.51,485.34,Single-ply,SBD,M
Boys,89.81,3,Juan Dorantes,Hughes Springs,87.45,185.97,104.33,192.78,483.08,Single-ply,SBD,M
Boys,89.81,4,Jaylin Hardeman,Jefferson,86.36,185.97,111.13,183.7,480.81,Single-ply,SBD,M
Boys,89.81,5,Jordan Sanders,Paris,84.64,170.1,104.33,204.12,478.54,Single-ply,SBD,M
Boys,89.81,6,Jacob Akard,Paris North Lamar,86.27,165.56,115.67,190.51,471.74,Single-ply,SBD,M
Boys,89.81,7,Decorian Kendricks,Texarkana Texas,85.91,183.7,88.45,195.04,467.2,Single-ply,SBD,M
Boys,89.81,8,Darrian Dockins,Clarksville,89.09,183.7,95.25,185.97,464.93,Single-ply,SBD,M
Boys,89.81,9,Chris Reese,Queen City,87.54,174.63,99.79,185.97,460.4,Single-ply,SBD,M
Boys,89.81,10,Easton Droddy,Queen City,83.46,167.83,95.25,170.1,433.18,Single-ply,SBD,M
Boys,89.81,11,Fernando Ramirez,Linden-Kildare,89.45,145.15,97.52,190.51,433.18,Single-ply,SBD,M
Boys,89.81,12,Kj Reid,Texarkana Texas,85.37,156.49,99.79,142.88,399.16,Single-ply,SBD,M
Boys,89.81,13,Dj Samuels,Paris,86,145.15,90.72,156.49,392.36,Single-ply,SBD,M
Boys,89.81,14,Lane Peek,New Boston,88.9,147.42,90.72,142.88,381.02,Single-ply,SBD,M
Boys,89.81,15,Chris Davis,Maud,89.45,149.69,81.65,142.88,374.21,Single-ply,SBD,M
Boys,89.81,16,Jaquavion Nichols,Clarksville,82.64,136.08,70.31,149.69,356.07,Single-ply,SBD,M
Boys,89.81,17,Ian Throckmorton,Ore City,88.36,127.01,77.11,149.69,353.8,Single-ply,SBD,M
Boys,89.81,18,Kendrick Sauls,Texarkana Liberty-Eylau,89.36,113.4,74.84,142.88,331.12,Single-ply,SBD,M
Boys,89.81,DQ,Isaiah Currie,Linden-Kildare,86.09,,,,,Single-ply,SBD,M
Boys,89.81,DQ,Ryan Storey,Elysian Fields,85.64,,,,,Single-ply,SBD,M
Boys,99.79,1,Neco Smith,Texarkana Pleasant Grove,98.7,238.14,147.42,208.65,594.21,Single-ply,SBD,M
Boys,99.79,2,Geoffrey Smith,Paris,99.79,215.46,124.74,233.6,573.79,Single-ply,SBD,M
Boys,99.79,3,Seth Lemley,Texarkana Pleasant Grove,92.35,219.99,131.54,204.12,555.65,Single-ply,SBD,M
Boys,99.79,4,Zack McGuire,Ore City,93.71,204.12,136.08,204.12,544.31,Single-ply,SBD,M
Boys,99.79,5,Tim Carr,Maud,96.25,208.65,102.06,226.8,537.51,Single-ply,SBD,M
Boys,99.79,6,Tyler Hutsell,Linden-Kildare,97.79,226.8,108.86,197.31,532.97,Single-ply,SBD,M
Boys,99.79,7,Parker Hartcraft,Queen City,97.07,226.8,108.86,179.17,514.83,Single-ply,SBD,M
Boys,99.79,8,Ethan England,Paris,96.25,197.31,108.86,197.31,503.49,Single-ply,SBD,M
Boys,99.79,9,Tristan McClure,Paris,92.08,204.12,95.25,181.44,480.81,Single-ply,SBD,M
Boys,99.79,10,Landon Shelton,Hooks,97.98,195.04,102.06,183.7,480.81,Single-ply,SBD,M
Boys,99.79,11,Reese Matthews,Elysian Fields,94.8,179.17,120.2,170.1,469.47,Single-ply,SBD,M
Boys,99.79,12,Cody Berry,Paris North Lamar,98.07,167.83,108.86,179.17,455.86,Single-ply,SBD,M
Boys,99.79,13,Brandon Halliday,Paris North Lamar,99.06,172.37,104.33,172.37,449.06,Single-ply,SBD,M
Boys,99.79,14,Jawun Sims,Paris,98.43,147.42,113.4,158.76,419.57,Single-ply,SBD,M
Boys,99.79,15,Ryder Bryant,Paris North Lamar,97.07,138.35,79.38,149.69,367.41,Single-ply,SBD,M
Boys,99.79,16,Montana Moore,Redwater,92.71,136.08,86.18,136.08,358.34,Single-ply,SBD,M
Boys,99.79,17,Doran Hutchison,Paris North Lamar,96.62,127.01,74.84,124.74,326.59,Single-ply,SBD,M
Boys,99.79,18,Billy Delaney,Texarkana Liberty-Eylau,93.17,117.93,70.31,124.74,312.98,Single-ply,SBD,M
Boys,99.79,DQ,William Johnson,Ore City,93.08,,,,,Single-ply,SBD,M
Boys,99.79,DQ,Luke Rice,Elysian Fields,94.44,151.95,,,,Single-ply,SBD,M
Boys,109.77,1,Gary Alexander,Maud,109.13,256.28,111.13,254.01,621.42,Single-ply,SBD,M
Boys,109.77,2,Tyler Carter,Paris North Lamar,106.5,204.12,145.15,206.38,555.65,Single-ply,SBD,M
Boys,109.77,3,Ricky Johnson,Texarkana Liberty-Eylau,101.24,210.92,124.74,215.46,551.11,Single-ply,SBD,M
Boys,109.77,4,Dennis Coleman,Paris,101.97,192.78,117.93,204.12,514.83,Single-ply,SBD,M
Boys,109.77,5,Dakota Helm,Paris,107.68,181.44,95.25,197.31,474,Single-ply,SBD,M
Boys,109.77,6,Brandom Galindo,Elysian Fields,104.51,188.24,115.67,163.29,467.2,Single-ply,SBD,M
Boys,109.77,7,Cheyenne Lockhart,Texarkana Liberty-Eylau,103.06,136.08,83.91,154.22,374.21,Single-ply,SBD,M
Boys,109.77,8,Ryan Forbes,Texarkana Pleasant Grove,102.97,142.88,77.11,138.35,358.34,Single-ply,SBD,M
Boys,109.77,9,Tucker Hardin,Detroit,101.88,113.4,81.65,117.93,312.98,Single-ply,SBD,M
Boys,124.74,1,Drew Davis,Texarkana Pleasant Grove,119.93,265.35,174.63,226.8,666.78,Single-ply,SBD,M
Boys,124.74,2,Anthony Sciara,Hooks,110.31,233.6,145.15,226.8,605.55,Single-ply,SBD,M
Boys,124.74,3,Rj Williams,Hooks,113.49,226.8,147.42,226.8,601.01,Single-ply,SBD,M
Boys,124.74,4,Landon Simmons,Jefferson,111.31,219.99,127.01,201.85,548.85,Single-ply,SBD,M
Boys,124.74,5,Noah Palmertree,Hughes Springs,119.93,226.8,117.93,204.12,548.85,Single-ply,SBD,M
Boys,124.74,6,Nick Runnels,Texarkana Texas,122.56,204.12,115.67,188.24,508.02,Single-ply,SBD,M
Boys,124.74,7,Stetson Henderson,Paris North Lamar,114.94,181.44,122.47,172.37,476.27,Single-ply,SBD,M
Boys,124.74,8,Curtis Griggs,Queen City,112.49,181.44,104.33,176.9,462.66,Single-ply,SBD,M
Boys,124.74,9,Caden Phillips,Jefferson,112.67,183.7,113.4,165.56,462.66,Single-ply,SBD,M
Boys,124.74,10,James Carpenter,Jefferson,117.48,183.7,113.4,156.49,453.59,Single-ply,SBD,M
Boys,124.74,11,Colton Tigert,Hughes Springs,113.76,170.1,108.86,170.1,449.06,Single-ply,SBD,M
Boys,124.74,12,Franklin Smith,Texarkana Liberty-Eylau,112.49,181.44,88.45,176.9,446.79,Single-ply,SBD,M
Boys,124.74,13,Byron Muse,Paris,115.48,151.95,95.25,170.1,417.3,Single-ply,SBD,M
Boys,124.74,14,Mac Boyd,New Boston,111.95,147.42,92.99,165.56,405.97,Single-ply,SBD,M
Boys,124.74,15,Haydin Branson,New Boston,123.47,83.91,81.65,133.81,299.37,Single-ply,SBD,M
Boys,124.74,DQ,Dalton Benson,Celeste,115.3,190.51,140.61,,,Single-ply,SBD,M
Boys,124.74+,1,Shakeim Woodberry,Clarksville,131.36,272.16,158.76,272.16,703.07,Single-ply,SBD,M
Boys,124.74+,2,Jermaine Emmers,Clarksville,127.01,226.8,136.08,254.01,616.89,Single-ply,SBD,M
Boys,124.74+,3,Matt Brown #8,Maud,147.96,249.48,136.08,226.8,612.35,Single-ply,SBD,M
Boys,124.74+,4,Lane Allen,Detroit,132.45,256.28,136.08,215.46,607.81,Single-ply,SBD,M
Boys,124.74+,5,Jackie Berry,Paris North Lamar,127.01,233.6,120.2,240.4,594.21,Single-ply,SBD,M
Boys,124.74+,6,Hunter Coleman,Elysian Fields,139.89,226.8,158.76,190.51,576.06,Single-ply,SBD,M
Boys,124.74+,7,Qurdale Huff,Paris,158.39,229.06,133.81,206.38,569.26,Single-ply,SBD,M
Boys,124.74+,8,Riley Coker,Paris,125.83,192.78,99.79,192.78,485.34,Single-ply,SBD,M
Boys,124.74+,9,Zack Watson,Ore City,143.43,181.44,108.86,192.78,483.08,Single-ply,SBD,M
Boys,124.74+,10,Ryan Cox,Jefferson,139.89,174.63,115.67,188.24,478.54,Single-ply,SBD,M
Boys,124.74+,11,Bobby Krider,Linden-Kildare,133.54,197.31,102.06,174.63,474,Single-ply,SBD,M
Boys,124.74+,12,David Ingram,Elysian Fields,141.25,197.31,92.99,183.7,474,Single-ply,SBD,M
Boys,124.74+,13,Hunter Fountain,Elysian Fields,135.9,183.7,142.88,142.88,469.47,Single-ply,SBD,M
Boys,124.74+,14,D'Undre Williams,Linden-Kildare,143.88,158.76,99.79,158.76,417.3,Single-ply,SBD,M
Boys,124.74+,15,Trenton Davis,New Boston,137.17,124.74,86.18,133.81,344.73,Single-ply,SBD,M
