Place,Sex,Name,CyrillicName,BodyweightKg,Squat1Kg,Squat2Kg,Squat3Kg,Best3SquatKg,Squat4Kg,Bench1Kg,Bench2Kg,Bench3Kg,Best3BenchKg,Bench4Kg,Deadlift1Kg,Deadlift2Kg,Deadlift3Kg,Best3DeadliftKg,Deadlift4Kg,TotalKg,WeightClassKg,Event,Equipment,Tested,Division,Age,BirthDate
1,F,Tatyana Kuznetsova,Татьяна Кузнецова,51.9,80,85,-90,85,,52.5,-57.5,57.5,57.5,,90,100,105,105,,247.5,52,SBD,Raw,Yes,Open,39,1977-06-12
1,F,Mariya Tarasova,Мария Тарасова,55,-75,75,80,80,,40,-42.5,-42.5,40,,85,95,100,100,,220,56,SBD,Raw,Yes,Open,27,1989-08-18
1,F,Anna Radyuk,Анна Радюк,60,110,120,125,125,,80,85,,85,,145,-152.5,155,155,,365,60,SBD,Raw,Yes,Open,23,1993-01-22
2,F,Olesya Volynkina,Олеся Волынкина,59.2,72.5,77.5,82.5,82.5,,45,50,-52.5,50,,80,92.5,100,100,,232.5,60,SBD,Raw,Yes,Open,31,1984-12-10
1,F,Ekaterina Komoltseva,Екатерина Комольцева,64.5,-77.5,77.5,82.5,82.5,,40,45,47.5,47.5,,95,105,-115,105,,235,67.5,SBD,Raw,Yes,Open,35,1980-12-25
DQ,F,Ekaterina Lyashevskaya,Екатерина Ляшевская,64,-75,-80,80,80,,-40,-40,-40,,,100,105,110,110,,,67.5,SBD,Raw,Yes,Open,26,1989-12-12
1,F,Rimma Kushch,Римма Кущ,73.2,117.5,125,-130,125,,65,70,-72.5,70,,142.5,150,157.5,157.5,,352.5,75,SBD,Raw,Yes,Open,24,1992-11-21
1,M,Aleksandr Borodin,Александр Бородин,67.3,80,90,95,95,,70,-80,-80,70,,127.5,137.5,147.5,147.5,,312.5,67.5,SBD,Raw,Yes,Open,18,1997-12-10
1,M,Nikolay Baev,Николай Баев,73.9,140,150,160,160,,100,107.5,112.5,112.5,,152.5,165,175,175,,447.5,75,SBD,Raw,Yes,Teen 16-17,16,1999-12-22
1,M,Nikita Veretennikov,Никита Веретенников,73.4,107.5,120,-130,120,,100,-107.5,-107.5,100,,152.5,162.5,170,170,,390,75,SBD,Raw,Yes,Open,20,1996-06-29
1,M,Aleksey Sotnikov,Алексей Сотников,97.6,160,170,-180,170,,105,-112.5,-112.5,105,,200,215,-240,215,,490,100,SBD,Raw,Yes,Teen 18-19,19,1996-12-12
1,M,Evgeniy Dotsenko,Евгений Доценко,78.3,140,147.5,-160,147.5,,95,105,-110,105,,155,175,185,185,,437.5,82.5,SBD,Raw,No,Teen 18-19,19,1997-04-19
1,M,Viktor Mikhaylov,Виктор Михайлов,89,190,202.5,212.5,212.5,,145,152.5,157.5,157.5,,250,270,280,280,,650,90,SBD,Raw,No,Teen 18-19,19,1997-01-31
1,M,Andrey Berkovich,Андрей Беркович,87.6,-200,200,210,210,,170,180,,180,,240,250,-260,250,,640,90,SBD,Raw,No,Open,44,1972-10-07
2,M,Andrey Kuznetsov,Андрей Кузнецов,88.8,200,210,-215,210,,150,155,,155,,235,250,262.5,262.5,,627.5,90,SBD,Raw,No,Open,33,1983-04-17
1,M,Andrey Berkovich,Андрей Беркович,87.6,-200,200,210,210,,170,180,,180,,240,250,-260,250,,640,90,SBD,Raw,No,Masters 40-44,44,1972-10-07
1,M,Vilgelm Kupriyanov,Вильгельм Куприянов,99.1,180,200,210,210,,140,152.5,160,160,,200,220,-235,220,,590,100,SBD,Raw,No,Teen 18-19,19,1997-10-08
1,M,Anton Zenkov,Антон Зенков,98.8,190,200,210,210,,140,147.5,155,155,,230,240,255,255,,620,100,SBD,Raw,No,Open,24,1992-03-10
1,M,Andrey Lanovikin,Андрей Лановикин,105.9,130,142.5,152.5,152.5,,70,77.5,-80,77.5,,170,182.5,187.5,187.5,,417.5,110,SBD,Raw,No,Teen 16-17,17,1999-08-29
1,M,Aleksandr Shelepov,Александр Шелепов,100,-300,300,315,315,,200,210,-215,210,,215,230,242.5,242.5,,767.5,100,SBD,Single-ply,No,Open,26,1990-07-01
1,M,Ekaterina Lyashevskaya,Екатерина Ляшевская,64,-75,-80,80,80,,,,,,,,,,,,80,67.5,S,Raw,Yes,Open,26,1989-12-12
1,M,Aleksey Naumenko,Алексей Науменко,72.8,150,160,167.5,167.5,,,,,,,,,,,,167.5,75,S,Raw,Yes,Open,25,1991-07-31
1,M,Andrey Berkovich,Андрей Беркович,87.6,-200,200,210,210,,,,,,,,,,,,210,90,S,Raw,No,Open,44,1972-10-07
1,M,Andrey Berkovich,Андрей Беркович,87.6,-200,200,210,210,,,,,,,,,,,,210,90,S,Raw,No,Masters 40-44,44,1972-10-07
1,M,Andrey Davydov,Андрей Давыдов,103.4,-210,210,-215,210,,,,,,,,,,,,210,110,S,Wraps,Yes,Open,24,1992-08-18
1,F,Evgeniya Anisimova,Евгения Анисимова,51.1,,,,,,40,45,47.5,47.5,,,,,,,47.5,52,B,Raw,Yes,Open,24,1992-06-26
1,F,Antonina Oskolkova,Антонина Осколкова,58.4,,,,,,45,47.5,-50,47.5,,,,,,,47.5,60,B,Raw,Yes,Juniors 20-23,22,1994-09-07
DQ,F,Anna Kolesnikova,Анна Колесникова,59.7,,,,,,-70,-70,,,,,,,,,,60,B,Raw,Yes,Open,18,1998-03-03
1,M,Vladimir Shukshin,Владимир Шукшин,67.5,,,,,,145,-152.5,152.5,152.5,,,,,,,152.5,67.5,B,Raw,Yes,Open,26,1990-02-23
1,M,Georgiy Tyupich,Георгий Тюпич,72.9,,,,,,70,80,87.5,87.5,,,,,,,87.5,75,B,Raw,Yes,Teen 16-17,17,1998-12-12
1,M,Nikita Gorbunov,Никита Горбунов,73.1,,,,,,-130,-130,135,135,,,,,,,135,75,B,Raw,Yes,Juniors 20-23,21,1995-10-23
1,M,Aleksandr Tsin-De-Shan,Александр Цин-Дэ-Шань,75,,,,,,-135,135,145,145,,,,,,,145,75,B,Raw,Yes,Open,30,1986-11-12
1,M,Roman Kazaryan,Роман Казарьян,79.9,,,,,,62.5,65,67.5,67.5,,,,,,,67.5,82.5,B,Raw,Yes,Teen 13-15,14,2002-04-14
1,M,Evgeniy Cherepanov,Евгений Черепанов,89.8,,,,,,135,142.5,147.5,147.5,,,,,,,147.5,90,B,Raw,Yes,Open,30,1986-07-19
2,M,Nikita Ponomarenko,Никита Пономаренко,85.1,,,,,,132.5,-140,140,140,,,,,,,140,90,B,Raw,Yes,Open,34,1982-09-04
3,M,Aleksandr Bubenyov,Александр Бубенёв,89.7,,,,,,132.5,-140,-140,132.5,,,,,,,132.5,90,B,Raw,Yes,Open,42,1974-01-27
4,M,Denis Kalgin,Денис Калгин,87.6,,,,,,-122.5,122.5,-132.5,122.5,,,,,,,122.5,90,B,Raw,Yes,Open,26,1990-03-07
1,M,Aleksandr Skosyrskiy,Александр Скосырский,98.4,,,,,,-162.5,-162.5,162.5,162.5,,,,,,,162.5,100,B,Raw,Yes,Open,24,1992-12-03
2,M,Pavel Babich,Павел Бабич,98.5,,,,,,120,130,-140,130,,,,,,,130,100,B,Raw,Yes,Open,32,1984-08-09
1,M,Sergey Synkov,Сергей Сынков,59,,,,,,85,-90,95,95,,,,,,,95,60,B,Raw,No,Teen 13-15,15,2001-11-26
1,M,Sergey Synkov,Сергей Сынков,59,,,,,,85,-90,95,95,,,,,,,95,60,B,Raw,No,Open,15,2001-11-26
1,M,Egor Pashkov,Егор Пашков,62.8,,,,,,80,85,90,90,,,,,,,90,67.5,B,Raw,No,Teen 16-17,16,2000-06-08
2,M,Vadim Gorbachev,Вадим Горбачев,63.8,,,,,,65,72.5,75,75,,,,,,,75,67.5,B,Raw,No,Teen 16-17,16,2000-04-22
1,M,Andrey Berkovich,Андрей Беркович,87.6,,,,,,170,180,,180,,,,,,,180,90,B,Raw,No,Open,44,1972-10-07
1,M,Andrey Berkovich,Андрей Беркович,87.6,,,,,,170,180,,180,,,,,,,180,90,B,Raw,No,Masters 40-44,44,1972-10-07
1,M,Maksim Vodopyanov,Максим Водопьянов,99.6,,,,,,180,-185,-185,180,,,,,,,180,100,B,Raw,No,Juniors 20-23,22,1994-05-17
1,M,Vasiliy Synkov,Василий Сынков,99.8,,,,,,200,210,-215,210,,,,,,,210,100,B,Raw,No,Open,44,1972-09-07
2,M,Maksim Medvedev,Максим Медведев,91.8,,,,,,180,190,-200,190,,,,,,,190,100,B,Raw,No,Open,35,1981-05-16
3,M,Aleksandr Bagaev,Александр Багаев,99.5,,,,,,170,-185,-185,170,,,,,,,170,100,B,Raw,No,Open,30,1986-04-04
1,M,Vasiliy Synkov,Василий Сынков,99.8,,,,,,200,210,-215,210,,,,,,,210,100,B,Raw,No,Masters 40-44,44,1972-09-07
1,M,Ilya Kharlamov,Илья Харламов,100.3,,,,,,175,182.5,190,190,,,,,,,190,110,B,Raw,No,Juniors 20-23,23,1993-09-12
1,M,Sergey Zinchenko,Сергей Зинченко,106.2,,,,,,185,190,-200,190,,,,,,,190,110,B,Raw,No,Open,28,1988-03-28
1,M,Andrey Isaenkov,Андрей Исаенков,80.15,,,,,,165,170,-175,170,,,,,,,170,82.5,B,Raw,Yes,Masters 40-44,44,1972-08-22
1,M,Nikita Novozhilov,Никита Новожилов,87.55,,,,,,162.5,-177.5,-177.5,162.5,,,,,,,162.5,90,B,Raw,Yes,Juniors 20-23,23,1993-05-17
1,M,Vladimir Gordeev,Владимир Гордеев,89.4,,,,,,140,-155,-155,140,,,,,,,140,90,B,Raw,Yes,Open,33,1983-04-04
1,M,Rustam Bakeev,Рустам Бакеев,99.9,,,,,,167.5,177.5,-185,177.5,,,,,,,177.5,100,B,Raw,Yes,Open,37,1979-08-27
1,M,Mikhail Firsov,Михаил Фирсов,73.6,,,,,,190,-205,-205,190,,,,,,,190,75,B,Raw,No,Open,35,1981-02-13
1,M,Aleksandr Feofanov,Александр Феофанов,98.6,,,,,,210,-225,-225,210,,,,,,,210,100,B,Raw,No,Masters 40-44,44,1972-01-17
1,F,Elena Saprygina,Елена Сапрыгина,70.6,,,,,,82.5,90,92.5,92.5,,,,,,,92.5,75,B,Raw,No,Open,37,1979-06-05
1,M,Evgeniy Burmistrov,Евгений Бурмистров,59.9,,,,,,70,75,,75,,,,,,,75,60,B,Raw,No,Open,37,1979-03-09
1,M,Nikolay Muravev,Николай Муравьев,72.8,,,,,,80,-85,-85,80,,,,,,,80,75,B,Raw,No,Open,27,1989-03-02
1,M,Sergey Prosnyak,Сергей Просняк,94,,,,,,90,102.5,-110,102.5,,,,,,,102.5,100,B,Raw,No,Open,30,1986-09-08
1,F,Evgeniya Anisimova,Евгения Анисимова,51.1,,,,,,,,,,,92.5,102.5,105,105,,105,52,D,Raw,Yes,Open,24,1992-06-26
1,F,Tatyana Barabanova,Татьяна Барабанова,56,,,,,,,,,,,85,-90,-90,85,,85,56,D,Raw,Yes,Juniors 20-23,20,1996-01-21
1,F,Olga Epikhina,Ольга Епихина,59.7,,,,,,,,,,,75,85,-92.5,85,,85,60,D,Raw,Yes,Open,28,1988-11-10
1,F,Ekaterina Lyashevskaya,Екатерина Ляшевская,64,,,,,,,,,,,100,105,110,110,,110,67.5,D,Raw,Yes,Open,26,1989-12-12
1,M,Dmitro Grigorev,Дмитро Григорьєв,65.7,,,,,,,,,,,-160,170,-195,170,,170,67.5,D,Raw,Yes,Juniors 20-23,23,1993-04-04
1,M,Aleksey Naumenko,Алексей Науменко,72.8,,,,,,,,,,,170,182.5,187.5,187.5,,187.5,75,D,Raw,Yes,Open,25,1991-07-31
1,M,Konstantin Gordienko,Константин Гордиенко,78.6,,,,,,,,,,,200,220,-225,220,,220,82.5,D,Raw,Yes,Open,30,1986-03-13
2,M,Viktor Khudyakov,Виктор Худяков,82.4,,,,,,,,,,,210,220,-225,220,,220,82.5,D,Raw,Yes,Open,36,1979-12-04
1,M,Aleksey Sotnikov,Алексей Сотников,97.6,,,,,,,,,,,200,215,-240,215,,215,100,D,Raw,Yes,Teen 18-19,19,1996-12-12
1,M,Andrey Davydov,Андрей Давыдов,103.4,,,,,,,,,,,210,220,227.5,227.5,,227.5,110,D,Raw,Yes,Open,24,1992-08-18
1,M,Vadim Gorbachev,Вадим Горбачев,63.8,,,,,,,,,,,100,110,-115,110,,110,67.5,D,Raw,No,Teen 16-17,16,2000-04-22
1,M,Ilya Goldaev,Илья Голдаев,88.5,,,,,,,,,,,210,225,-235,225,,225,90,D,Raw,No,Teen 18-19,19,1997-02-12
2,M,Anton Ilinykh,Антон Ильиных,84.1,,,,,,,,,,,150,160,-170,160,,160,90,D,Raw,No,Teen 18-19,18,1998-04-03
1,M,Andrey Berkovich,Андрей Беркович,87.6,,,,,,,,,,,240,250,-260,250,,250,90,D,Raw,No,Open,44,1972-10-07
1,M,Andrey Berkovich,Андрей Беркович,87.6,,,,,,,,,,,240,250,-260,250,,250,90,D,Raw,No,Masters 40-44,44,1972-10-07
1,M,Maksim Medvedev,Максим Медведев,91.8,,,,,,,,,,,250,270,-290,270,,270,100,D,Raw,No,Open,35,1981-05-16
2,M,Pavel Bogatchuk,Павел Богатчук,100,,,,,,,,,,,230,250,-260,250,,250,100,D,Raw,No,Open,33,1983-05-09
1,M,Ivan Zevyakin,Иван Зевякин,109.3,,,,,,,,,,,325,340,-355,340,,340,110,D,Raw,No,Open,28,1988-06-28
2,M,Sergey Zinchenko,Сергей Зинченко,106.2,,,,,,,,,,,285,300,-315,300,,300,110,D,Raw,No,Open,28,1988-03-28
